<?xml version="1.0" encoding="UTF-8" standalone="no"?>
<!-- Created with Inkscape (http://www.inkscape.org/) -->

<svg
   xmlns:dc="http://purl.org/dc/elements/1.1/"
   xmlns:cc="http://creativecommons.org/ns#"
   xmlns:rdf="http://www.w3.org/1999/02/22-rdf-syntax-ns#"
   xmlns:svg="http://www.w3.org/2000/svg"
   xmlns="http://www.w3.org/2000/svg"
   xmlns:sodipodi="http://sodipodi.sourceforge.net/DTD/sodipodi-0.dtd"
   xmlns:inkscape="http://www.inkscape.org/namespaces/inkscape"
   width="258.51938mm"
   height="98.621902mm"
   viewBox="0 0 258.51938 98.621904"
   version="1.1"
   id="svg8"
   inkscape:version="0.92.4 (0.92.4+201906150354+3e976dc)"
   sodipodi:docname="funtoo_logo.svg"
   inkscape:export-filename="/home/crogers/Dropbox/current_projects/linux_stuff/linux_distro_logos/crunchbang_linux_logo_1000px.png"
   inkscape:export-xdpi="192"
   inkscape:export-ydpi="192">
  <defs
     id="defs2" />
  <sodipodi:namedview
     id="base"
     pagecolor="#ffffff"
     bordercolor="#666666"
     borderopacity="1.0"
     inkscape:pageopacity="0.0"
     inkscape:pageshadow="2"
     inkscape:zoom="0.49497475"
     inkscape:cx="1057.0373"
     inkscape:cy="-45.995057"
     inkscape:document-units="mm"
     inkscape:current-layer="text1484"
     showgrid="false"
     inkscape:snap-global="false" />
  <metadata
     id="metadata5">
    <rdf:RDF>
      <cc:Work
         rdf:about="">
        <dc:format>image/svg+xml</dc:format>
        <dc:type
           rdf:resource="http://purl.org/dc/dcmitype/StillImage" />
        <dc:title></dc:title>
      </cc:Work>
    </rdf:RDF>
  </metadata>
  <g
     inkscape:label="Layer 1"
     inkscape:groupmode="layer"
     id="layer1"
     transform="translate(420.41813,-55.863938)">
    <g
       aria-label="#!"
       style="font-style:normal;font-variant:normal;font-weight:normal;font-stretch:normal;font-size:123.7717514px;line-height:1.25;font-family:'Hi Melody';-inkscape-font-specification:'Hi Melody';text-align:center;text-decoration:none;text-decoration-line:none;text-decoration-color:#000000;letter-spacing:0px;word-spacing:0px;text-anchor:middle;opacity:1;vector-effect:none;fill:#000000;fill-opacity:1;fill-rule:evenodd;stroke:#000000;stroke-width:53.31735611;stroke-linecap:butt;stroke-linejoin:miter;stroke-miterlimit:4;stroke-dasharray:none;stroke-dashoffset:0;stroke-opacity:1;paint-order:stroke markers fill"
       id="text1484">
      <path
         style="fill:#000000;stroke:none;stroke-width:24.05423737"
         d="m -223.26473,154.10173 c -7.75869,-1.35435 -14.24205,-5.99931 -17.15302,-12.28915 l -1.30282,-2.81505 -0.0206,6.20334 -0.0207,6.20333 h -69.47743 -69.47744 V 124.33507 97.265955 h -6.5417 -6.54171 v 27.069115 27.06913 h -7.66959 -7.66959 V 124.33507 97.265955 h -5.6394 -5.6394 V 90.94982 84.633701 h 5.60057 5.60059 l 0.1516,-5.088287 c 0.13897,-4.663188 0.2727,-5.3322 1.60109,-8.007943 3.77515,-7.604199 11.85607,-14.017186 19.42713,-15.417329 3.82925,-0.708146 11.0533,0.11953 14.39459,1.64923 l 2.39633,1.097071 -1.39623,3.747799 c -0.76793,2.061295 -1.8106,4.881633 -2.31706,6.267403 l -0.92085,2.519602 -1.77717,-0.612283 c -2.33783,-0.805457 -9.58608,-0.933496 -11.71413,-0.206952 -2.09175,0.714164 -4.67244,3.532542 -5.29827,5.786245 -0.26325,0.948059 -0.4798,3.195623 -0.48117,4.994599 l -0.002,3.270845 h 7.21842 7.21843 v 6.316119 6.316135 h 6.31613 6.31614 v 16.818785 16.81878 l 5.52661,3.93255 5.52663,3.93254 21.76808,0.002 21.7681,0.002 V 118.01924 97.266232 h -6.54171 -6.54171 v 13.534558 13.53456 h -13.30899 -13.30897 V 110.80079 97.266232 h -7.21845 -7.21844 V 90.95011 84.633974 h 63.15013 63.15012 l 0.12396,-7.303915 0.12397,-7.303906 7.54901,-3.031385 7.54901,-3.031383 0.12055,11.124822 0.12055,11.124524 7.89517,0.122088 7.89514,0.122088 2.08872,-2.882022 c 2.82204,-3.893896 5.83386,-5.446803 10.04396,-5.17872 3.79638,0.241738 6.61976,1.948056 9.04237,5.464827 1.55054,2.250828 1.96294,2.577364 3.25498,2.577364 1.07746,0 1.6226,-0.275824 2.00615,-1.015088 3.40166,-6.556347 10.78274,-9.016458 16.48143,-5.493226 5.73253,3.544154 6.94651,14.372585 2.22918,19.883742 -2.15655,2.519426 -4.2899,3.449906 -7.90987,3.449906 -4.37752,0 -7.42829,-1.7771 -10.17432,-5.926635 -1.08496,-1.639488 -1.45179,-1.875648 -2.91349,-1.875648 -1.33612,0 -1.7733,0.221831 -2.1751,1.103651 -0.90166,1.978966 -3.88323,4.885992 -5.95811,5.809192 -2.45145,1.09074 -6.31439,1.17527 -8.63484,0.18891 -2.13589,-0.90788 -4.95699,-3.476146 -6.05213,-5.509717 l -0.86789,-1.611567 -8.12566,0.122605 -8.12569,0.122595 v 19.245384 19.24538 l 1.39045,1.73319 c 1.70045,2.11964 5.45141,4.45465 7.74038,4.81845 2.09705,0.33331 6.6692,-0.59343 10.39322,-2.10664 l 2.80797,-1.14098 v 6.98428 6.98426 l -1.58333,0.66158 c -4.97756,2.07974 -12.8439,2.93666 -18.26735,1.98993 z m -60.00324,-28.86435 v -13.53456 h 13.53457 13.53457 v 13.53456 13.53458 h 7.44399 7.44402 v -16.61401 -16.61398 l -1.01508,-0.91767 c -0.55832,-0.50473 -3.22573,-2.47073 -5.92761,-4.36892 l -4.91251,-3.451248 -21.47989,0.117136 -21.4799,0.117147 -0.11731,20.865775 -0.11731,20.8658 h 6.5462 6.54622 z m 86.98198,-26.800676 c 4.10739,-2.137071 5.49657,-7.715561 3.07711,-12.356718 -2.32058,-4.451452 -8.32124,-4.218802 -10.68486,0.414281 -0.78166,1.532172 -0.93397,2.485057 -0.79378,4.965953 0.19204,3.398673 0.97184,4.857825 3.52465,6.595254 1.71774,1.16908 3.1478,1.28087 4.87688,0.38123 z m 26.70835,-0.667885 c 2.95739,-2.048512 4.01616,-7.468454 2.19418,-11.232162 -3.0252,-6.2492 -10.66227,-4.386128 -11.87167,2.896115 -1.06362,6.404426 4.96686,11.598988 9.67749,8.336047 z"
         id="path887"
         inkscape:connector-curvature="0" />
    </g>
  </g>
</svg>
