<?xml version="1.0" encoding="UTF-8" standalone="no"?>
<!-- Created with Inkscape (http://www.inkscape.org/) -->

<svg
   xmlns:dc="http://purl.org/dc/elements/1.1/"
   xmlns:cc="http://creativecommons.org/ns#"
   xmlns:rdf="http://www.w3.org/1999/02/22-rdf-syntax-ns#"
   xmlns:svg="http://www.w3.org/2000/svg"
   xmlns="http://www.w3.org/2000/svg"
   xmlns:sodipodi="http://sodipodi.sourceforge.net/DTD/sodipodi-0.dtd"
   xmlns:inkscape="http://www.inkscape.org/namespaces/inkscape"
   width="28.520473mm"
   height="28.520443mm"
   viewBox="0 0 28.520473 28.520444"
   version="1.1"
   id="svg314"
   inkscape:version="0.92.4 (0.92.4+201904251222+dc25406)"
   sodipodi:docname="gecko_linux.svg">
  <defs
     id="defs308">
    <inkscape:path-effect
       effect="skeletal"
       id="path-effect881"
       is_visible="true"
       pattern="m 88.894691,29.551112 c 0.335453,-1.065208 0.875973,-2.130417 2.855665,-3.195625 -0.259611,1.12793 -0.205605,2.067691 0.175813,2.811004 z"
       copytype="repeated_stretched"
       prop_scale="0.5"
       scale_y_rel="false"
       spacing="0"
       normal_offset="0"
       tang_offset="0"
       prop_units="false"
       vertical_pattern="true"
       fuse_tolerance="2" />
  </defs>
  <sodipodi:namedview
     id="base"
     pagecolor="#ffffff"
     bordercolor="#666666"
     borderopacity="1.0"
     inkscape:pageopacity="0.0"
     inkscape:pageshadow="2"
     inkscape:zoom="1.4"
     inkscape:cx="99.258927"
     inkscape:cy="126.5776"
     inkscape:document-units="mm"
     inkscape:current-layer="layer1"
     showgrid="false"
     inkscape:window-width="1236"
     inkscape:window-height="738"
     inkscape:window-x="44"
     inkscape:window-y="25"
     inkscape:window-maximized="1"
     showguides="false"
     inkscape:snap-global="false"
     inkscape:object-paths="true"
     inkscape:snap-intersection-paths="true"
     inkscape:snap-smooth-nodes="true"
     inkscape:snap-midpoints="true"
     showborder="true" />
  <metadata
     id="metadata311">
    <rdf:RDF>
      <cc:Work
         rdf:about="">
        <dc:format>image/svg+xml</dc:format>
        <dc:type
           rdf:resource="http://purl.org/dc/dcmitype/StillImage" />
        <dc:title></dc:title>
      </cc:Work>
    </rdf:RDF>
  </metadata>
  <g
     inkscape:label="logo"
     inkscape:groupmode="layer"
     id="layer1"
     transform="translate(-23.708713,-24.599147)"
     style="display:inline">
    <path
       style="color:#000000;font-style:normal;font-variant:normal;font-weight:normal;font-stretch:normal;font-size:medium;line-height:normal;font-family:sans-serif;font-variant-ligatures:normal;font-variant-position:normal;font-variant-caps:normal;font-variant-numeric:normal;font-variant-alternates:normal;font-feature-settings:normal;text-indent:0;text-align:start;text-decoration:none;text-decoration-line:none;text-decoration-style:solid;text-decoration-color:#000000;letter-spacing:normal;word-spacing:normal;text-transform:none;writing-mode:lr-tb;direction:ltr;text-orientation:mixed;dominant-baseline:auto;baseline-shift:baseline;text-anchor:start;white-space:normal;shape-padding:0;clip-rule:nonzero;display:inline;overflow:visible;visibility:visible;opacity:1;isolation:auto;mix-blend-mode:normal;color-interpolation:sRGB;color-interpolation-filters:linearRGB;solid-color:#000000;solid-opacity:1;vector-effect:none;fill:#000000;fill-opacity:1;fill-rule:nonzero;stroke:none;stroke-width:0.63554806;stroke-linecap:round;stroke-linejoin:round;stroke-miterlimit:4;stroke-dasharray:none;stroke-dashoffset:0;stroke-opacity:1;color-rendering:auto;image-rendering:auto;shape-rendering:auto;text-rendering:auto;enable-background:accumulate"
       d="m 37.814628,24.599827 c -2.746989,0.02679 -5.515251,0.845466 -7.944993,2.522058 -6.479315,4.470907 -8.109146,13.357207 -3.638238,19.836522 4.470909,6.479315 13.357467,8.109534 19.836781,3.638623 6.479314,-4.470907 8.109275,-13.357853 3.638366,-19.837168 -2.794317,-4.04957 -7.313603,-6.204684 -11.891916,-6.160035 z m 0.0086,0.632095 c 4.373111,-0.0437 8.687778,2.016054 11.360175,5.888936 4.275834,6.19661 2.720465,14.677251 -3.476145,18.953085 -6.19661,4.275834 -14.676734,2.720078 -18.952568,-3.476532 -4.275834,-6.19661 -2.720596,-14.676475 3.476015,-18.95231 2.323729,-1.603438 4.968656,-2.386956 7.592523,-2.413179 z m 0.09622,1.221573 a 12.406004,12.406004 0 0 0 -6.996203,2.194902 12.406004,12.406004 0 0 0 -3.165134,17.256859 12.406004,12.406004 0 0 0 17.25686,3.165134 12.406004,12.406004 0 0 0 5.332783,-9.668601 c -0.183237,-0.127862 -0.368161,-0.253133 -0.55964,-0.368614 -0.590858,-0.336956 -1.214786,-0.610183 -1.889186,-0.72974 -0.825258,-0.120858 -1.662499,-0.179328 -2.492481,-0.06083 -0.01087,-0.169282 -0.20273,2.913862 -1.36132,3.509854 -0.175929,2.983864 0.650461,1.706864 0.45231,3.369072 -0.485861,1.297179 -1.783755,2.238415 -3.080922,1.752539 -1.297176,-0.485844 -0.909227,-1.881919 -0.423378,-3.179083 0.282118,-0.749822 1.27593,-0.852763 1.523153,-2.246177 -1.060281,-1.752337 -2.623573,-0.994093 -4.587028,0.08447 -2.023704,1.210143 -1.753495,1.538529 -1.862063,3.717152 -0.465154,1.24199 -1.849022,1.871702 -3.090997,1.406525 -1.241975,-0.465168 -1.871833,-1.849011 -1.406653,-3.090997 0.465155,-1.241973 1.849142,-1.871704 3.091125,-1.406524 1.004632,0.307168 3.608454,-2.164336 2.399101,-2.623834 -0.107454,-0.01481 -0.214978,-0.02952 -0.322507,-0.04378 -0.121446,0.02129 -0.247328,0.03047 -0.37856,0.02622 -3.185527,-0.225495 -4.031168,2.137298 -6.307922,1.256703 -1.241965,-0.46518 -1.871694,-1.849166 -1.406525,-3.091126 0.465164,-1.241973 1.849166,-1.871562 3.091126,-1.406396 1.646544,0.656534 2.33095,2.558654 4.797296,2.117407 0.454597,-0.02125 0.494459,0.0051 0.836553,-0.287504 0.195917,-0.188939 0.345675,-0.413005 0.434873,-0.663094 -0.01544,-0.01991 -0.0321,-0.04116 -0.05102,-0.066 -0.09214,-0.107942 -0.190544,-0.209974 -0.291121,-0.309978 -0.252211,-0.191873 -0.504107,-0.384076 -0.755829,-0.576559 -0.08433,-0.06553 -0.168505,-0.13127 -0.252633,-0.197094 -1.344565,-0.772016 -1.825072,-0.481808 -3.519153,-0.47995 -1.24197,-0.465166 -1.871709,-1.849023 -1.406525,-3.090997 0.0562,-0.150033 0.127192,-0.294095 0.212076,-0.429964 l 2.51e-4,-1.3e-4 c 0.605186,-0.96884 1.809159,-1.377229 2.878919,-0.97656 2.724134,1.864314 0.424338,3.718086 3.714957,4.602398 0.308918,-0.02085 0.575699,-0.160729 0.824929,-0.333872 1.073224,-0.856901 -1.724917,-2.058967 -1.385472,-3.713794 0.320452,-0.855602 1.273833,-1.289537 2.129419,-0.969068 0.855579,0.320455 1.289397,1.273845 0.968939,2.129418 -0.845737,1.774638 -0.109369,3.026232 2.073753,2.615569 1.422933,-0.291254 2.720159,-0.999978 3.949893,-1.747888 0.624473,-0.387004 1.213093,-0.82753 1.760675,-1.316373 A 12.406004,12.406004 0 0 0 48.180101,31.81354 12.406004,12.406004 0 0 0 37.919444,26.453505 Z"
       id="circle9585-6"
       inkscape:connector-curvature="0" />
  </g>
</svg>
