<?xml version="1.0" encoding="UTF-8" standalone="no"?>
<!-- Created with Inkscape (http://www.inkscape.org/) -->

<svg
   xmlns:dc="http://purl.org/dc/elements/1.1/"
   xmlns:cc="http://creativecommons.org/ns#"
   xmlns:rdf="http://www.w3.org/1999/02/22-rdf-syntax-ns#"
   xmlns:svg="http://www.w3.org/2000/svg"
   xmlns="http://www.w3.org/2000/svg"
   xmlns:xlink="http://www.w3.org/1999/xlink"
   xmlns:sodipodi="http://sodipodi.sourceforge.net/DTD/sodipodi-0.dtd"
   xmlns:inkscape="http://www.inkscape.org/namespaces/inkscape"
   width="48.060944mm"
   height="48.054287mm"
   viewBox="0 0 48.060944 48.054287"
   version="1.1"
   id="svg314"
   inkscape:version="0.92.4 (0.92.4+201904251222+dc25406)"
   sodipodi:docname="kde_neon_logo.svg">
  <defs
     id="defs308">
    <mask
       maskUnits="userSpaceOnUse"
       id="mask5289">
      <rect
         y="253.5773"
         x="267.5437"
         height="28.51399"
         width="93.388603"
         id="rect5291"
         style="color:#000000;overflow:visible;opacity:1;fill:url(#linearGradient5293);fill-opacity:1;stroke:none;stroke-width:0.26499999;stroke-miterlimit:4;stroke-dasharray:none;paint-order:markers fill stroke" />
    </mask>
    <linearGradient
       inkscape:collect="always"
       xlink:href="#linearGradient4522"
       id="linearGradient5293"
       gradientUnits="userSpaceOnUse"
       gradientTransform="matrix(1.2048872,0,0,0.90412108,-63.105808,19.880198)"
       x1="363.27399"
       y1="254.75394"
       x2="261.55945"
       y2="293.64957" />
    <linearGradient
       inkscape:collect="always"
       id="linearGradient4522">
      <stop
         style="stop-color:#000000;stop-opacity:1"
         offset="0"
         id="stop4516" />
      <stop
         id="stop4518"
         offset="0.49042651"
         style="stop-color:#ffffff;stop-opacity:1" />
      <stop
         style="stop-color:#000000;stop-opacity:1"
         offset="1"
         id="stop4520" />
    </linearGradient>
    <filter
       inkscape:collect="always"
       style="color-interpolation-filters:sRGB"
       id="filter4389-0-1-5"
       x="-0.042493366"
       width="1.0849867"
       y="-0.14771166"
       height="1.2954233">
      <feGaussianBlur
         inkscape:collect="always"
         stdDeviation="1.0597623"
         id="feGaussianBlur4391-9-8-6" />
    </filter>
  </defs>
  <sodipodi:namedview
     id="base"
     pagecolor="#ffffff"
     bordercolor="#666666"
     borderopacity="1.0"
     inkscape:pageopacity="0.0"
     inkscape:pageshadow="2"
     inkscape:zoom="0.98994949"
     inkscape:cx="153.26487"
     inkscape:cy="29.35334"
     inkscape:document-units="mm"
     inkscape:current-layer="g5797"
     showgrid="false"
     inkscape:window-width="1236"
     inkscape:window-height="738"
     inkscape:window-x="44"
     inkscape:window-y="25"
     inkscape:window-maximized="1"
     inkscape:snap-global="true" />
  <metadata
     id="metadata311">
    <rdf:RDF>
      <cc:Work
         rdf:about="">
        <dc:format>image/svg+xml</dc:format>
        <dc:type
           rdf:resource="http://purl.org/dc/dcmitype/StillImage" />
        <dc:title></dc:title>
      </cc:Work>
    </rdf:RDF>
  </metadata>
  <g
     inkscape:label="Layer 1"
     inkscape:groupmode="layer"
     id="layer1"
     transform="translate(-14.652923,-14.269451)">
    <path
       transform="matrix(1.9565749,0,0,1.9565749,-489.21078,-433.49023)"
       inkscape:connector-curvature="0"
       id="path4305-8-9-3"
       d="m 275.84868,258.72096 v 16.1698"
       style="fill:#00ffff;fill-rule:evenodd;stroke:#ffffff;stroke-width:0.13544075;stroke-linecap:butt;stroke-linejoin:miter;stroke-miterlimit:4;stroke-dasharray:none;stroke-opacity:1;filter:url(#filter4389-0-1-5)" />
    <path
       style="fill:#f2f2f2;fill-rule:evenodd;stroke:#ffffff;stroke-width:0.26499999;stroke-linecap:butt;stroke-linejoin:miter;stroke-miterlimit:4;stroke-dasharray:none;stroke-opacity:1"
       d="M 51.566168,72.716704 V 104.35413"
       id="path4325-7-3-6"
       inkscape:connector-curvature="0" />
    <g
       style="display:inline;fill:#1a1a1a"
       transform="translate(-703.51889,-119.56984)"
       id="g5797">
      <g
         id="g5509"
         style="fill:#000000;stroke-width:0.94189805"
         transform="matrix(1.0616862,0,0,1.0616862,-140.34541,-81.346051)">
        <path
           sodipodi:nodetypes="cccccccccccccccccccccccccccccccscccccccccccccsccccccccccccccccsccccccccccccccccscccccccccccccccccccccccccccccccccccccccccscccscccccccccccccscccccccccccccccccccccccccccccccccccccccccccccccccccccccccsccccccscccccccccccccccccccccccscccccccsccccccccccccccccc"
           style="fill:#000000;stroke-width:0.94189805"
           d="m 831.89032,247.84023 c 0.494,-0.17362 0.93381,-0.60288 1.10846,-1.08186 0.0524,-0.14357 0.10712,-0.26121 0.12175,-0.26142 0.0983,-0.001 1.21978,-0.14391 1.54604,-0.1964 3.61982,-0.58228 7.1884,-2.17612 10.00429,-4.46823 l 0.30861,-0.2512 0.18745,0.0827 c 0.31713,0.14001 0.71496,0.19374 1.02723,0.13873 0.81976,-0.1444 1.41625,-0.73825 1.55974,-1.55281 0.0543,-0.30792 -0.002,-0.72974 -0.1395,-1.04064 -0.0818,-0.18531 -0.082,-0.19604 -0.008,-0.2891 0.91146,-1.14265 1.34753,-1.75935 1.91655,-2.71046 1.55965,-2.60688 2.59352,-5.65499 2.89537,-8.53626 0.0388,-0.37063 0.0716,-0.5223 0.11817,-0.54625 0.0355,-0.0183 0.18089,-0.087 0.32325,-0.15274 0.71213,-0.32901 1.15905,-1.18239 1.01856,-1.94486 -0.12969,-0.70385 -0.58131,-1.24271 -1.2255,-1.46221 l -0.19742,-0.0673 -0.0265,-0.2449 c -0.38178,-3.54099 -1.50302,-6.72442 -3.37445,-9.58074 -0.43773,-0.66811 -0.86674,-1.26166 -1.26958,-1.75657 l -0.25121,-0.30861 0.0827,-0.18745 c 0.14001,-0.31713 0.19373,-0.71496 0.13873,-1.02722 -0.21239,-1.20579 -1.41922,-1.89623 -2.52725,-1.4459 -0.24288,0.0987 -0.25981,0.10018 -0.3497,0.03 -1.78896,-1.3954 -2.70807,-1.98776 -4.30474,-2.7743 -2.09776,-1.03338 -4.44055,-1.73404 -6.69329,-2.00174 -0.78122,-0.0929 -0.79738,-0.0965 -0.82568,-0.18398 -0.29164,-0.90256 -1.17263,-1.46076 -2.07058,-1.31196 -0.68346,0.11323 -1.24469,0.58512 -1.46501,1.23172 -0.0376,0.11012 -0.0943,0.20014 -0.12619,0.20014 -0.23634,0 -1.6155,0.20676 -2.30674,0.34582 -3.28024,0.65992 -6.48138,2.14177 -8.99928,4.16587 -0.24054,0.19337 -0.45568,0.36291 -0.47808,0.37676 -0.0224,0.0139 -0.15551,-0.0215 -0.29576,-0.0785 -1.50784,-0.61284 -3.0239,0.90566 -2.41066,2.41454 l 0.10481,0.25776 -0.12181,0.15181 c -1.17554,1.46517 -2.03597,2.81148 -2.77016,4.33448 -1.00006,2.07446 -1.66838,4.34398 -1.94688,6.6112 l -0.0966,0.7865 -0.19036,0.0648 c -0.83747,0.28535 -1.36599,1.16547 -1.22192,2.03485 0.11323,0.68344 0.58511,1.24468 1.23171,1.46499 0.11012,0.0376 0.20014,0.0943 0.20014,0.12619 0,0.2317 0.20802,1.61554 0.34853,2.31864 0.65003,3.25254 2.13714,6.46097 4.16569,8.98746 0.18617,0.23187 0.3522,0.44343 0.36896,0.47015 0.0168,0.0267 -0.0162,0.16334 -0.0731,0.3036 -0.44869,1.10396 0.24046,2.31468 1.43756,2.52554 0.30744,0.0541 0.72965,-0.002 1.03926,-0.13887 l 0.19107,-0.0844 0.15401,0.12356 c 2.60702,2.09173 5.24139,3.42888 8.302,4.21391 1.03823,0.26631 2.18714,0.47372 3.1172,0.56276 l 0.30885,0.0296 0.0919,0.25187 c 0.33747,0.92556 1.39855,1.41407 2.34722,1.08065 z m -0.9568,-0.73476 c -0.87006,-0.3005 -0.98645,-1.46528 -0.19302,-1.93165 0.17705,-0.10411 0.25311,-0.12151 0.53021,-0.12151 0.27711,0 0.35317,0.0174 0.53024,0.12151 0.49313,0.28986 0.67686,0.90383 0.42073,1.40591 -0.12122,0.2376 -0.39464,0.46353 -0.65427,0.54064 -0.28428,0.0845 -0.35087,0.0828 -0.63389,-0.0149 z m -1.64701,-1.67317 c -3.89661,-0.41275 -7.50396,-1.86371 -10.52501,-4.23339 -0.22538,-0.17678 -0.42547,-0.33533 -0.44465,-0.35231 -0.0192,-0.017 0.007,-0.15495 0.0584,-0.3066 0.13972,-0.41336 0.10908,-0.94649 -0.0772,-1.34432 -0.18036,-0.3852 -0.51981,-0.72465 -0.90501,-0.90502 -0.39363,-0.18431 -0.93427,-0.21709 -1.32743,-0.0805 l -0.25882,0.0899 -0.14479,-0.16099 c -0.0796,-0.0885 -0.33445,-0.41331 -0.56625,-0.72173 -2.10911,-2.80635 -3.4539,-6.11719 -3.90359,-9.61059 -0.0966,-0.75003 -0.0998,-0.7296 0.1332,-0.8428 0.62194,-0.30216 1.00906,-0.93365 1.00906,-1.64605 0,-0.71147 -0.3872,-1.34392 -1.00717,-1.64513 l -0.19687,-0.0957 0.0228,-0.19722 c 0.20324,-1.76197 0.50787,-3.17121 0.98955,-4.57777 0.79617,-2.32489 1.91658,-4.33893 3.54593,-6.3741 l 0.0803,-0.1003 0.27778,0.0938 c 0.41553,0.14045 0.94767,0.11023 1.34639,-0.0765 0.38519,-0.18036 0.72465,-0.51982 0.905,-0.90502 0.18432,-0.39363 0.21711,-0.93427 0.0805,-1.32743 l -0.0899,-0.25882 0.161,-0.14479 c 0.0885,-0.0796 0.41332,-0.33445 0.72174,-0.56625 2.80634,-2.10911 6.11718,-3.4539 9.61058,-3.9036 0.73485,-0.0946 0.73377,-0.0948 0.82331,0.0962 0.13846,0.29528 0.30401,0.49867 0.55892,0.68663 0.92005,0.67844 2.26076,0.36283 2.75174,-0.64777 l 0.0957,-0.19686 0.1972,0.0229 c 1.20621,0.1401 2.08213,0.2958 3.04414,0.54115 2.20804,0.56315 4.40579,1.54551 6.27617,2.80536 0.48518,0.32681 1.29959,0.93435 1.56256,1.16568 l 0.16066,0.14131 -0.0896,0.25882 c -0.13622,0.39347 -0.1033,0.93421 0.0808,1.32743 0.18037,0.3852 0.51981,0.72466 0.90501,0.90501 0.39364,0.18433 0.93427,0.21711 1.32743,0.0805 l 0.25882,-0.0899 0.14479,0.161 c 0.19326,0.21485 0.93135,1.20183 1.20101,1.606 1.4451,2.1659 2.49446,4.70043 3.00927,7.26829 0.13313,0.66406 0.35022,2.16989 0.31705,2.19917 -0.007,0.007 -0.11058,0.0622 -0.2292,0.12358 -0.78387,0.40581 -1.15334,1.32512 -0.88359,2.19846 0.14114,0.45699 0.52048,0.89345 0.94153,1.08333 0.20088,0.0906 0.19318,-0.022 0.0668,0.97358 -0.44847,3.5314 -1.96665,7.11038 -4.2142,9.93464 -0.18608,0.23382 -0.3599,0.41359 -0.38828,0.40157 -0.4983,-0.21083 -1.09407,-0.20865 -1.55211,0.006 -0.38417,0.17977 -0.72407,0.51967 -0.90384,0.90383 -0.21417,0.45766 -0.21647,1.05553 -0.006,1.55128 0.0421,0.099 -1.31404,1.11813 -2.30475,1.73212 -2.64224,1.63752 -5.44761,2.59549 -8.68067,2.96429 l -0.23971,0.0274 -0.0819,-0.18159 c -0.27798,-0.61645 -0.94844,-1.03405 -1.66016,-1.03405 -0.70973,0 -1.38225,0.41774 -1.6584,1.03012 -0.044,0.0977 -0.10145,0.17456 -0.12748,0.17075 -0.0261,-0.003 -0.11532,-0.0141 -0.19835,-0.0229 z m 2.48002,-3.94709 c 0.56958,-0.14445 1.11784,-0.66766 1.27033,-1.21231 l 0.054,-0.19251 0.26541,-0.0287 c 0.14597,-0.0157 0.55001,-0.0863 0.89784,-0.15686 6.38889,-1.29483 11.21107,-6.63819 11.85098,-13.13187 0.11932,-1.21071 0.0921,-2.35901 -0.0848,-3.58022 -0.45909,-3.16943 -1.92012,-6.08006 -4.20219,-8.37147 -1.91649,-1.92434 -4.26006,-3.26034 -6.88083,-3.92252 -0.62355,-0.15756 -1.48975,-0.32307 -1.69074,-0.32307 -0.0935,0 -0.13432,-0.0283 -0.1711,-0.11862 -0.25478,-0.62557 -0.54237,-0.9645 -1.00018,-1.17873 -0.53867,-0.25208 -1.06705,-0.25359 -1.59917,-0.005 -0.45313,0.21204 -0.7591,0.54555 -0.94805,1.03336 l -0.0927,0.23909 -0.60284,0.10122 c -3.12921,0.52509 -5.88571,1.94795 -8.1307,4.1969 -3.7148,3.72137 -5.18588,9.13867 -3.8601,14.21486 0.4989,1.91018 1.3412,3.65203 2.52298,5.21741 2.09537,2.77554 5.05796,4.7167 8.42977,5.52339 0.33428,0.08 0.82129,0.17774 1.08224,0.21726 0.26097,0.0395 0.49674,0.0782 0.52393,0.086 0.0272,0.008 0.0821,0.11243 0.12206,0.23275 0.0871,0.26228 0.37766,0.6687 0.59775,0.83617 0.47223,0.35932 1.05355,0.47346 1.64608,0.32319 z m -0.90895,-0.78604 c -0.19664,-0.0856 -0.44302,-0.31764 -0.54076,-0.50923 -0.45623,-0.89427 0.49524,-1.86642 1.40988,-1.44052 0.53515,0.2492 0.76485,0.91729 0.49634,1.44362 -0.0989,0.19387 -0.34733,0.42383 -0.5488,0.508 -0.17949,0.075 -0.64255,0.0739 -0.81666,-0.002 z m -1.97814,-1.75421 c -2.74677,-0.48334 -5.27136,-1.77771 -7.26469,-3.72464 -2.22638,-2.17453 -3.58468,-4.83958 -4.06796,-7.9815 -0.11196,-0.72773 -0.15477,-2.34073 -0.0826,-3.1088 0.25707,-2.73414 1.21748,-5.16119 2.9096,-7.35285 0.43122,-0.55854 1.67479,-1.81587 2.22687,-2.25153 1.62092,-1.27912 3.43716,-2.17333 5.36537,-2.64162 0.81082,-0.19693 1.54727,-0.31427 1.56872,-0.24993 0.0505,0.15145 0.37079,0.57742 0.53596,0.71276 0.89319,0.73191 2.23772,0.50004 2.79616,-0.48218 l 0.15078,-0.26519 0.21568,0.0254 c 0.44057,0.0519 1.4846,0.2828 2.0452,0.4523 4.07256,1.2313 7.38095,4.30126 8.92331,8.28021 0.35365,0.91233 0.62308,1.94615 0.79806,3.06205 0.0782,0.49879 0.0915,0.77265 0.0921,1.8985 5.2e-4,1.15599 -0.0116,1.39151 -0.0971,1.94108 -0.48925,3.13294 -1.83811,5.77894 -4.04724,7.93935 -1.65733,1.62077 -3.49374,2.70507 -5.72814,3.38218 -0.50417,0.15278 -1.55653,0.38213 -1.98618,0.43288 l -0.21569,0.0254 -0.15077,-0.26646 c -0.68651,-1.21312 -2.49821,-1.21497 -3.1924,-0.003 -0.17317,0.30226 -0.13021,0.29277 -0.79508,0.17577 z m 3.28069,-8.38699 c 0.76917,-0.13175 1.56865,-0.46178 2.19898,-0.90776 0.38159,-0.26997 0.97389,-0.86229 1.24388,-1.24388 1.13443,-1.60335 1.29392,-3.75137 0.40779,-5.49182 -0.27983,-0.54964 -0.54528,-0.91168 -1.00668,-1.37303 -1.0106,-1.01045 -2.27904,-1.52866 -3.74263,-1.52903 -0.88343,-1.6e-4 -1.57642,0.16299 -2.38475,0.56168 -1.4827,0.7313 -2.55656,2.17637 -2.84573,3.82943 -0.0841,0.48083 -0.0841,1.34794 0,1.82877 0.19014,1.08694 0.69682,2.05582 1.48436,2.83838 0.78928,0.78429 1.76381,1.2957 2.82797,1.48404 0.46613,0.0825 1.34478,0.084 1.81681,0.003 z m -1.34539,-18.6715 c -0.53615,-0.24967 -0.76487,-0.91725 -0.4953,-1.44568 0.30325,-0.5944 1.13207,-0.75401 1.64326,-0.31646 0.74595,0.63852 0.29101,1.86398 -0.69199,1.86398 -0.15882,0 -0.30953,-0.0336 -0.45597,-0.1018 z m -14.47655,29.11615 c -0.69888,-0.18989 -1.00708,-1.01789 -0.60288,-1.61972 0.61189,-0.91111 2.0359,-0.41075 1.93693,0.68057 -0.0262,0.28948 -0.10306,0.45913 -0.29478,0.65084 -0.27807,0.27806 -0.67335,0.38772 -1.03927,0.28831 z m 29.3784,0.0203 c -0.23368,-0.047 -0.5265,-0.23648 -0.65741,-0.42537 -0.39012,-0.56296 -0.19407,-1.29675 0.4246,-1.58923 0.69679,-0.32941 1.49682,0.17627 1.50024,0.9483 6.7e-4,0.14549 -0.0285,0.33386 -0.0647,0.41863 -0.19744,0.46149 -0.72256,0.74427 -1.20267,0.64767 z m -35.49613,-14.66441 c -0.21353,-0.0699 -0.37543,-0.17514 -0.52617,-0.34199 -0.35801,-0.39629 -0.35789,-1.00106 3.3e-4,-1.39753 0.49428,-0.5471 1.34584,-0.46958 1.71238,0.15589 0.30274,0.51656 0.10804,1.21245 -0.4144,1.48132 -0.21222,0.10919 -0.59581,0.16004 -0.77211,0.10226 z m 41.50592,-0.0231 c -0.25541,-0.0833 -0.46065,-0.2506 -0.60171,-0.49058 -0.10203,-0.17347 -0.11959,-0.25106 -0.11959,-0.52694 0,-0.27711 0.0174,-0.35316 0.12152,-0.53022 0.28985,-0.49314 0.90382,-0.67687 1.4059,-0.42074 0.23761,0.12123 0.46354,0.39465 0.54063,0.65427 0.0832,0.27997 0.0832,0.31341 0,0.59338 -0.16742,0.5638 -0.79615,0.90033 -1.34675,0.72083 z M 816.25329,211.6703 c -0.74095,-0.2647 -0.93863,-1.28123 -0.3497,-1.79831 0.21423,-0.1881 0.41679,-0.26394 0.70491,-0.26394 0.40505,0 0.79177,0.23095 0.97277,0.58095 0.10885,0.21054 0.1266,0.60138 0.0378,0.83382 -0.21022,0.55044 -0.82356,0.84119 -1.36581,0.64748 z m 29.23017,-0.0415 c -0.41784,-0.19458 -0.65538,-0.60314 -0.61427,-1.05651 0.0265,-0.29157 0.10307,-0.4591 0.30011,-0.65616 0.42658,-0.42656 1.15677,-0.41026 1.54732,0.0345 0.19351,0.22038 0.26875,0.42421 0.26745,0.72445 -0.003,0.76886 -0.80434,1.2779 -1.50061,0.95366 z m -14.57389,-6.08446 c -0.43199,-0.16084 -0.69672,-0.54857 -0.69406,-1.01655 0.006,-0.91256 1.08067,-1.39454 1.75414,-0.7861 0.71253,0.64373 0.32586,1.7865 -0.62516,1.84762 -0.16793,0.0104 -0.3302,-0.006 -0.43492,-0.045 z"
           id="path5501"
           inkscape:connector-curvature="0" />
      </g>
    </g>
  </g>
</svg>
