<?xml version="1.0" encoding="UTF-8" standalone="no"?>
<!-- Created with Inkscape (http://www.inkscape.org/) -->

<svg
   xmlns:dc="http://purl.org/dc/elements/1.1/"
   xmlns:cc="http://creativecommons.org/ns#"
   xmlns:rdf="http://www.w3.org/1999/02/22-rdf-syntax-ns#"
   xmlns:svg="http://www.w3.org/2000/svg"
   xmlns="http://www.w3.org/2000/svg"
   xmlns:xlink="http://www.w3.org/1999/xlink"
   xmlns:sodipodi="http://sodipodi.sourceforge.net/DTD/sodipodi-0.dtd"
   xmlns:inkscape="http://www.inkscape.org/namespaces/inkscape"
   width="38.745029mm"
   height="48.304047mm"
   viewBox="0 0 38.74503 48.304047"
   version="1.1"
   id="svg314"
   inkscape:version="0.92.4 (0.92.4+201904251222+dc25406)"
   sodipodi:docname="lmde_logo.svg">
  <defs
     id="defs308">
    <mask
       maskUnits="userSpaceOnUse"
       id="mask5289">
      <rect
         y="253.5773"
         x="267.5437"
         height="28.51399"
         width="93.388603"
         id="rect5291"
         style="color:#000000;overflow:visible;opacity:1;fill:url(#linearGradient5293);fill-opacity:1;stroke:none;stroke-width:0.26499999;stroke-miterlimit:4;stroke-dasharray:none;paint-order:markers fill stroke" />
    </mask>
    <linearGradient
       inkscape:collect="always"
       xlink:href="#linearGradient4522"
       id="linearGradient5293"
       gradientUnits="userSpaceOnUse"
       gradientTransform="matrix(1.2048872,0,0,0.90412108,-63.105808,19.880198)"
       x1="363.27399"
       y1="254.75394"
       x2="261.55945"
       y2="293.64957" />
    <linearGradient
       inkscape:collect="always"
       id="linearGradient4522">
      <stop
         style="stop-color:#000000;stop-opacity:1"
         offset="0"
         id="stop4516" />
      <stop
         id="stop4518"
         offset="0.49042651"
         style="stop-color:#ffffff;stop-opacity:1" />
      <stop
         style="stop-color:#000000;stop-opacity:1"
         offset="1"
         id="stop4520" />
    </linearGradient>
    <filter
       inkscape:collect="always"
       style="color-interpolation-filters:sRGB"
       id="filter4389-0-1-5"
       x="-0.042493366"
       width="1.0849867"
       y="-0.14771166"
       height="1.2954233">
      <feGaussianBlur
         inkscape:collect="always"
         stdDeviation="1.0597623"
         id="feGaussianBlur4391-9-8-6" />
    </filter>
  </defs>
  <sodipodi:namedview
     id="base"
     pagecolor="#ffffff"
     bordercolor="#666666"
     borderopacity="1.0"
     inkscape:pageopacity="0.0"
     inkscape:pageshadow="2"
     inkscape:zoom="0.98994949"
     inkscape:cx="249.0425"
     inkscape:cy="34.348786"
     inkscape:document-units="mm"
     inkscape:current-layer="g5797"
     showgrid="false"
     inkscape:window-width="1236"
     inkscape:window-height="738"
     inkscape:window-x="44"
     inkscape:window-y="25"
     inkscape:window-maximized="1"
     inkscape:snap-global="true" />
  <metadata
     id="metadata311">
    <rdf:RDF>
      <cc:Work
         rdf:about="">
        <dc:format>image/svg+xml</dc:format>
        <dc:type
           rdf:resource="http://purl.org/dc/dcmitype/StillImage" />
        <dc:title></dc:title>
      </cc:Work>
    </rdf:RDF>
  </metadata>
  <g
     inkscape:label="Layer 1"
     inkscape:groupmode="layer"
     id="layer1"
     transform="translate(-19.061239,-14.289971)">
    <path
       transform="matrix(1.9565749,0,0,1.9565749,-489.21078,-433.49023)"
       inkscape:connector-curvature="0"
       id="path4305-8-9-3"
       d="m 275.84868,258.72096 v 16.1698"
       style="fill:#00ffff;fill-rule:evenodd;stroke:#ffffff;stroke-width:0.13544075;stroke-linecap:butt;stroke-linejoin:miter;stroke-miterlimit:4;stroke-dasharray:none;stroke-opacity:1;filter:url(#filter4389-0-1-5)" />
    <path
       style="fill:#f2f2f2;fill-rule:evenodd;stroke:#ffffff;stroke-width:0.26499999;stroke-linecap:butt;stroke-linejoin:miter;stroke-miterlimit:4;stroke-dasharray:none;stroke-opacity:1"
       d="M 51.566168,72.716704 V 104.35413"
       id="path4325-7-3-6"
       inkscape:connector-curvature="0" />
    <g
       style="display:inline;fill:#1a1a1a"
       transform="translate(-703.51889,-119.56984)"
       id="g5797">
      <path
         style="display:inline;opacity:1;fill:#000000;stroke-width:0.99999994"
         d="m 742.65034,182.11421 c -1.62515,-0.0711 -2.54354,-0.2711 -4.47688,-0.97484 -0.62693,-0.2283 -2.35512,-1.07098 -2.99345,-1.45972 -0.50636,-0.3084 -1.77454,-1.14786 -1.87095,-1.23843 -0.0345,-0.0325 -0.20575,-0.16469 -0.38073,-0.29385 -0.29788,-0.22002 -0.78789,-0.6186 -0.98141,-0.7984 -0.0472,-0.0439 -0.36465,-0.32809 -0.70576,-0.63205 -0.58313,-0.51951 -1.47582,-1.44498 -2.0745,-2.15073 -0.14579,-0.1717 -0.33792,-0.39665 -0.42716,-0.49985 -0.15046,-0.17346 -0.48321,-0.60987 -1.01294,-1.3267 -0.6585,-0.89103 -1.47841,-2.24374 -2.12278,-3.50213 -0.35939,-0.70188 -0.86103,-1.78393 -0.86103,-1.85721 0,-0.0285 -0.0448,-0.15066 -0.0994,-0.27282 -0.17599,-0.39311 -0.74798,-2.06478 -0.85568,-2.50045 -0.0228,-0.0873 -0.0992,-0.38543 -0.17287,-0.66228 -0.20291,-0.76376 -0.45288,-2.23958 -0.57877,-3.41727 -0.0477,-0.44567 -0.0713,-1.80003 -0.0793,-4.52989 -0.006,-2.14173 -0.0175,-3.98945 -0.0257,-4.10602 -0.0136,-0.22972 0.49492,-1.90362 0.90097,-2.96696 0.0557,-0.14558 0.17872,-0.46753 0.27368,-0.71521 0.0951,-0.24769 0.2032,-0.53378 0.24058,-0.63577 0.0762,-0.20776 0.29381,-0.69707 0.62016,-1.39424 0.1832,-0.3917 0.23544,-0.4627 0.32246,-0.43992 0.23058,0.0602 0.54828,-0.23401 0.76897,-0.71204 0.06,-0.1296 0.25313,-0.57958 0.42988,-1.00027 0.41636,-0.99136 0.66279,-1.43376 0.79865,-1.43376 0.0567,0 0.10349,-0.0296 0.10349,-0.0665 10e-4,-0.14754 0.27767,-0.64604 0.5728,-1.03291 0.33275,-0.43613 1.40069,-1.50983 2.23323,-2.24553 0.27596,-0.24399 0.70522,-0.63833 0.95367,-0.87647 l 0.45177,-0.43301 0.0468,0.1415 c 0.0257,0.0776 0.0542,0.15046 0.0631,0.16059 0.0136,0.0175 0.5318,-0.38874 0.6051,-0.47346 0.0405,-0.0472 1.20371,-0.84357 1.23167,-0.84357 0.0136,0 0.2249,-0.11441 0.46937,-0.25483 0.59859,-0.34294 3.13732,-1.54657 3.26204,-1.54657 0.0175,0 0.10271,-0.0343 0.19431,-0.0758 0.46122,-0.20946 1.57132,-0.66597 1.61911,-0.66597 0.03,0 0.0417,0.0333 0.0257,0.0743 -0.0522,0.13604 0.0813,0.145 0.6014,0.0382 0.28394,-0.0583 0.62376,-0.12064 0.75489,-0.13935 0.13097,-0.0199 0.3338,-0.0553 0.45033,-0.0817 0.11635,-0.0257 0.30731,-0.0483 0.42386,-0.0485 l 0.21203,-3.1e-4 -0.29139,0.16468 c -0.1604,0.0904 -0.35697,0.19892 -0.43711,0.24115 -0.0801,0.0419 -0.14579,0.0836 -0.14579,0.0922 0,0.008 0.22061,0.0136 0.49007,0.0117 0.26941,-0.002 0.82385,0.0175 1.23179,0.0437 l 0.74178,0.0474 -0.42386,0.13545 -0.42385,0.13584 0.59569,0.0175 c 0.38634,0.0117 0.69555,-0.0117 0.87967,-0.059 0.37009,-0.0967 1.34609,-0.1031 1.65243,-0.0117 l 0.23629,0.0711 -0.0331,-0.20661 c -0.0201,-0.11362 -0.0201,-0.20661 -0.002,-0.20661 0.0513,0 2.43659,0.76542 2.87006,0.92099 0.28669,0.1031 1.06891,0.45234 1.60439,0.71673 0.48344,0.23858 0.64591,0.25855 1.07439,0.13136 0.36218,-0.10758 1.11041,-0.0813 1.35563,0.0479 0.0996,0.0524 0.21146,0.18028 0.27852,0.31844 0.0651,0.13409 0.22801,0.32308 0.38953,0.45121 0.1526,0.12122 0.30207,0.24029 0.33163,0.26455 0.13818,0.11304 0.56345,0.33762 0.58974,0.31137 0.0444,-0.0444 -0.22859,-0.3812 -0.43865,-0.5415 -0.25799,-0.19691 -0.18204,-0.22659 0.12376,-0.0487 1.43767,0.83588 2.85886,2.01653 4.04703,3.36196 1.25984,1.42665 2.25837,3.06491 2.77222,4.54823 0.23686,0.68378 0.24,0.79785 0.0117,0.43597 -0.0982,-0.15553 -0.19099,-0.26169 -0.20661,-0.236 -0.0175,0.0257 -0.006,0.27311 0.0228,0.54986 0.0285,0.27681 0.0411,0.57448 0.0285,0.6615 -0.0136,0.0897 0.0327,0.30774 0.10505,0.50329 0.18808,0.50729 0.6219,2.0165 0.67817,2.35844 0.0898,0.54529 0.0706,0.59146 -0.0556,0.13234 -0.22973,-0.8373 -0.6851,-2.16381 -0.95492,-2.78149 -0.43339,-0.99209 -0.86994,-1.65671 -0.86994,-1.3245 0,0.11791 -0.11148,0.15669 -0.45035,0.15786 l -0.31788,9.2e-4 0.0117,0.31789 c 0.0136,0.36953 0.16917,0.86967 0.29538,0.94921 0.067,0.0423 0.10466,0.0312 0.16235,-0.0477 0.0626,-0.0854 0.0887,-0.0914 0.1567,-0.0349 0.13214,0.10953 0.30059,0.47449 0.30059,0.65103 0,0.15085 0.10524,0.65287 0.2874,1.36985 0.19255,0.7587 0.1524,0.86385 -0.15417,0.40229 -0.10446,-0.15748 -0.22887,-0.31848 -0.27595,-0.35764 -0.0774,-0.0641 -0.0823,-0.0514 -0.0485,0.12903 0.0936,0.49981 0.30895,1.035 0.54169,1.34603 0.15261,0.20433 0.15748,0.26113 0.0257,0.29594 -0.15962,0.0417 -0.19492,0.43781 -0.0879,0.98382 0.1107,0.56356 0.14403,0.60833 0.41845,0.56196 0.19158,-0.0322 0.20719,-0.0257 0.17014,0.0631 -0.0228,0.0546 -0.0832,0.23002 -0.13545,0.39011 -0.0522,0.1604 -0.14559,0.42255 -0.20661,0.58282 -0.22088,0.57715 -0.33501,1.16544 -0.30256,1.56293 0.0175,0.20404 0.044,0.43049 0.0608,0.50329 0.0175,0.0727 -0.0715,-0.12961 -0.19691,-0.45031 l -0.22744,-0.5828 -0.0175,0.41061 c -0.0136,0.38014 -0.0602,0.49236 -0.1452,0.35504 -0.0887,-0.14364 -0.17132,0.0817 -0.19948,0.54616 -0.0175,0.26911 -0.044,0.55487 -0.0608,0.63466 -0.0659,0.30819 -0.31869,0.93196 -0.69005,1.7019 -0.41032,0.85067 -0.5576,1.27426 -0.5576,1.60346 v 0.20234 l -0.0897,-0.13097 c -0.0493,-0.0719 -0.10408,-0.14305 -0.12181,-0.15747 -0.0201,-0.0137 -0.0873,-0.10583 -0.15534,-0.20289 -0.0676,-0.0971 -0.1413,-0.1567 -0.16351,-0.13234 -0.0228,0.0257 -0.15631,0.24542 -0.29814,0.49144 -0.25284,0.43904 -0.25798,0.45625 -0.25884,0.90067 -8.8e-4,0.34253 -0.0257,0.50477 -0.10583,0.66501 l -0.10466,0.21174 -0.0175,-0.24998 c -0.008,-0.1372 0.0117,-0.30433 0.0466,-0.37087 0.0768,-0.14831 -0.0175,-0.0688 -0.90403,0.77963 -0.33569,0.32055 -0.75924,0.71327 -0.94126,0.87277 l -0.33093,0.28991 v 0.83815 0.83814 l -0.35764,0.16215 c -2.18854,0.99277 -5.0971,1.79961 -7.53653,2.09067 -1.08969,0.1298 -2.9555,0.13097 -3.7287,0.002 -4.085,-0.68081 -7.07291,-3.38253 -8.057,-7.28525 -0.32233,-1.27835 -0.32047,-1.23777 -0.32047,-7.02752 0,-2.91397 0.0201,-5.36371 0.0405,-5.44381 l 0.0405,-0.14559 h 5.13252 c 3.22368,0 5.33662,0.0228 5.68119,0.0559 4.28897,0.43762 7.97118,3.84719 8.95136,8.28852 0.10836,0.49188 0.11869,0.69961 0.13993,2.9007 0.0136,1.30401 0.0388,2.37043 0.0583,2.36985 0.0201,-5.9e-4 0.21345,-0.16391 0.43107,-0.36274 l 0.39562,-0.36169 0.0294,-0.52469 c 0.0425,-0.75503 0.14403,-0.95299 0.59479,-1.16045 0.38628,-0.17775 0.33639,-0.0959 0.74279,-1.21858 0.23315,-0.644 0.35947,-1.19914 0.35563,-1.56292 l -0.002,-0.23828 -0.18554,0.34437 c -0.10213,0.18924 -0.17132,0.2848 -0.15378,0.21173 0.2691,-1.13171 0.26054,-1.02512 0.26282,-3.20532 0.002,-1.91511 -0.006,-2.07138 -0.0916,-2.13615 -0.0513,-0.0386 -0.0793,-0.093 -0.062,-0.12122 0.0175,-0.0285 0.002,-0.2711 -0.0325,-0.53942 -0.22428,-1.70445 -0.88091,-3.34757 -2.02683,-5.07089 -0.20347,-0.30599 -0.38451,-0.56822 -0.4024,-0.58282 -0.0201,-0.0136 -0.17443,-0.21717 -0.34766,-0.45033 -0.46793,-0.62922 -1.81018,-1.94531 -2.51877,-2.4696 -1.51229,-1.11896 -2.72677,-1.62092 -4.90071,-2.02562 -1.55625,-0.28968 -3.67361,-0.29221 -4.83931,-0.006 -0.28054,0.0688 -0.28196,0.0684 -0.18808,-0.0351 0.0936,-0.10369 0.0908,-0.10408 -0.2734,-0.0725 -0.65729,0.0577 -1.6262,0.30096 -2.06357,0.51821 -0.11636,0.0579 -0.35199,0.20006 -0.52324,0.31626 -0.36826,0.2497 -1.02575,0.55908 -1.54302,0.7264 -0.20404,0.0659 -0.40574,0.1526 -0.44844,0.19314 -0.067,0.0633 -0.0573,0.0731 0.0713,0.0731 0.0819,0 0.27767,-0.0374 0.43503,-0.083 0.15728,-0.0456 0.33984,-0.075 0.40552,-0.0653 0.10739,0.0175 0.0978,0.032 -0.0936,0.15572 -0.22715,0.14676 -0.84263,0.31005 -1.17493,0.31157 -0.62289,0.002 -1.29285,0.27196 -1.96932,0.79081 -0.4378,0.33583 -0.91212,0.79772 -0.81925,0.79772 0.093,0 0.43123,-0.15261 0.46734,-0.21118 0.0499,-0.0807 0.13292,-0.0647 0.13292,0.0257 0,0.0437 -0.0861,0.17463 -0.19158,0.29139 -0.16664,0.18398 -0.22117,0.21203 -0.41734,0.21203 -0.23286,0 -0.8983,0.24029 -1.22931,0.44388 -0.64901,0.39911 -1.83981,1.37402 -2.53267,2.07349 -0.42626,0.43029 -1.39928,1.52862 -1.66559,1.88007 -0.0992,0.13097 -0.20717,0.26228 -0.23943,0.29141 -0.0322,0.029 -0.17014,0.22002 -0.30618,0.42383 l -0.24713,0.37089 0.18612,0.0499 c 0.16547,0.0444 0.18262,0.0651 0.153,0.18554 -0.0493,0.20203 -0.43111,1.02064 -0.74591,1.5989 -0.31907,0.58609 -0.6599,1.28985 -0.80732,1.66697 -0.0945,0.24172 -0.17892,0.85856 -0.33267,2.43275 -0.0314,0.32053 -0.0879,0.86887 -0.1261,1.21853 -0.0382,0.34969 -0.0725,0.73114 -0.0766,0.84769 -0.002,0.11635 -0.03,0.46228 -0.0585,0.76824 -0.15474,1.66848 0.0509,3.37537 0.4774,3.96417 l 0.15924,0.21975 -0.0817,0.58344 -0.0817,0.58343 0.2614,0.52985 c 0.2243,0.45434 0.24742,0.52982 0.1641,0.52982 -0.0534,0 -0.10817,0.0199 -0.12122,0.04 -0.0136,0.0228 0.0448,0.24144 0.12863,0.48831 0.24629,0.72307 0.3918,1.02144 0.66413,1.3604 0.15923,0.19806 0.2106,0.22544 0.52665,0.28052 0.5822,0.10135 0.84075,0.32493 1.27812,1.10514 0.2146,0.38298 0.55984,1.18007 0.52577,1.21415 -0.0468,0.0466 -0.38406,-0.16215 -0.60235,-0.37254 -0.17092,-0.16489 -0.22516,-0.19431 -0.22516,-0.1224 0,0.11558 0.3001,0.87595 0.38942,0.98663 0.0355,0.0438 0.12162,0.18691 0.19178,0.31805 0.0702,0.13097 0.23058,0.38604 0.35594,0.56651 0.12551,0.18028 0.2283,0.35009 0.2283,0.37697 0,0.0257 -0.0477,0.10953 -0.10641,0.18398 -0.15319,0.19471 -0.0785,0.34059 0.42628,0.83483 0.42199,0.41298 0.42347,0.4154 0.23771,0.38527 -0.13876,-0.0228 -0.1869,-0.0117 -0.1869,0.0435 0,0.15182 0.41791,0.84739 0.9401,1.56461 0.10934,0.15047 0.34203,0.46885 0.51687,0.70791 0.17502,0.23914 0.35364,0.49149 0.39736,0.56101 0.10407,0.16605 0.13896,0.16021 0.24371,-0.0429 l 0.0877,-0.16917 0.0935,0.36908 c 0.0515,0.20318 0.18418,0.52355 0.29457,0.71241 0.22317,0.3818 0.70422,1.04913 0.8332,1.15617 0.0485,0.0403 0.22318,0.0702 0.41763,0.0713 0.33159,0.002 0.33522,0.002 0.46668,0.21374 0.31074,0.49654 1.19891,1.2154 1.71308,1.38654 0.0873,0.029 0.0774,0.0594 -0.0972,0.29714 -0.17443,0.23742 -0.18437,0.26826 -0.0973,0.29638 0.42035,0.13662 0.90344,0.40453 1.23627,0.68541 0.21918,0.18496 1.14118,0.59672 1.20138,0.53654 0.0175,-0.0175 -0.0331,-0.14092 -0.10894,-0.27709 -0.0762,-0.13623 -0.13838,-0.26255 -0.13838,-0.28024 0,-0.0201 0.37549,0.33904 0.83445,0.79307 0.45896,0.45404 0.95363,0.90986 1.09936,1.01294 0.61675,0.43632 1.49741,0.731 2.88748,0.9662 1.04954,0.17775 1.85431,0.36431 1.85431,0.4302 0,0.029 -0.92425,0.0136 -2.01327,-0.0339 z m -2.07912,-24.09006 0.0136,-3.50996 h 0.73887 c 0.45951,0 0.79491,0.0257 0.88706,0.0639 0.28166,0.12162 0.53774,0.36329 0.67382,0.63644 l 0.13662,0.27426 v 2.47024 c 0,2.76512 0.002,2.79272 0.3642,3.16476 0.34877,0.35937 0.5119,0.40757 1.38414,0.40917 l 0.76823,0.001 0.0398,-1.74835 c 0.0228,-0.96162 0.0339,-2.54274 0.0257,-3.51364 l -0.0136,-1.76524 0.77269,0.0175 c 0.75414,0.0175 0.77885,0.0228 1.03171,0.17716 0.1604,0.099 0.32025,0.25913 0.41942,0.41959 l 0.1604,0.25912 0.0257,2.62684 0.0257,2.62684 0.14929,0.2537 c 0.18769,0.31954 0.49481,0.54433 0.84804,0.62098 0.15104,0.0328 0.56035,0.0519 0.91003,0.0429 l 0.63576,-0.0175 -8.8e-4,-3.20536 c -8.8e-4,-3.15199 -0.002,-3.21241 -0.11908,-3.62919 -0.2032,-0.72861 -0.4502,-1.15859 -0.96126,-1.67292 -0.36798,-0.37037 -0.54117,-0.49986 -0.90537,-0.67702 -0.8784,-0.42739 -0.55774,-0.40509 -5.82791,-0.40509 h -4.68884 l -0.0175,4.21202 c -0.0117,3.01192 10e-4,4.27086 0.0443,4.41863 0.13097,0.45311 0.51702,0.82566 0.96902,0.93537 0.0924,0.0228 0.46587,0.0368 0.83009,0.0321 l 0.66228,-0.008 z m 18.23831,2.29273 c 0,-0.0136 0.0478,-0.1033 0.10564,-0.19892 0.12434,-0.20433 0.14188,-0.15747 0.0257,0.0674 -0.0725,0.14071 -0.13097,0.19891 -0.13097,0.13097 z m 0.22688,-0.46487 c 0.0136,-0.0362 0.12162,-0.30465 0.23801,-0.59604 0.41808,-1.04607 0.71859,-2.11336 0.83241,-2.95622 0.0201,-0.13974 0.0672,-0.33056 0.10816,-0.42388 0.0725,-0.16683 0.0739,-0.16741 0.0758,-0.0296 0.006,0.28081 -0.23487,1.38845 -0.46152,2.1382 -0.0811,0.26825 -0.38718,1.08563 -0.51585,1.37753 -0.0386,0.0873 -0.107,0.24828 -0.15183,0.35762 -0.045,0.10933 -0.0976,0.19889 -0.11674,0.19889 -0.0199,0 -0.0228,-0.0296 -0.008,-0.0665 z m 0.16489,-3.24508 c 0.0136,-0.0583 0.0423,-0.22146 0.0622,-0.36297 0.0228,-0.14618 0.0534,-0.22944 0.0758,-0.19354 0.044,0.0713 -0.0285,0.44829 -0.1107,0.57824 -0.0442,0.07 -0.0487,0.0659 -0.0284,-0.0228 z m 0.15241,-0.92718 c 0,-0.13097 0.0117,-0.18457 0.0228,-0.11908 0.0136,0.0657 0.0136,0.17267 0,0.23828 -0.0136,0.0657 -0.0228,0.0117 -0.0228,-0.11928 z m -36.75635,-6.573 c -0.0339,-0.41026 -0.0257,-0.47107 0.0973,-0.73841 0.14442,-0.31269 0.28225,-0.51182 0.32486,-0.46925 0.0491,0.0491 -0.24429,1.39768 -0.34324,1.57854 -0.0257,0.0454 -0.0567,-0.10563 -0.0787,-0.37088 z m 1.11356,-3.91991 c 0.0828,-0.16352 0.14812,-0.40178 0.16781,-0.6127 0.0201,-0.18983 0.0485,-0.31916 0.068,-0.28732 0.0201,0.032 0.11752,0.0515 0.21715,0.0431 0.16956,-0.0137 0.18067,-0.006 0.17093,0.13525 -0.0228,0.31591 -0.17346,0.59 -0.41478,0.752 -0.12903,0.0867 -0.23517,0.17521 -0.23573,0.19719 -5.7e-4,0.0228 -0.0257,0.0398 -0.0552,0.0398 -0.0294,0 0.008,-0.12045 0.0819,-0.26767 z m 16.76716,-6.03715 c 0.0437,-0.0286 0.1031,-0.0515 0.13233,-0.0515 0.029,0 0.0175,0.0257 -0.0257,0.0515 -0.0437,0.0285 -0.1033,0.0515 -0.13234,0.0515 -0.029,0 -0.0175,-0.0257 0.0257,-0.0515 z m 0.26482,-0.10583 c 0.0437,-0.0285 0.11538,-0.0515 0.15904,-0.0515 0.0708,0 0.0708,0.006 0,0.0515 -0.0437,0.0284 -0.11499,0.0511 -0.15904,0.0511 -0.0707,0 -0.0707,-0.006 0,-0.0511 z m 2.75322,-4.28343 c 0.0635,-0.0448 0.0511,-0.0651 -0.0696,-0.11109 -0.0811,-0.0308 -0.21517,-0.0559 -0.29853,-0.0559 -0.17073,0 -0.31877,-0.0466 -0.31877,-0.0998 0,-0.0382 0.92023,0.0228 1.04073,0.0694 0.1185,0.0456 0.0817,0.12161 -0.0737,0.15299 -0.0803,0.0175 -0.19353,0.0454 -0.25171,0.0647 -0.083,0.0284 -0.0891,0.0257 -0.0285,-0.0199 z m -0.70458,-0.7004 c 0.0312,-0.0312 0.23858,-0.0571 0.46103,-0.0583 0.2223,-8.6e-4 0.41677,-0.0228 0.43184,-0.0456 0.0175,-0.0257 0.22543,-0.045 0.46763,-0.046 0.24201,-8.6e-4 0.48606,-0.0175 0.54207,-0.0339 0.0805,-0.0257 0.085,-0.0228 0.0228,0.0199 -0.0436,0.0288 -0.48015,0.0902 -0.96984,0.13643 -1.06929,0.10134 -1.02737,0.10017 -0.95508,0.0285 z"
         id="path6912"
         inkscape:connector-curvature="0" />
    </g>
  </g>
</svg>
