<?xml version="1.0" encoding="UTF-8" standalone="no"?>
<!-- Created with Inkscape (http://www.inkscape.org/) -->

<svg
   xmlns:dc="http://purl.org/dc/elements/1.1/"
   xmlns:cc="http://creativecommons.org/ns#"
   xmlns:rdf="http://www.w3.org/1999/02/22-rdf-syntax-ns#"
   xmlns:svg="http://www.w3.org/2000/svg"
   xmlns="http://www.w3.org/2000/svg"
   xmlns:xlink="http://www.w3.org/1999/xlink"
   xmlns:sodipodi="http://sodipodi.sourceforge.net/DTD/sodipodi-0.dtd"
   xmlns:inkscape="http://www.inkscape.org/namespaces/inkscape"
   width="51.136662mm"
   height="73.567932mm"
   viewBox="0 0 51.136661 73.567936"
   version="1.1"
   id="svg314"
   inkscape:version="0.92.4 (0.92.4+201906150354+3e976dc)"
   sodipodi:docname="magea_linux_logo.svg">
  <defs
     id="defs308">
    <inkscape:path-effect
       effect="skeletal"
       id="path-effect881"
       is_visible="true"
       pattern="m 88.894691,29.551112 c 0.335453,-1.065208 0.875973,-2.130417 2.855665,-3.195625 -0.259611,1.12793 -0.205605,2.067691 0.175813,2.811004 z"
       copytype="repeated_stretched"
       prop_scale="0.5"
       scale_y_rel="false"
       spacing="0"
       normal_offset="0"
       tang_offset="0"
       prop_units="false"
       vertical_pattern="true"
       fuse_tolerance="2" />
    <linearGradient
       id="linearGradient3241">
      <stop
         id="stop3243"
         offset="0"
         style="stop-color:#ffffff;stop-opacity:1;" />
      <stop
         id="stop3245"
         offset="1"
         style="stop-color:#e0e0e0;stop-opacity:1;" />
    </linearGradient>
    <linearGradient
       id="linearGradient3584">
      <stop
         id="stop3586"
         offset="0"
         style="stop-color:#000000;stop-opacity:1;" />
      <stop
         id="stop3588"
         offset="1"
         style="stop-color:#000000;stop-opacity:0;" />
    </linearGradient>
    <linearGradient
       id="linearGradient3576">
      <stop
         id="stop3578"
         offset="0"
         style="stop-color:#ffffff;stop-opacity:1;" />
      <stop
         id="stop3580"
         offset="1"
         style="stop-color:#ffffff;stop-opacity:0;" />
    </linearGradient>
    <linearGradient
       id="linearGradient3262">
      <stop
         id="stop3264"
         offset="0"
         style="stop-color:#ffffff;stop-opacity:1;" />
      <stop
         style="stop-color:#ffffff;stop-opacity:0.74901961;"
         offset="0.15000001"
         id="stop3274" />
      <stop
         style="stop-color:#ffffff;stop-opacity:0.49803922;"
         offset="0.34999999"
         id="stop3270" />
      <stop
         id="stop3272"
         offset="0.60000002"
         style="stop-color:#ffffff;stop-opacity:0.24705882;" />
      <stop
         id="stop3266"
         offset="1"
         style="stop-color:#ffffff;stop-opacity:0" />
    </linearGradient>
    <linearGradient
       id="linearGradient564">
      <stop
         id="stop565"
         offset="0"
         style="stop-color:#000;stop-opacity:1;" />
      <stop
         id="stop566"
         offset="1"
         style="stop-color:#fff;stop-opacity:1;" />
    </linearGradient>
    <linearGradient
       id="linearGradient567"
       xlink:href="#linearGradient564" />
    <radialGradient
       fy="0.5"
       fx="0.5"
       r="0.5"
       cy="0.5"
       cx="0.5"
       id="radialGradient568"
       xlink:href="#linearGradient564" />
    <radialGradient
       id="radialGradient620"
       xlink:href="#linearGradient564" />
    <clipPath
       id="clipPath3307"
       clipPathUnits="userSpaceOnUse">
      <path
         inkscape:connector-curvature="0"
         id="path3309"
         d="m 381.9375,173.625 c -4.21332,42.13349 -10.03577,69.83124 -25.84375,78.53125 -17.27681,-5.22916 -28.69236,-31.13179 -41.53125,-71.5 4.55458,41.77797 4.61095,69.96794 -8.75,81.90625 -17.78835,-1.97776 -34.12725,-24.95431 -54.71875,-61.53125 13.0555,40.28403 18.83303,67.99943 7.84375,82.3125 -17.92384,2.14967 -38.78383,-16.95958 -66.75,-48.78125 21.06376,36.64714 32.42682,62.49985 24.71875,78.78125 -17.09049,5.60535 -41.41105,-8.8058 -75.1875,-34.09375 29.644,33.20511 46.34805,56.93535 39.59375,74.78125 10.6708,-14.25291 11.8868,-15.56615 17.875,-22.09375 5.58938,-6.09263 7.37985,-7.9614 18.34375,-17.78125 11.25046,-9.85812 13.26854,-11.37709 20.03125,-16.21875 6.9067,-4.94451 8.83177,-6.27851 22.5625,-14.1875 12.33451,-6.91037 14.78922,-8.04241 22.25,-11.3125 7.67774,-3.365 9.96838,-4.30144 24.5,-9.03125 13.208,-4.16737 15.8721,-4.79736 23.78125,-6.46875 8.26034,-1.7456 10.635,-2.20061 26.125,-3.90625 14.30407,-1.40317 16.96055,-1.46875 25.15625,-1.46875 8.85831,0 10.62725,0.01 28.34375,1.78125 13.10212,1.46659 15.92269,1.98412 23.6875,3.625 8.06288,1.70388 10.58999,2.32122 24.5,6.71875 13.79956,4.49943 16.24747,5.47934 23.78125,8.78125 7.46078,3.27009 9.91548,4.40213 22.25,11.3125 13.73073,7.90899 15.6558,9.24299 22.5625,14.1875 6.76271,4.84166 8.78078,6.36063 20.03125,16.21875 10.96381,9.82023 12.75437,11.68862 18.34375,17.78125 5.9882,6.5276 7.20417,7.84084 17.875,22.09375 -6.7543,-17.8459 9.94974,-41.57614 39.59375,-74.78125 -33.81975,25.32037 -58.12733,39.7259 -75.21875,34.0625 -7.65797,-16.28458 3.70927,-42.1429 24.75,-78.75 -27.95029,31.80361 -48.80176,50.9368 -66.71875,48.8125 -11.02566,-14.30287 -5.25367,-41.9956 7.8125,-82.3125 -20.60326,36.59783 -36.94985,59.54509 -54.75,61.5 -13.32788,-11.95522 -13.26959,-40.13141 -8.71875,-81.875 -12.94605,40.70516 -24.44869,66.66946 -41.96875,71.59375 -16.04038,-8.50889 -21.91562,-36.28182 -26.15625,-78.6875 z m 2.875,99.96875 c -1.37635,-0.005 -2.74998,0.0116 -4.125,0.0312 -73.3345,1.04709 -144.47788,37.47275 -186.65625,100.09375 -64.58021,97.0834 -49.12115,239.6031 62.40625,315.125 97.5272,64.4282 188.99395,36.13015 245.03125,5.03125 l -28,-48 c -60.39979,31.845 -131.1568,35.6623 -185.6875,-1.4375 -83.8576,-55.5432 -100.3532,-164.68105 -48.6875,-241.09375 50.833,-76.6977 156.02335,-100.0685 239.21875,-45.125 87.58159,59.3819 82.48805,162.54275 60.78125,208.71875 -9.5889,-6.5965 -19.19235,-13.18475 -28.78125,-19.78125 24.9959,-64.76217 -0.4447,-128.6783 -50.5,-162.1875 C 400.92381,345.54616 315.4392,352.2459 267.625,423.5 c -9.3484,14.13429 -9.36225,14.1554 -14.53125,28.0625 l 298.09375,199 c 12.3337,-12.84288 12.33425,-12.8473 20.21875,-24.625 67.0184,-100.11068 43.6842,-243.6293 -62.125,-314 -38.5768,-25.99295 -81.80179,-38.17927 -124.46875,-38.34375 z m 199.21875,371.5625 C 573.36046,659.40917 572.1757,660.7224 566.1875,667.25 c -5.67597,6.18706 -7.37489,7.95144 -18.8125,18.1875 -10.78937,9.44575 -12.93545,11.04559 -19.59375,15.8125 -6.50994,4.6605 -8.81667,6.24434 -20.5,13 -14.45549,8.12762 -16.40361,9.00226 -24.3125,12.46875 -7.53219,3.30119 -9.95847,4.31559 -23.75,8.8125 -13.91784,4.40011 -16.46669,5.01452 -24.53125,6.71875 -7.85097,1.6591 -10.59954,2.15064 -24.09375,3.65625 -17.21414,1.71782 -19.13867,1.71873 -27.90625,1.71875 -8.3454,0 -10.85061,-0.0498 -25.875,-1.53125 -14.78143,-1.63437 -17.28607,-2.09654 -25.40625,-3.8125 -8.06456,-1.70423 -10.6134,-2.31866 -24.53125,-6.71875 -13.79154,-4.49691 -16.21783,-5.48003 -23.75,-8.78125 -7.61208,-3.3364 -9.91741,-4.41451 -22.9375,-11.71875 -13.0274,-7.51241 -15.13014,-8.93022 -21.90625,-13.78125 -6.76271,-4.84166 -8.78078,-6.36064 -20.03125,-16.21875 -10.96381,-9.82023 -12.75438,-11.68864 -18.34375,-17.78125 -5.9882,-6.5276 -7.17295,-7.84086 -17.84375,-22.09375 6.7543,17.8459 -9.94976,41.57613 -39.59375,74.78125 33.79501,-25.30185 58.09802,-39.72364 75.1875,-34.09375 7.68616,16.2828 -3.69629,42.15158 -24.75,78.78125 27.97352,-31.83003 48.85426,-50.9427 66.78125,-48.78125 10.98226,14.31504 5.17844,42.03478 -7.875,82.3125 20.60326,-36.59783 36.94985,-59.57633 54.75,-61.53125 13.32788,11.95522 13.26959,40.16269 8.71875,81.90625 12.83495,-40.35584 24.26333,-66.25976 41.53125,-71.5 15.8262,8.68509 21.65955,36.37632 25.875,78.53125 4.24063,-42.40568 10.11585,-70.1786 26.15625,-78.6875 17.51525,4.93035 29.02481,30.89523 41.96875,71.59375 -4.55046,-41.74012 -4.63704,-69.91807 8.6875,-81.875 17.8025,1.95036 34.14441,24.89803 54.75,61.5 -13.06398,-40.31026 -18.83081,-68.00757 -7.8125,-82.3125 17.92005,-2.1356 38.76138,17.00084 66.71875,48.8125 -21.04075,-36.6071 -32.40797,-62.46542 -24.75,-78.75 17.09141,-5.66339 41.399,8.74213 75.21875,34.0625 -29.64397,-33.20509 -46.34805,-56.93535 -39.59375,-74.78125 z"
         style="font-size:12px;fill:#000000;fill-opacity:1;fill-rule:evenodd;stroke:none" />
    </clipPath>
    <clipPath
       id="clipPath3311"
       clipPathUnits="userSpaceOnUse">
      <path
         inkscape:connector-curvature="0"
         style="font-size:12px;fill:#000000;fill-opacity:1;fill-rule:evenodd;stroke:none"
         d="m 381.9375,173.625 c -4.21332,42.13349 -10.03577,69.83124 -25.84375,78.53125 -17.27681,-5.22916 -28.69236,-31.13179 -41.53125,-71.5 4.55458,41.77797 4.61095,69.96794 -8.75,81.90625 -17.78835,-1.97776 -34.12725,-24.95431 -54.71875,-61.53125 13.0555,40.28403 18.83303,67.99943 7.84375,82.3125 -17.92384,2.14967 -38.78383,-16.95958 -66.75,-48.78125 21.06376,36.64714 32.42682,62.49985 24.71875,78.78125 -17.09049,5.60535 -41.41105,-8.8058 -75.1875,-34.09375 29.644,33.20511 46.34805,56.93535 39.59375,74.78125 10.6708,-14.25291 11.8868,-15.56615 17.875,-22.09375 5.58938,-6.09263 7.37985,-7.9614 18.34375,-17.78125 11.25046,-9.85812 13.26854,-11.37709 20.03125,-16.21875 6.9067,-4.94451 8.83177,-6.27851 22.5625,-14.1875 12.33451,-6.91037 14.78922,-8.04241 22.25,-11.3125 7.67774,-3.365 9.96838,-4.30144 24.5,-9.03125 13.208,-4.16737 15.8721,-4.79736 23.78125,-6.46875 8.26034,-1.7456 10.635,-2.20061 26.125,-3.90625 14.30407,-1.40317 16.96055,-1.46875 25.15625,-1.46875 8.85831,0 10.62725,0.01 28.34375,1.78125 13.10212,1.46659 15.92269,1.98412 23.6875,3.625 8.06288,1.70388 10.58999,2.32122 24.5,6.71875 13.79956,4.49943 16.24747,5.47934 23.78125,8.78125 7.46078,3.27009 9.91548,4.40213 22.25,11.3125 13.73073,7.90899 15.6558,9.24299 22.5625,14.1875 6.76271,4.84166 8.78078,6.36063 20.03125,16.21875 10.96381,9.82023 12.75437,11.68862 18.34375,17.78125 5.9882,6.5276 7.20417,7.84084 17.875,22.09375 -6.7543,-17.8459 9.94974,-41.57614 39.59375,-74.78125 -33.81975,25.32037 -58.12733,39.7259 -75.21875,34.0625 -7.65797,-16.28458 3.70927,-42.1429 24.75,-78.75 -27.95029,31.80361 -48.80176,50.9368 -66.71875,48.8125 -11.02566,-14.30287 -5.25367,-41.9956 7.8125,-82.3125 -20.60326,36.59783 -36.94985,59.54509 -54.75,61.5 -13.32788,-11.95522 -13.26959,-40.13141 -8.71875,-81.875 -12.94605,40.70516 -24.44869,66.66946 -41.96875,71.59375 -16.04038,-8.50889 -21.91562,-36.28182 -26.15625,-78.6875 z m 2.875,99.96875 c -1.37635,-0.005 -2.74998,0.0116 -4.125,0.0312 -73.3345,1.04709 -144.47788,37.47275 -186.65625,100.09375 -64.58021,97.0834 -49.12115,239.6031 62.40625,315.125 97.5272,64.4282 188.99395,36.13015 245.03125,5.03125 l -28,-48 c -60.39979,31.845 -131.1568,35.6623 -185.6875,-1.4375 -83.8576,-55.5432 -100.3532,-164.68105 -48.6875,-241.09375 50.833,-76.6977 156.02335,-100.0685 239.21875,-45.125 87.58159,59.3819 82.48805,162.54275 60.78125,208.71875 -9.5889,-6.5965 -19.19235,-13.18475 -28.78125,-19.78125 24.9959,-64.76217 -0.4447,-128.6783 -50.5,-162.1875 C 400.92381,345.54616 315.4392,352.2459 267.625,423.5 c -9.3484,14.13429 -9.36225,14.1554 -14.53125,28.0625 l 298.09375,199 c 12.3337,-12.84288 12.33425,-12.8473 20.21875,-24.625 67.0184,-100.11068 43.6842,-243.6293 -62.125,-314 -38.5768,-25.99295 -81.80179,-38.17927 -124.46875,-38.34375 z m 199.21875,371.5625 C 573.36046,659.40917 572.1757,660.7224 566.1875,667.25 c -5.67597,6.18706 -7.37489,7.95144 -18.8125,18.1875 -10.78937,9.44575 -12.93545,11.04559 -19.59375,15.8125 -6.50994,4.6605 -8.81667,6.24434 -20.5,13 -14.45549,8.12762 -16.40361,9.00226 -24.3125,12.46875 -7.53219,3.30119 -9.95847,4.31559 -23.75,8.8125 -13.91784,4.40011 -16.46669,5.01452 -24.53125,6.71875 -7.85097,1.6591 -10.59954,2.15064 -24.09375,3.65625 -17.21414,1.71782 -19.13867,1.71873 -27.90625,1.71875 -8.3454,0 -10.85061,-0.0498 -25.875,-1.53125 -14.78143,-1.63437 -17.28607,-2.09654 -25.40625,-3.8125 -8.06456,-1.70423 -10.6134,-2.31866 -24.53125,-6.71875 -13.79154,-4.49691 -16.21783,-5.48003 -23.75,-8.78125 -7.61208,-3.3364 -9.91741,-4.41451 -22.9375,-11.71875 -13.0274,-7.51241 -15.13014,-8.93022 -21.90625,-13.78125 -6.76271,-4.84166 -8.78078,-6.36064 -20.03125,-16.21875 -10.96381,-9.82023 -12.75438,-11.68864 -18.34375,-17.78125 -5.9882,-6.5276 -7.17295,-7.84086 -17.84375,-22.09375 6.7543,17.8459 -9.94976,41.57613 -39.59375,74.78125 33.79501,-25.30185 58.09802,-39.72364 75.1875,-34.09375 7.68616,16.2828 -3.69629,42.15158 -24.75,78.78125 27.97352,-31.83003 48.85426,-50.9427 66.78125,-48.78125 10.98226,14.31504 5.17844,42.03478 -7.875,82.3125 20.60326,-36.59783 36.94985,-59.57633 54.75,-61.53125 13.32788,11.95522 13.26959,40.16269 8.71875,81.90625 12.83495,-40.35584 24.26333,-66.25976 41.53125,-71.5 15.8262,8.68509 21.65955,36.37632 25.875,78.53125 4.24063,-42.40568 10.11585,-70.1786 26.15625,-78.6875 17.51525,4.93035 29.02481,30.89523 41.96875,71.59375 -4.55046,-41.74012 -4.63704,-69.91807 8.6875,-81.875 17.8025,1.95036 34.14441,24.89803 54.75,61.5 -13.06398,-40.31026 -18.83081,-68.00757 -7.8125,-82.3125 17.92005,-2.1356 38.76138,17.00084 66.71875,48.8125 -21.04075,-36.6071 -32.40797,-62.46542 -24.75,-78.75 17.09141,-5.66339 41.399,8.74213 75.21875,34.0625 -29.64397,-33.20509 -46.34805,-56.93535 -39.59375,-74.78125 z"
         id="path3313" />
    </clipPath>
    <radialGradient
       gradientUnits="userSpaceOnUse"
       gradientTransform="matrix(-3.6176843,5.1137731e-8,-3.8343816e-8,-2.7125924,1767.0579,365.83754)"
       r="240.95312"
       fy="70.85936"
       fx="382.67188"
       cy="70.85936"
       cx="382.67188"
       id="radialGradient3241"
       xlink:href="#linearGradient3576"
       inkscape:collect="always" />
    <radialGradient
       gradientUnits="userSpaceOnUse"
       gradientTransform="matrix(-3.5363136,0,0,-2.7057908,1735.9196,884.07485)"
       r="240.95312"
       fy="262.56644"
       fx="382.67188"
       cy="262.56644"
       cx="382.67188"
       id="radialGradient3247"
       xlink:href="#linearGradient3241"
       inkscape:collect="always" />
    <radialGradient
       r="240.95312"
       fy="262.56644"
       fx="382.67188"
       cy="262.56644"
       cx="382.67188"
       gradientTransform="matrix(-3.5363136,0,0,-2.7057908,1735.9196,884.07485)"
       gradientUnits="userSpaceOnUse"
       id="radialGradient3340"
       xlink:href="#linearGradient3241"
       inkscape:collect="always" />
    <radialGradient
       r="240.95312"
       fy="70.85936"
       fx="382.67188"
       cy="70.85936"
       cx="382.67188"
       gradientTransform="matrix(-3.6176843,5.1137731e-8,-3.8343816e-8,-2.7125924,1767.0579,365.83754)"
       gradientUnits="userSpaceOnUse"
       id="radialGradient3342"
       xlink:href="#linearGradient3576"
       inkscape:collect="always" />
    <linearGradient
       inkscape:collect="always"
       xlink:href="#linearGradient4327"
       id="linearGradient5287"
       gradientUnits="userSpaceOnUse"
       x1="273.69839"
       y1="511.80447"
       x2="468.40057"
       y2="554.5564"
       gradientTransform="translate(-16223.129,5432.0974)" />
    <clipPath
       clipPathUnits="userSpaceOnUse"
       id="clipPath4425">
      <flowRoot
         transform="matrix(17.64446,-7.5009013,7.5117543,17.669996,6746.0112,-7772.5444)"
         style="font-style:normal;font-variant:normal;font-weight:normal;font-stretch:normal;line-height:0.01%;font-family:'Ferro Rosso';-inkscape-font-specification:'Ferro Rosso';text-align:center;letter-spacing:0px;word-spacing:0px;writing-mode:lr-tb;text-anchor:middle;fill:#7c8448;fill-opacity:1;stroke:none"
         id="flowRoot4427"
         xml:space="preserve"><flowRegion
           id="flowRegion4429"><rect
             style="font-size:64px;fill:#7c8448;fill-opacity:1"
             y="18.276133"
             x="-408.29483"
             height="90.319756"
             width="274.67108"
             id="rect4431" /></flowRegion><flowPara
           style="font-size:64px;line-height:1.25"
           id="flowPara4433">Support</flowPara></flowRoot>    </clipPath>
    <clipPath
       clipPathUnits="userSpaceOnUse"
       id="clipPath4415">
      <flowRoot
         transform="matrix(36.494569,-15.514354,16.481939,38.770664,53864.211,-22517.578)"
         style="font-style:normal;font-variant:normal;font-weight:normal;font-stretch:normal;line-height:0.01%;font-family:'Ferro Rosso';-inkscape-font-specification:'Ferro Rosso';text-align:center;letter-spacing:0px;word-spacing:0px;writing-mode:lr-tb;text-anchor:middle;fill:#8b9067;fill-opacity:1;stroke:none"
         id="flowRoot4417"
         xml:space="preserve"><flowRegion
           id="flowRegion4419"><rect
             style="font-size:144px;fill:#8b9067;fill-opacity:1"
             y="-166.14922"
             x="-1471.5255"
             height="294.30505"
             width="192.98695"
             id="rect4421" /></flowRegion><flowPara
           style="font-size:144px;line-height:1.25"
           id="flowPara4423">?</flowPara></flowRoot>    </clipPath>
    <linearGradient
       inkscape:collect="always"
       xlink:href="#linearGradient4327"
       id="linearGradient4413"
       gradientUnits="userSpaceOnUse"
       x1="273.69839"
       y1="511.80447"
       x2="468.40057"
       y2="554.5564"
       gradientTransform="translate(19259.929,-2860.5737)" />
    <linearGradient
       inkscape:collect="always"
       xlink:href="#linearGradient4327"
       id="linearGradient4292"
       gradientUnits="userSpaceOnUse"
       x1="273.69839"
       y1="511.80447"
       x2="468.40057"
       y2="554.5564" />
    <radialGradient
       fy="0.5"
       fx="0.5"
       r="0.5"
       cy="0.5"
       cx="0.5"
       id="radialGradient568-7"
       xlink:href="#linearGradient564" />
    <radialGradient
       id="radialGradient620-5"
       xlink:href="#linearGradient564" />
    <clipPath
       id="clipPath3307-7"
       clipPathUnits="userSpaceOnUse">
      <path
         id="path3309-4"
         d="m 381.9375,173.625 c -4.21332,42.13349 -10.03577,69.83124 -25.84375,78.53125 -17.27681,-5.22916 -28.69236,-31.13179 -41.53125,-71.5 4.55458,41.77797 4.61095,69.96794 -8.75,81.90625 -17.78835,-1.97776 -34.12725,-24.95431 -54.71875,-61.53125 13.0555,40.28403 18.83303,67.99943 7.84375,82.3125 -17.92384,2.14967 -38.78383,-16.95958 -66.75,-48.78125 21.06376,36.64714 32.42682,62.49985 24.71875,78.78125 -17.09049,5.60535 -41.41105,-8.8058 -75.1875,-34.09375 29.644,33.20511 46.34805,56.93535 39.59375,74.78125 10.6708,-14.25291 11.8868,-15.56615 17.875,-22.09375 5.58938,-6.09263 7.37985,-7.9614 18.34375,-17.78125 11.25046,-9.85812 13.26854,-11.37709 20.03125,-16.21875 6.9067,-4.94451 8.83177,-6.27851 22.5625,-14.1875 12.33451,-6.91037 14.78922,-8.04241 22.25,-11.3125 7.67774,-3.365 9.96838,-4.30144 24.5,-9.03125 13.208,-4.16737 15.8721,-4.79736 23.78125,-6.46875 8.26034,-1.7456 10.635,-2.20061 26.125,-3.90625 14.30407,-1.40317 16.96055,-1.46875 25.15625,-1.46875 8.85831,0 10.62725,0.01 28.34375,1.78125 13.10212,1.46659 15.92269,1.98412 23.6875,3.625 8.06288,1.70388 10.58999,2.32122 24.5,6.71875 13.79956,4.49943 16.24747,5.47934 23.78125,8.78125 7.46078,3.27009 9.91548,4.40213 22.25,11.3125 13.73073,7.90899 15.6558,9.24299 22.5625,14.1875 6.76271,4.84166 8.78078,6.36063 20.03125,16.21875 10.96381,9.82023 12.75437,11.68862 18.34375,17.78125 5.9882,6.5276 7.20417,7.84084 17.875,22.09375 -6.7543,-17.8459 9.94974,-41.57614 39.59375,-74.78125 -33.81975,25.32037 -58.12733,39.7259 -75.21875,34.0625 -7.65797,-16.28458 3.70927,-42.1429 24.75,-78.75 -27.95029,31.80361 -48.80176,50.9368 -66.71875,48.8125 -11.02566,-14.30287 -5.25367,-41.9956 7.8125,-82.3125 -20.60326,36.59783 -36.94985,59.54509 -54.75,61.5 -13.32788,-11.95522 -13.26959,-40.13141 -8.71875,-81.875 -12.94605,40.70516 -24.44869,66.66946 -41.96875,71.59375 -16.04038,-8.50889 -21.91562,-36.28182 -26.15625,-78.6875 z m 2.875,99.96875 c -1.37635,-0.005 -2.74998,0.0116 -4.125,0.0312 -73.3345,1.04709 -144.47788,37.47275 -186.65625,100.09375 -64.58021,97.0834 -49.12115,239.6031 62.40625,315.125 97.5272,64.4282 188.99395,36.13015 245.03125,5.03125 l -28,-48 c -60.39979,31.845 -131.1568,35.6623 -185.6875,-1.4375 -83.8576,-55.5432 -100.3532,-164.68105 -48.6875,-241.09375 50.833,-76.6977 156.02335,-100.0685 239.21875,-45.125 87.58159,59.3819 82.48805,162.54275 60.78125,208.71875 -9.5889,-6.5965 -19.19235,-13.18475 -28.78125,-19.78125 24.9959,-64.76217 -0.4447,-128.6783 -50.5,-162.1875 C 400.92381,345.54616 315.4392,352.2459 267.625,423.5 c -9.3484,14.13429 -9.36225,14.1554 -14.53125,28.0625 l 298.09375,199 c 12.3337,-12.84288 12.33425,-12.8473 20.21875,-24.625 67.0184,-100.11068 43.6842,-243.6293 -62.125,-314 -38.5768,-25.99295 -81.80179,-38.17927 -124.46875,-38.34375 z m 199.21875,371.5625 C 573.36046,659.40917 572.1757,660.7224 566.1875,667.25 c -5.67597,6.18706 -7.37489,7.95144 -18.8125,18.1875 -10.78937,9.44575 -12.93545,11.04559 -19.59375,15.8125 -6.50994,4.6605 -8.81667,6.24434 -20.5,13 -14.45549,8.12762 -16.40361,9.00226 -24.3125,12.46875 -7.53219,3.30119 -9.95847,4.31559 -23.75,8.8125 -13.91784,4.40011 -16.46669,5.01452 -24.53125,6.71875 -7.85097,1.6591 -10.59954,2.15064 -24.09375,3.65625 -17.21414,1.71782 -19.13867,1.71873 -27.90625,1.71875 -8.3454,0 -10.85061,-0.0498 -25.875,-1.53125 -14.78143,-1.63437 -17.28607,-2.09654 -25.40625,-3.8125 -8.06456,-1.70423 -10.6134,-2.31866 -24.53125,-6.71875 -13.79154,-4.49691 -16.21783,-5.48003 -23.75,-8.78125 -7.61208,-3.3364 -9.91741,-4.41451 -22.9375,-11.71875 -13.0274,-7.51241 -15.13014,-8.93022 -21.90625,-13.78125 -6.76271,-4.84166 -8.78078,-6.36064 -20.03125,-16.21875 -10.96381,-9.82023 -12.75438,-11.68864 -18.34375,-17.78125 -5.9882,-6.5276 -7.17295,-7.84086 -17.84375,-22.09375 6.7543,17.8459 -9.94976,41.57613 -39.59375,74.78125 33.79501,-25.30185 58.09802,-39.72364 75.1875,-34.09375 7.68616,16.2828 -3.69629,42.15158 -24.75,78.78125 27.97352,-31.83003 48.85426,-50.9427 66.78125,-48.78125 10.98226,14.31504 5.17844,42.03478 -7.875,82.3125 20.60326,-36.59783 36.94985,-59.57633 54.75,-61.53125 13.32788,11.95522 13.26959,40.16269 8.71875,81.90625 12.83495,-40.35584 24.26333,-66.25976 41.53125,-71.5 15.8262,8.68509 21.65955,36.37632 25.875,78.53125 4.24063,-42.40568 10.11585,-70.1786 26.15625,-78.6875 17.51525,4.93035 29.02481,30.89523 41.96875,71.59375 -4.55046,-41.74012 -4.63704,-69.91807 8.6875,-81.875 17.8025,1.95036 34.14441,24.89803 54.75,61.5 -13.06398,-40.31026 -18.83081,-68.00757 -7.8125,-82.3125 17.92005,-2.1356 38.76138,17.00084 66.71875,48.8125 -21.04075,-36.6071 -32.40797,-62.46542 -24.75,-78.75 17.09141,-5.66339 41.399,8.74213 75.21875,34.0625 -29.64397,-33.20509 -46.34805,-56.93535 -39.59375,-74.78125 z"
         style="font-size:12px;fill:#000000;fill-opacity:1;fill-rule:evenodd;stroke:none"
         inkscape:connector-curvature="0" />
    </clipPath>
    <clipPath
       id="clipPath3311-6"
       clipPathUnits="userSpaceOnUse">
      <path
         style="font-size:12px;fill:#000000;fill-opacity:1;fill-rule:evenodd;stroke:none"
         d="m 381.9375,173.625 c -4.21332,42.13349 -10.03577,69.83124 -25.84375,78.53125 -17.27681,-5.22916 -28.69236,-31.13179 -41.53125,-71.5 4.55458,41.77797 4.61095,69.96794 -8.75,81.90625 -17.78835,-1.97776 -34.12725,-24.95431 -54.71875,-61.53125 13.0555,40.28403 18.83303,67.99943 7.84375,82.3125 -17.92384,2.14967 -38.78383,-16.95958 -66.75,-48.78125 21.06376,36.64714 32.42682,62.49985 24.71875,78.78125 -17.09049,5.60535 -41.41105,-8.8058 -75.1875,-34.09375 29.644,33.20511 46.34805,56.93535 39.59375,74.78125 10.6708,-14.25291 11.8868,-15.56615 17.875,-22.09375 5.58938,-6.09263 7.37985,-7.9614 18.34375,-17.78125 11.25046,-9.85812 13.26854,-11.37709 20.03125,-16.21875 6.9067,-4.94451 8.83177,-6.27851 22.5625,-14.1875 12.33451,-6.91037 14.78922,-8.04241 22.25,-11.3125 7.67774,-3.365 9.96838,-4.30144 24.5,-9.03125 13.208,-4.16737 15.8721,-4.79736 23.78125,-6.46875 8.26034,-1.7456 10.635,-2.20061 26.125,-3.90625 14.30407,-1.40317 16.96055,-1.46875 25.15625,-1.46875 8.85831,0 10.62725,0.01 28.34375,1.78125 13.10212,1.46659 15.92269,1.98412 23.6875,3.625 8.06288,1.70388 10.58999,2.32122 24.5,6.71875 13.79956,4.49943 16.24747,5.47934 23.78125,8.78125 7.46078,3.27009 9.91548,4.40213 22.25,11.3125 13.73073,7.90899 15.6558,9.24299 22.5625,14.1875 6.76271,4.84166 8.78078,6.36063 20.03125,16.21875 10.96381,9.82023 12.75437,11.68862 18.34375,17.78125 5.9882,6.5276 7.20417,7.84084 17.875,22.09375 -6.7543,-17.8459 9.94974,-41.57614 39.59375,-74.78125 -33.81975,25.32037 -58.12733,39.7259 -75.21875,34.0625 -7.65797,-16.28458 3.70927,-42.1429 24.75,-78.75 -27.95029,31.80361 -48.80176,50.9368 -66.71875,48.8125 -11.02566,-14.30287 -5.25367,-41.9956 7.8125,-82.3125 -20.60326,36.59783 -36.94985,59.54509 -54.75,61.5 -13.32788,-11.95522 -13.26959,-40.13141 -8.71875,-81.875 -12.94605,40.70516 -24.44869,66.66946 -41.96875,71.59375 -16.04038,-8.50889 -21.91562,-36.28182 -26.15625,-78.6875 z m 2.875,99.96875 c -1.37635,-0.005 -2.74998,0.0116 -4.125,0.0312 -73.3345,1.04709 -144.47788,37.47275 -186.65625,100.09375 -64.58021,97.0834 -49.12115,239.6031 62.40625,315.125 97.5272,64.4282 188.99395,36.13015 245.03125,5.03125 l -28,-48 c -60.39979,31.845 -131.1568,35.6623 -185.6875,-1.4375 -83.8576,-55.5432 -100.3532,-164.68105 -48.6875,-241.09375 50.833,-76.6977 156.02335,-100.0685 239.21875,-45.125 87.58159,59.3819 82.48805,162.54275 60.78125,208.71875 -9.5889,-6.5965 -19.19235,-13.18475 -28.78125,-19.78125 24.9959,-64.76217 -0.4447,-128.6783 -50.5,-162.1875 C 400.92381,345.54616 315.4392,352.2459 267.625,423.5 c -9.3484,14.13429 -9.36225,14.1554 -14.53125,28.0625 l 298.09375,199 c 12.3337,-12.84288 12.33425,-12.8473 20.21875,-24.625 67.0184,-100.11068 43.6842,-243.6293 -62.125,-314 -38.5768,-25.99295 -81.80179,-38.17927 -124.46875,-38.34375 z m 199.21875,371.5625 C 573.36046,659.40917 572.1757,660.7224 566.1875,667.25 c -5.67597,6.18706 -7.37489,7.95144 -18.8125,18.1875 -10.78937,9.44575 -12.93545,11.04559 -19.59375,15.8125 -6.50994,4.6605 -8.81667,6.24434 -20.5,13 -14.45549,8.12762 -16.40361,9.00226 -24.3125,12.46875 -7.53219,3.30119 -9.95847,4.31559 -23.75,8.8125 -13.91784,4.40011 -16.46669,5.01452 -24.53125,6.71875 -7.85097,1.6591 -10.59954,2.15064 -24.09375,3.65625 -17.21414,1.71782 -19.13867,1.71873 -27.90625,1.71875 -8.3454,0 -10.85061,-0.0498 -25.875,-1.53125 -14.78143,-1.63437 -17.28607,-2.09654 -25.40625,-3.8125 -8.06456,-1.70423 -10.6134,-2.31866 -24.53125,-6.71875 -13.79154,-4.49691 -16.21783,-5.48003 -23.75,-8.78125 -7.61208,-3.3364 -9.91741,-4.41451 -22.9375,-11.71875 -13.0274,-7.51241 -15.13014,-8.93022 -21.90625,-13.78125 -6.76271,-4.84166 -8.78078,-6.36064 -20.03125,-16.21875 -10.96381,-9.82023 -12.75438,-11.68864 -18.34375,-17.78125 -5.9882,-6.5276 -7.17295,-7.84086 -17.84375,-22.09375 6.7543,17.8459 -9.94976,41.57613 -39.59375,74.78125 33.79501,-25.30185 58.09802,-39.72364 75.1875,-34.09375 7.68616,16.2828 -3.69629,42.15158 -24.75,78.78125 27.97352,-31.83003 48.85426,-50.9427 66.78125,-48.78125 10.98226,14.31504 5.17844,42.03478 -7.875,82.3125 20.60326,-36.59783 36.94985,-59.57633 54.75,-61.53125 13.32788,11.95522 13.26959,40.16269 8.71875,81.90625 12.83495,-40.35584 24.26333,-66.25976 41.53125,-71.5 15.8262,8.68509 21.65955,36.37632 25.875,78.53125 4.24063,-42.40568 10.11585,-70.1786 26.15625,-78.6875 17.51525,4.93035 29.02481,30.89523 41.96875,71.59375 -4.55046,-41.74012 -4.63704,-69.91807 8.6875,-81.875 17.8025,1.95036 34.14441,24.89803 54.75,61.5 -13.06398,-40.31026 -18.83081,-68.00757 -7.8125,-82.3125 17.92005,-2.1356 38.76138,17.00084 66.71875,48.8125 -21.04075,-36.6071 -32.40797,-62.46542 -24.75,-78.75 17.09141,-5.66339 41.399,8.74213 75.21875,34.0625 -29.64397,-33.20509 -46.34805,-56.93535 -39.59375,-74.78125 z"
         id="path3313-5"
         inkscape:connector-curvature="0" />
    </clipPath>
    <linearGradient
       gradientUnits="userSpaceOnUse"
       y2="557.28046"
       x2="382.54953"
       y1="280.10577"
       x1="382.54953"
       id="linearGradient3532"
       xlink:href="#linearGradient3576"
       inkscape:collect="always" />
    <linearGradient
       gradientUnits="userSpaceOnUse"
       y2="542.24011"
       x2="386.75247"
       y1="362.86322"
       x1="386.75247"
       id="linearGradient3542"
       xlink:href="#linearGradient3576"
       inkscape:collect="always" />
    <radialGradient
       gradientUnits="userSpaceOnUse"
       gradientTransform="matrix(0.5349323,-0.8448949,1,0.6331347,-314.84051,648.56861)"
       r="17.515625"
       fy="558.96472"
       fx="524.92188"
       cy="558.96472"
       cx="524.92188"
       id="radialGradient3550"
       xlink:href="#linearGradient3576"
       inkscape:collect="always" />
    <linearGradient
       gradientUnits="userSpaceOnUse"
       y2="457.54633"
       x2="232.28918"
       y1="670.63263"
       x1="419.64124"
       id="linearGradient3558"
       xlink:href="#linearGradient3576"
       inkscape:collect="always" />
    <linearGradient
       gradientUnits="userSpaceOnUse"
       y2="694.03125"
       x2="499.21875"
       y1="648.46875"
       x1="472.21875"
       id="linearGradient3566"
       xlink:href="#linearGradient3576"
       inkscape:collect="always" />
    <linearGradient
       gradientUnits="userSpaceOnUse"
       y2="247.90936"
       x2="383.04688"
       y1="191.93869"
       x1="381.34219"
       id="linearGradient3574"
       xlink:href="#linearGradient3576"
       inkscape:collect="always" />
    <linearGradient
       gradientUnits="userSpaceOnUse"
       y2="255.63063"
       x2="318.86661"
       y1="198.74815"
       x1="318.69376"
       id="linearGradient3582"
       xlink:href="#linearGradient3576"
       inkscape:collect="always" />
    <linearGradient
       gradientUnits="userSpaceOnUse"
       y2="255.81599"
       x2="438.59241"
       y1="198.44858"
       x1="445.7951"
       id="linearGradient3590"
       xlink:href="#linearGradient3576"
       inkscape:collect="always" />
    <linearGradient
       gradientUnits="userSpaceOnUse"
       y2="240.82478"
       x2="300.71875"
       y1="240.82478"
       x1="257.7309"
       id="linearGradient3604"
       xlink:href="#linearGradient3576"
       inkscape:collect="always" />
    <linearGradient
       gradientUnits="userSpaceOnUse"
       y2="286.28125"
       x2="245.95103"
       y1="249.44212"
       x1="202.37982"
       id="linearGradient3612"
       xlink:href="#linearGradient3576"
       inkscape:collect="always" />
    <linearGradient
       gradientUnits="userSpaceOnUse"
       y2="315.24637"
       x2="210.60495"
       y1="291.5267"
       x1="154.62117"
       id="linearGradient3630"
       xlink:href="#linearGradient3576"
       inkscape:collect="always" />
    <linearGradient
       gradientUnits="userSpaceOnUse"
       y2="264.98077"
       x2="475.69058"
       y1="218.1875"
       x1="506.375"
       id="linearGradient3640"
       xlink:href="#linearGradient3576"
       inkscape:collect="always" />
    <linearGradient
       gradientUnits="userSpaceOnUse"
       y2="285.78125"
       x2="514.25"
       y1="249.84375"
       x1="560.27661"
       id="linearGradient3650"
       xlink:href="#linearGradient3576"
       inkscape:collect="always" />
    <linearGradient
       gradientUnits="userSpaceOnUse"
       y2="319.74561"
       x2="558.26556"
       y1="291.875"
       x1="609.40625"
       id="linearGradient3658"
       xlink:href="#linearGradient3576"
       inkscape:collect="always" />
    <linearGradient
       gradientUnits="userSpaceOnUse"
       y2="779.81976"
       x2="382.35052"
       y1="749.875"
       x1="382.35052"
       id="linearGradient3690"
       xlink:href="#linearGradient3576"
       inkscape:collect="always" />
    <linearGradient
       gradientUnits="userSpaceOnUse"
       y2="770.08527"
       x2="439.75153"
       y1="743.75"
       x1="433.34247"
       id="linearGradient3692"
       xlink:href="#linearGradient3576"
       inkscape:collect="always" />
    <linearGradient
       gradientUnits="userSpaceOnUse"
       y2="781.1015"
       x2="318.11243"
       y1="739.15625"
       x1="315.32422"
       id="linearGradient3694"
       xlink:href="#linearGradient3576"
       inkscape:collect="always" />
    <linearGradient
       gradientUnits="userSpaceOnUse"
       y2="775.99207"
       x2="262.10007"
       y1="719.53125"
       x1="263.92017"
       id="linearGradient3696"
       xlink:href="#linearGradient3576"
       inkscape:collect="always" />
    <linearGradient
       gradientUnits="userSpaceOnUse"
       y2="773.81586"
       x2="504.24789"
       y1="722.67517"
       x1="498.71881"
       id="linearGradient3698"
       xlink:href="#linearGradient3576"
       inkscape:collect="always" />
    <linearGradient
       gradientUnits="userSpaceOnUse"
       y2="742.41943"
       x2="221.63947"
       y1="690.28125"
       x1="221.06584"
       id="linearGradient3700"
       xlink:href="#linearGradient3576"
       inkscape:collect="always" />
    <linearGradient
       gradientUnits="userSpaceOnUse"
       y2="748.35437"
       x2="546.1084"
       y1="690.3689"
       x1="543.8891"
       id="linearGradient3702"
       xlink:href="#linearGradient3576"
       inkscape:collect="always" />
    <linearGradient
       gradientUnits="userSpaceOnUse"
       y2="701.6875"
       x2="186.59787"
       y1="653.09375"
       x1="186.59787"
       id="linearGradient3704"
       xlink:href="#linearGradient3576"
       inkscape:collect="always" />
    <linearGradient
       gradientUnits="userSpaceOnUse"
       y2="706.513"
       x2="580.92993"
       y1="653.38116"
       x1="580.92993"
       id="linearGradient3706"
       xlink:href="#linearGradient3262"
       inkscape:collect="always" />
    <radialGradient
       gradientUnits="userSpaceOnUse"
       gradientTransform="matrix(-3.6176843,0,0,-1.8739726,1767.0579,306.4135)"
       r="240.95312"
       fy="70.85936"
       fx="382.67188"
       cy="70.85936"
       cx="382.67188"
       id="radialGradient3241-9"
       xlink:href="#linearGradient3262"
       inkscape:collect="always" />
    <linearGradient
       inkscape:collect="always"
       xlink:href="#linearGradient4658"
       id="linearGradient4646"
       gradientUnits="userSpaceOnUse"
       x1="-262.03033"
       y1="907.40875"
       x2="-259.9726"
       y2="925.40887" />
    <linearGradient
       inkscape:collect="always"
       xlink:href="#linearGradient4658"
       id="linearGradient4637"
       gradientUnits="userSpaceOnUse"
       gradientTransform="matrix(1.668137,0,0,1.6820528,256.89097,-560.82031)"
       x1="-388.34698"
       y1="819.68396"
       x2="-385.56772"
       y2="822.02289" />
    <linearGradient
       id="linearGradient3139">
      <stop
         id="stop3141"
         offset="0"
         style="stop-color:#ffffff;stop-opacity:1;" />
      <stop
         id="stop3143"
         offset="1"
         style="stop-color:#f8f8f8;stop-opacity:1;" />
    </linearGradient>
    <radialGradient
       fy="0.5"
       fx="0.5"
       r="0.5"
       cy="0.5"
       cx="0.5"
       id="radialGradient568-4"
       xlink:href="#linearGradient564" />
    <radialGradient
       id="radialGradient620-9"
       xlink:href="#linearGradient564" />
    <clipPath
       id="clipPath6870"
       clipPathUnits="userSpaceOnUse">
      <path
         style="font-size:12px;opacity:0.06289308;fill:#000000;fill-opacity:1;fill-rule:evenodd;stroke:none"
         d="m 381.9375,173.625 c -4.21332,42.13349 -10.03577,69.83124 -25.84375,78.53125 -17.27681,-5.22916 -28.69236,-31.13179 -41.53125,-71.5 4.55458,41.77797 4.61095,69.96794 -8.75,81.90625 -17.78835,-1.97776 -34.12725,-24.95431 -54.71875,-61.53125 13.0555,40.28403 18.83303,67.99943 7.84375,82.3125 -17.92384,2.14967 -38.78383,-16.95958 -66.75,-48.78125 21.04773,36.61924 32.42315,62.46638 24.75,78.75 -17.09124,5.66031 -41.4013,-8.74385 -75.21875,-34.0625 29.644,33.20511 46.34805,56.93535 39.59375,74.78125 10.6708,-14.25291 11.8868,-15.56615 17.875,-22.09375 5.58937,-6.09263 7.37994,-7.96102 18.34375,-17.78125 11.25046,-9.85812 13.26854,-11.37709 20.03125,-16.21875 6.9067,-4.94451 8.83177,-6.27851 22.5625,-14.1875 12.33451,-6.91037 14.78922,-8.04241 22.25,-11.3125 7.67774,-3.365 9.96838,-4.30144 24.5,-9.03125 13.208,-4.16737 15.8721,-4.79736 23.78125,-6.46875 8.26034,-1.7456 10.635,-2.20061 26.125,-3.90625 14.30407,-1.40317 16.96055,-1.46875 25.15625,-1.46875 8.85831,0 10.62725,0.01 28.34375,1.78125 13.10212,1.46659 15.92269,1.98412 23.6875,3.625 8.06288,1.70388 10.58999,2.32122 24.5,6.71875 13.79956,4.49943 16.24747,5.47934 23.78125,8.78125 7.46078,3.27009 9.91548,4.40213 22.25,11.3125 13.73073,7.90899 15.6558,9.24299 22.5625,14.1875 6.76271,4.84166 8.78078,6.36063 20.03125,16.21875 10.96381,9.82023 12.75437,11.68862 18.34375,17.78125 5.9882,6.5276 7.20417,7.84084 17.875,22.09375 -6.7543,-17.8459 9.94974,-41.57614 39.59375,-74.78125 -33.81975,25.32037 -58.12733,39.7259 -75.21875,34.0625 -7.65797,-16.28458 3.70927,-42.1429 24.75,-78.75 -27.95029,31.80361 -48.80176,50.9368 -66.71875,48.8125 -11.02566,-14.30287 -5.25367,-41.9956 7.8125,-82.3125 -20.60326,36.59783 -36.94985,59.54509 -54.75,61.5 -13.32788,-11.95522 -13.26959,-40.13141 -8.71875,-81.875 -12.94605,40.70516 -24.44869,66.66946 -41.96875,71.59375 -16.04038,-8.50889 -21.91562,-36.28182 -26.15625,-78.6875 z m -1.25,100 c -73.3345,1.04709 -144.47788,37.47275 -186.65625,100.09375 -64.58021,97.0834 -49.12115,239.6031 62.40625,315.125 97.5272,64.4282 188.99395,36.13015 245.03125,5.03125 l -28,-48 c -60.39979,31.845 -131.1568,35.6623 -185.6875,-1.4375 -83.8576,-55.5432 -100.3532,-164.68105 -48.6875,-241.09375 50.833,-76.6977 156.02335,-100.0685 239.21875,-45.125 87.58159,59.3819 82.48805,162.54275 60.78125,208.71875 -9.5889,-6.5965 -19.19235,-13.18475 -28.78125,-19.78125 24.9959,-64.76217 -0.4447,-128.6783 -50.5,-162.1875 C 400.92381,345.54616 315.4392,352.2459 267.625,423.5 c -9.3484,14.13429 -9.36225,14.1554 -14.53125,28.0625 l 298.09375,199 c 12.3337,-12.84288 12.33425,-12.8473 20.21875,-24.625 67.0184,-100.11068 43.6842,-243.6293 -62.125,-314 C 469.46004,285.10607 424.6882,272.99675 380.6875,273.625 Z M 584.03125,645.15625 C 573.36046,659.40917 572.1757,660.7224 566.1875,667.25 c -5.67597,6.18706 -7.37489,7.95144 -18.8125,18.1875 -10.78937,9.44575 -12.93545,11.04559 -19.59375,15.8125 -6.50994,4.6605 -8.81667,6.24434 -20.5,13 -14.45549,8.12762 -16.40361,9.00226 -24.3125,12.46875 -7.53219,3.30119 -9.95847,4.31559 -23.75,8.8125 -13.91784,4.40011 -16.46669,5.01452 -24.53125,6.71875 -7.85097,1.6591 -10.59954,2.15064 -24.09375,3.65625 -17.21414,1.71782 -19.13867,1.71873 -27.90625,1.71875 -8.3454,0 -10.85061,-0.0498 -25.875,-1.53125 -14.78143,-1.63437 -17.28607,-2.09654 -25.40625,-3.8125 -8.06456,-1.70423 -10.6134,-2.31866 -24.53125,-6.71875 -13.79154,-4.49691 -16.21783,-5.48003 -23.75,-8.78125 -7.61208,-3.3364 -9.91741,-4.41451 -22.9375,-11.71875 -13.0274,-7.51241 -15.13014,-8.93022 -21.90625,-13.78125 -6.76271,-4.84166 -8.78078,-6.36064 -20.03125,-16.21875 -10.96381,-9.82023 -12.75438,-11.68864 -18.34375,-17.78125 -5.9882,-6.5276 -7.17295,-7.84086 -17.84375,-22.09375 6.7543,17.8459 -9.94976,41.57613 -39.59375,74.78125 33.79501,-25.30185 58.09802,-39.72364 75.1875,-34.09375 7.68616,16.2828 -3.69629,42.15158 -24.75,78.78125 27.97352,-31.83003 48.85426,-50.9427 66.78125,-48.78125 10.98226,14.31504 5.17844,42.03478 -7.875,82.3125 20.60326,-36.59783 36.94985,-59.57633 54.75,-61.53125 13.32788,11.95522 13.26959,40.16269 8.71875,81.90625 12.83495,-40.35584 24.26333,-66.25976 41.53125,-71.5 15.8262,8.68509 21.65955,36.37632 25.875,78.53125 4.24063,-42.40568 10.11585,-70.1786 26.15625,-78.6875 17.51525,4.93035 29.02481,30.89523 41.96875,71.59375 -4.55046,-41.74012 -4.63704,-69.91807 8.6875,-81.875 17.8025,1.95036 34.14441,24.89803 54.75,61.5 -13.06398,-40.31026 -18.83081,-68.00757 -7.8125,-82.3125 17.92005,-2.1356 38.76138,17.00084 66.71875,48.8125 -21.04075,-36.6071 -32.40797,-62.46542 -24.75,-78.75 17.09141,-5.66339 41.399,8.74213 75.21875,34.0625 -29.64397,-33.20509 -46.34805,-56.93535 -39.59375,-74.78125 z"
         id="path6872"
         inkscape:connector-curvature="0" />
    </clipPath>
    <linearGradient
       gradientUnits="userSpaceOnUse"
       y2="825.59375"
       x2="382.67188"
       y1="173.625"
       x1="382.67188"
       id="linearGradient3145"
       xlink:href="#linearGradient3139"
       inkscape:collect="always" />
    <linearGradient
       inkscape:collect="always"
       xlink:href="#linearGradient4228"
       id="linearGradient4226"
       x1="276.01392"
       y1="527.58185"
       x2="467.42841"
       y2="527.58185"
       gradientUnits="userSpaceOnUse" />
    <radialGradient
       inkscape:collect="always"
       xlink:href="#linearGradient4658"
       id="radialGradient8104"
       gradientUnits="userSpaceOnUse"
       gradientTransform="matrix(-0.51069916,0.63259882,-0.95396084,-0.7701358,1010.8357,959.73443)"
       cx="261.42932"
       cy="640.09308"
       fx="261.42932"
       fy="640.09308"
       r="37.911633" />
    <linearGradient
       inkscape:collect="always"
       xlink:href="#linearGradient8072"
       id="linearGradient8102"
       gradientUnits="userSpaceOnUse"
       x1="155.79834"
       y1="615.98029"
       x2="200.73077"
       y2="608.65436" />
    <linearGradient
       gradientTransform="translate(-1091.0095,-467.98952)"
       gradientUnits="userSpaceOnUse"
       y2="611.39862"
       x2="211.75021"
       y1="723.78906"
       x1="212.70932"
       id="linearGradient4639"
       xlink:href="#linearGradient4625"
       inkscape:collect="always" />
    <linearGradient
       y2="496.73517"
       x2="370.98874"
       y1="598.56793"
       x1="371.84369"
       gradientTransform="translate(-1221.4614,-349.80232)"
       gradientUnits="userSpaceOnUse"
       id="linearGradient4623"
       xlink:href="#linearGradient4625"
       inkscape:collect="always" />
    <linearGradient
       gradientTransform="translate(-1160.433,-46.866018)"
       inkscape:collect="always"
       xlink:href="#linearGradient3974"
       id="linearGradient3980"
       x1="371.84369"
       y1="598.56793"
       x2="372.40118"
       y2="482.61069"
       gradientUnits="userSpaceOnUse" />
    <linearGradient
       inkscape:collect="always"
       xlink:href="#linearGradient3915"
       id="linearGradient3921"
       x1="279.53229"
       y1="490.70129"
       x2="466.84787"
       y2="567.63446"
       gradientUnits="userSpaceOnUse" />
    <linearGradient
       inkscape:collect="always"
       id="linearGradient3915">
      <stop
         style="stop-color:#200f00;stop-opacity:1"
         offset="0"
         id="stop3917" />
      <stop
         style="stop-color:#66480e;stop-opacity:1"
         offset="1"
         id="stop3919" />
    </linearGradient>
    <linearGradient
       inkscape:collect="always"
       id="linearGradient3974">
      <stop
         style="stop-color:#c2b990;stop-opacity:1"
         offset="0"
         id="stop3976" />
      <stop
         id="stop3982"
         offset="0.20185627"
         style="stop-color:#775830;stop-opacity:1" />
      <stop
         style="stop-color:#a69134;stop-opacity:1"
         offset="1"
         id="stop3978" />
    </linearGradient>
    <linearGradient
       id="linearGradient4625"
       inkscape:collect="always">
      <stop
         id="stop4627"
         offset="0"
         style="stop-color:#978121;stop-opacity:1" />
      <stop
         style="stop-color:#32220b;stop-opacity:1"
         offset="0.20554313"
         id="stop4629" />
      <stop
         id="stop4631"
         offset="1"
         style="stop-color:#a69134;stop-opacity:1" />
    </linearGradient>
    <linearGradient
       id="linearGradient4658"
       inkscape:collect="always">
      <stop
         id="stop4660"
         offset="0"
         style="stop-color:#ffffff;stop-opacity:1" />
      <stop
         id="stop4662"
         offset="1"
         style="stop-color:#1838c0;stop-opacity:0;" />
    </linearGradient>
    <linearGradient
       inkscape:collect="always"
       id="linearGradient8072">
      <stop
         style="stop-color:#9c1bc5;stop-opacity:1"
         offset="0"
         id="stop8074" />
      <stop
         style="stop-color:#8e8efb;stop-opacity:1"
         offset="1"
         id="stop8076" />
    </linearGradient>
    <linearGradient
       id="linearGradient4228"
       inkscape:collect="always">
      <stop
         style="stop-color:#90846c;stop-opacity:1"
         offset="0"
         id="stop4230" />
      <stop
         id="stop4232"
         offset="0.53495425"
         style="stop-color:#ffffff;stop-opacity:1" />
      <stop
         id="stop4234"
         offset="0.53495425"
         style="stop-color:#bdbaba;stop-opacity:1" />
      <stop
         style="stop-color:#bc4a00;stop-opacity:1"
         offset="0.96538591"
         id="stop4236" />
      <stop
         style="stop-color:#3c5c24;stop-opacity:1"
         offset="1"
         id="stop4238" />
    </linearGradient>
    <linearGradient
       inkscape:collect="always"
       id="linearGradient4327">
      <stop
         id="stop4329"
         offset="0"
         style="stop-color:#90846c;stop-opacity:1" />
      <stop
         style="stop-color:#ffffff;stop-opacity:1"
         offset="0.53495425"
         id="stop4331" />
      <stop
         style="stop-color:#bdbaba;stop-opacity:1"
         offset="0.53495425"
         id="stop4333" />
      <stop
         id="stop4335"
         offset="0.75088406"
         style="stop-color:#bc4a00;stop-opacity:1" />
      <stop
         id="stop4337"
         offset="1"
         style="stop-color:#3c5c24;stop-opacity:1" />
    </linearGradient>
    <linearGradient
       id="linearGradient4482">
      <stop
         id="stop4486"
         offset="0"
         style="stop-color:#3c5c24;stop-opacity:1" />
      <stop
         style="stop-color:#6ac1a4;stop-opacity:1;"
         offset="0.54979801"
         id="stop4490" />
      <stop
         style="stop-color:#35e0b0;stop-opacity:1;"
         offset="0.58998254"
         id="stop4500" />
      <stop
         id="stop4498"
         offset="0.63016707"
         style="stop-color:#01ffbc;stop-opacity:1;" />
      <stop
         style="stop-color:#81c6c5;stop-opacity:1;"
         offset="0.78337055"
         id="stop4492" />
      <stop
         style="stop-color:#617f7b;stop-opacity:1;"
         offset="0.8874495"
         id="stop4494" />
      <stop
         style="stop-color:#87e012;stop-opacity:1;"
         offset="0.88865972"
         id="stop4496" />
      <stop
         id="stop4484"
         offset="1"
         style="stop-color:#90846c;stop-opacity:1" />
    </linearGradient>
    <radialGradient
       inkscape:collect="always"
       xlink:href="#linearGradient3895-5"
       id="radialGradient3903-2"
       cx="387.18985"
       cy="850.49396"
       fx="387.18985"
       fy="850.49396"
       r="93.763924"
       gradientUnits="userSpaceOnUse" />
    <linearGradient
       inkscape:collect="always"
       id="linearGradient3895-5">
      <stop
         id="stop3899-5"
         offset="0"
         style="stop-color:#ffffff;stop-opacity:1" />
      <stop
         style="stop-color:#ffffff;stop-opacity:1"
         offset="0.66112679"
         id="stop3969-0" />
      <stop
         style="stop-color:#bdbaba;stop-opacity:1"
         offset="0.92638683"
         id="stop3911-5" />
      <stop
         id="stop3913-2"
         offset="0.96538591"
         style="stop-color:#bc4a00;stop-opacity:1" />
      <stop
         id="stop3897-9"
         offset="1"
         style="stop-color:#ffb685;stop-opacity:1" />
    </linearGradient>
    <radialGradient
       r="240.95312"
       fy="262.56644"
       fx="382.67188"
       cy="262.56644"
       cx="382.67188"
       gradientTransform="matrix(-3.5363136,0,0,-2.7057908,1735.9196,884.07485)"
       gradientUnits="userSpaceOnUse"
       id="radialGradient4417"
       xlink:href="#linearGradient3241"
       inkscape:collect="always" />
    <radialGradient
       r="240.95312"
       fy="70.85936"
       fx="382.67188"
       cy="70.85936"
       cx="382.67188"
       gradientTransform="matrix(-3.6176843,5.1137731e-8,-3.8343816e-8,-2.7125924,1767.0579,365.83754)"
       gradientUnits="userSpaceOnUse"
       id="radialGradient4419"
       xlink:href="#linearGradient3576"
       inkscape:collect="always" />
    <linearGradient
       y2="247.90936"
       x2="383.04688"
       y1="191.93869"
       x1="381.34219"
       gradientTransform="translate(-141.71875,-173.625)"
       gradientUnits="userSpaceOnUse"
       id="linearGradient4421"
       xlink:href="#linearGradient3576"
       inkscape:collect="always" />
    <linearGradient
       y2="255.63063"
       x2="318.86661"
       y1="198.74815"
       x1="318.69376"
       gradientTransform="translate(-141.71875,-173.625)"
       gradientUnits="userSpaceOnUse"
       id="linearGradient4423"
       xlink:href="#linearGradient3576"
       inkscape:collect="always" />
    <linearGradient
       y2="255.81599"
       x2="438.59241"
       y1="198.44858"
       x1="445.7951"
       gradientTransform="translate(-141.71875,-173.625)"
       gradientUnits="userSpaceOnUse"
       id="linearGradient4425"
       xlink:href="#linearGradient3576"
       inkscape:collect="always" />
    <linearGradient
       y2="240.82478"
       x2="300.71875"
       y1="240.82478"
       x1="257.7309"
       gradientTransform="translate(-141.71875,-173.625)"
       gradientUnits="userSpaceOnUse"
       id="linearGradient4427"
       xlink:href="#linearGradient3576"
       inkscape:collect="always" />
    <linearGradient
       y2="264.98077"
       x2="475.69058"
       y1="218.1875"
       x1="506.375"
       gradientTransform="translate(-141.71875,-173.625)"
       gradientUnits="userSpaceOnUse"
       id="linearGradient4429"
       xlink:href="#linearGradient3576"
       inkscape:collect="always" />
    <linearGradient
       y2="286.28125"
       x2="245.95103"
       y1="249.44212"
       x1="202.37982"
       gradientTransform="translate(-141.71875,-173.625)"
       gradientUnits="userSpaceOnUse"
       id="linearGradient4431"
       xlink:href="#linearGradient3576"
       inkscape:collect="always" />
    <linearGradient
       y2="285.78125"
       x2="514.25"
       y1="249.84375"
       x1="560.27661"
       gradientTransform="translate(-141.71875,-173.625)"
       gradientUnits="userSpaceOnUse"
       id="linearGradient4433"
       xlink:href="#linearGradient3576"
       inkscape:collect="always" />
    <radialGradient
       r="17.515625"
       fy="558.96472"
       fx="524.92188"
       cy="558.96472"
       cx="524.92188"
       gradientTransform="matrix(0.5349323,-0.8448949,1,0.6331347,-456.55926,474.94361)"
       gradientUnits="userSpaceOnUse"
       id="radialGradient4435"
       xlink:href="#linearGradient3576"
       inkscape:collect="always" />
    <linearGradient
       y2="315.24637"
       x2="210.60495"
       y1="291.5267"
       x1="154.62117"
       gradientTransform="translate(-141.71875,-173.625)"
       gradientUnits="userSpaceOnUse"
       id="linearGradient4437"
       xlink:href="#linearGradient3576"
       inkscape:collect="always" />
    <linearGradient
       y2="319.74561"
       x2="558.26556"
       y1="291.875"
       x1="609.40625"
       gradientTransform="translate(-141.71875,-173.625)"
       gradientUnits="userSpaceOnUse"
       id="linearGradient4439"
       xlink:href="#linearGradient3576"
       inkscape:collect="always" />
    <linearGradient
       y2="706.513"
       x2="580.92993"
       y1="653.38116"
       x1="580.92993"
       gradientTransform="translate(-141.71875,-173.625)"
       gradientUnits="userSpaceOnUse"
       id="linearGradient4441"
       xlink:href="#linearGradient3262"
       inkscape:collect="always" />
    <linearGradient
       y2="701.6875"
       x2="186.59787"
       y1="653.09375"
       x1="186.59787"
       gradientTransform="translate(-141.71875,-173.625)"
       gradientUnits="userSpaceOnUse"
       id="linearGradient4443"
       xlink:href="#linearGradient3576"
       inkscape:collect="always" />
    <linearGradient
       y2="748.35437"
       x2="546.1084"
       y1="690.3689"
       x1="543.8891"
       gradientTransform="translate(-141.71875,-173.625)"
       gradientUnits="userSpaceOnUse"
       id="linearGradient4445"
       xlink:href="#linearGradient3576"
       inkscape:collect="always" />
    <linearGradient
       y2="742.41943"
       x2="221.63947"
       y1="690.28125"
       x1="221.06584"
       gradientTransform="translate(-141.71875,-173.625)"
       gradientUnits="userSpaceOnUse"
       id="linearGradient4447"
       xlink:href="#linearGradient3576"
       inkscape:collect="always" />
    <linearGradient
       y2="773.81586"
       x2="504.24789"
       y1="722.67517"
       x1="498.71881"
       gradientTransform="translate(-141.71875,-173.625)"
       gradientUnits="userSpaceOnUse"
       id="linearGradient4449"
       xlink:href="#linearGradient3576"
       inkscape:collect="always" />
    <linearGradient
       y2="775.99207"
       x2="262.10007"
       y1="719.53125"
       x1="263.92017"
       gradientTransform="translate(-141.71875,-173.625)"
       gradientUnits="userSpaceOnUse"
       id="linearGradient4451"
       xlink:href="#linearGradient3576"
       inkscape:collect="always" />
    <linearGradient
       y2="781.1015"
       x2="318.11243"
       y1="739.15625"
       x1="315.32422"
       gradientTransform="translate(-141.71875,-173.625)"
       gradientUnits="userSpaceOnUse"
       id="linearGradient4453"
       xlink:href="#linearGradient3576"
       inkscape:collect="always" />
    <linearGradient
       y2="770.08527"
       x2="439.75153"
       y1="743.75"
       x1="433.34247"
       gradientTransform="translate(-141.71875,-173.625)"
       gradientUnits="userSpaceOnUse"
       id="linearGradient4455"
       xlink:href="#linearGradient3576"
       inkscape:collect="always" />
    <linearGradient
       y2="779.81976"
       x2="382.35052"
       y1="749.875"
       x1="382.35052"
       gradientTransform="translate(-141.71875,-173.625)"
       gradientUnits="userSpaceOnUse"
       id="linearGradient4457"
       xlink:href="#linearGradient3576"
       inkscape:collect="always" />
    <linearGradient
       y2="557.28046"
       x2="382.54953"
       y1="280.10577"
       x1="382.54953"
       gradientTransform="translate(-141.71875,-173.625)"
       gradientUnits="userSpaceOnUse"
       id="linearGradient4459"
       xlink:href="#linearGradient3576"
       inkscape:collect="always" />
    <linearGradient
       y2="542.24011"
       x2="386.75247"
       y1="362.86322"
       x1="386.75247"
       gradientTransform="translate(-141.71875,-173.625)"
       gradientUnits="userSpaceOnUse"
       id="linearGradient4461"
       xlink:href="#linearGradient3576"
       inkscape:collect="always" />
    <linearGradient
       y2="457.54633"
       x2="232.28918"
       y1="670.63263"
       x1="419.64124"
       gradientTransform="translate(-141.71875,-173.625)"
       gradientUnits="userSpaceOnUse"
       id="linearGradient4463"
       xlink:href="#linearGradient3576"
       inkscape:collect="always" />
    <linearGradient
       y2="694.03125"
       x2="499.21875"
       y1="648.46875"
       x1="472.21875"
       gradientTransform="translate(-141.71875,-173.625)"
       gradientUnits="userSpaceOnUse"
       id="linearGradient4465"
       xlink:href="#linearGradient3576"
       inkscape:collect="always" />
    <radialGradient
       r="93.763924"
       fy="850.49396"
       fx="387.18985"
       cy="850.49396"
       cx="387.18985"
       gradientUnits="userSpaceOnUse"
       id="radialGradient4467"
       xlink:href="#linearGradient3895-5"
       inkscape:collect="always" />
  </defs>
  <sodipodi:namedview
     id="base"
     pagecolor="#ffffff"
     bordercolor="#666666"
     borderopacity="1.0"
     inkscape:pageopacity="0.0"
     inkscape:pageshadow="2"
     inkscape:zoom="0.98994949"
     inkscape:cx="72.757547"
     inkscape:cy="155.36995"
     inkscape:document-units="mm"
     inkscape:current-layer="layer1"
     showgrid="false"
     inkscape:window-width="1236"
     inkscape:window-height="738"
     inkscape:window-x="44"
     inkscape:window-y="25"
     inkscape:window-maximized="1"
     showguides="false"
     inkscape:snap-global="false"
     inkscape:object-paths="true"
     inkscape:snap-intersection-paths="true"
     inkscape:snap-smooth-nodes="true"
     inkscape:snap-midpoints="true"
     showborder="true" />
  <metadata
     id="metadata311">
    <rdf:RDF>
      <cc:Work
         rdf:about="">
        <dc:format>image/svg+xml</dc:format>
        <dc:type
           rdf:resource="http://purl.org/dc/dcmitype/StillImage" />
        <dc:title></dc:title>
      </cc:Work>
    </rdf:RDF>
  </metadata>
  <g
     inkscape:label="logo"
     inkscape:groupmode="layer"
     id="layer1"
     transform="translate(-141.07726,-14.074691)"
     style="display:inline">
    <path
       style="opacity:1;vector-effect:none;fill:#000000;fill-opacity:1;fill-rule:evenodd;stroke:none;stroke-width:5.05499935;stroke-linecap:butt;stroke-linejoin:miter;stroke-miterlimit:4;stroke-dasharray:none;stroke-dashoffset:0;stroke-opacity:1;paint-order:stroke markers fill"
       d="m 163.79536,14.074691 a 2.7363196,2.7363196 0 0 0 -2.73638,2.736374 2.7363196,2.7363196 0 0 0 2.73638,2.736374 2.7363196,2.7363196 0 0 0 2.73637,-2.736374 2.7363196,2.7363196 0 0 0 -2.73637,-2.736374 z m 8.89293,4.332611 a 3.1923727,3.1923727 0 0 0 -3.19224,3.192252 3.1923727,3.1923727 0 0 0 3.19224,3.192473 3.1923727,3.1923727 0 0 0 3.19248,-3.192473 3.1923727,3.1923727 0 0 0 -3.19248,-3.192252 z m -7.06876,6.270756 a 3.4203995,3.4203995 0 0 0 -3.42041,3.420411 3.4203995,3.4203995 0 0 0 3.42041,3.420192 3.4203995,3.4203995 0 0 0 3.42041,-3.420192 3.4203995,3.4203995 0 0 0 -3.42041,-3.420411 z m 8.2089,6.042595 a 3.9904661,3.9904661 0 0 0 -3.99048,3.990481 3.9904661,3.9904661 0 0 0 3.99048,3.990482 3.9904661,3.9904661 0 0 0 3.99049,-3.990482 3.9904661,3.9904661 0 0 0 -3.99049,-3.990481 z m -13.45349,2.394245 a 4.2184927,4.2184927 0 0 0 -4.21842,4.218641 4.2184927,4.2184927 0 0 0 4.21842,4.21842 4.2184927,4.2184927 0 0 0 4.21843,-4.21842 4.2184927,4.2184927 0 0 0 -4.21843,-4.218641 z m -7.16377,7.892122 a 3.6781753,3.6781753 0 0 0 -2.05697,0.747747 c -6.34023,4.828687 -10.0692,12.346527 -10.07694,20.316138 a 3.6781753,3.6781753 0 0 0 0,0.0035 c 9e-5,14.077383 11.49106,25.568277 25.56844,25.568221 14.07728,-8.9e-5 25.56813,-11.49094 25.56822,-25.568221 a 3.6781753,3.6781753 0 0 0 0,-0.0057 c -0.0124,-7.964227 -3.7406,-15.475413 -10.07651,-20.30092 a 3.6781753,3.6781753 0 0 0 -4.46157,0.0037 c -3.16813,2.420986 -7.04146,3.734666 -11.02859,3.741158 -3.98848,-0.0095 -7.86201,-1.327061 -11.02883,-3.75196 a 3.6781753,3.6781753 0 0 0 -2.40725,-0.753699 z m 0.48696,8.289805 c 3.90695,2.30741 8.36625,3.562404 12.94008,3.571857 a 3.6781753,3.6781753 0 0 0 0.0122,0 c 4.57308,-0.0059 9.03264,-1.256933 12.94096,-3.560615 3.34068,3.377294 5.25841,7.949206 5.26685,12.768569 -10e-4,10.10101 -8.11113,18.21017 -18.21243,18.210235 -10.10168,3.8e-5 -18.21189,-8.109618 -18.21266,-18.211117 v -0.0013 c 0.005,-4.822319 1.92289,-9.397888 5.26509,-12.777607 z"
       id="circle1728"
       inkscape:connector-curvature="0" />
  </g>
</svg>
