<?xml version="1.0" encoding="UTF-8" standalone="no"?>
<!-- Created with Inkscape (http://www.inkscape.org/) -->

<svg
   xmlns:dc="http://purl.org/dc/elements/1.1/"
   xmlns:cc="http://creativecommons.org/ns#"
   xmlns:rdf="http://www.w3.org/1999/02/22-rdf-syntax-ns#"
   xmlns:svg="http://www.w3.org/2000/svg"
   xmlns="http://www.w3.org/2000/svg"
   xmlns:xlink="http://www.w3.org/1999/xlink"
   xmlns:sodipodi="http://sodipodi.sourceforge.net/DTD/sodipodi-0.dtd"
   xmlns:inkscape="http://www.inkscape.org/namespaces/inkscape"
   width="66.848907mm"
   height="59.580837mm"
   viewBox="0 0 66.848908 59.580837"
   version="1.1"
   id="svg314"
   inkscape:version="0.92.4 (0.92.4+201904251222+dc25406)"
   sodipodi:docname="mint_logo.svg">
  <defs
     id="defs308">
    <mask
       maskUnits="userSpaceOnUse"
       id="mask5289">
      <rect
         y="253.5773"
         x="267.5437"
         height="28.51399"
         width="93.388603"
         id="rect5291"
         style="color:#000000;overflow:visible;opacity:1;fill:url(#linearGradient5293);fill-opacity:1;stroke:none;stroke-width:0.26499999;stroke-miterlimit:4;stroke-dasharray:none;paint-order:markers fill stroke" />
    </mask>
    <linearGradient
       inkscape:collect="always"
       xlink:href="#linearGradient4522"
       id="linearGradient5293"
       gradientUnits="userSpaceOnUse"
       gradientTransform="matrix(1.2048872,0,0,0.90412108,-63.105808,19.880198)"
       x1="363.27399"
       y1="254.75394"
       x2="261.55945"
       y2="293.64957" />
    <linearGradient
       inkscape:collect="always"
       id="linearGradient4522">
      <stop
         style="stop-color:#000000;stop-opacity:1"
         offset="0"
         id="stop4516" />
      <stop
         id="stop4518"
         offset="0.49042651"
         style="stop-color:#ffffff;stop-opacity:1" />
      <stop
         style="stop-color:#000000;stop-opacity:1"
         offset="1"
         id="stop4520" />
    </linearGradient>
    <filter
       inkscape:collect="always"
       style="color-interpolation-filters:sRGB"
       id="filter4389-0-1-5"
       x="-0.042493366"
       width="1.0849867"
       y="-0.14771166"
       height="1.2954233">
      <feGaussianBlur
         inkscape:collect="always"
         stdDeviation="1.0597623"
         id="feGaussianBlur4391-9-8-6" />
    </filter>
  </defs>
  <sodipodi:namedview
     id="base"
     pagecolor="#ffffff"
     bordercolor="#666666"
     borderopacity="1.0"
     inkscape:pageopacity="0.0"
     inkscape:pageshadow="2"
     inkscape:zoom="0.98994949"
     inkscape:cx="-110.31472"
     inkscape:cy="17.191828"
     inkscape:document-units="mm"
     inkscape:current-layer="g5797"
     showgrid="false"
     inkscape:window-width="1236"
     inkscape:window-height="738"
     inkscape:window-x="44"
     inkscape:window-y="25"
     inkscape:window-maximized="1"
     inkscape:snap-global="true" />
  <metadata
     id="metadata311">
    <rdf:RDF>
      <cc:Work
         rdf:about="">
        <dc:format>image/svg+xml</dc:format>
        <dc:type
           rdf:resource="http://purl.org/dc/dcmitype/StillImage" />
        <dc:title />
      </cc:Work>
    </rdf:RDF>
  </metadata>
  <g
     inkscape:label="Layer 1"
     inkscape:groupmode="layer"
     id="layer1"
     transform="translate(-5.93042,-7.9742319)">
    <path
       transform="matrix(1.9565749,0,0,1.9565749,-489.21078,-433.49023)"
       inkscape:connector-curvature="0"
       id="path4305-8-9-3"
       d="m 275.84868,258.72096 v 16.1698"
       style="fill:#00ffff;fill-rule:evenodd;stroke:#ffffff;stroke-width:0.13544075;stroke-linecap:butt;stroke-linejoin:miter;stroke-miterlimit:4;stroke-dasharray:none;stroke-opacity:1;filter:url(#filter4389-0-1-5)" />
    <path
       style="fill:#f2f2f2;fill-rule:evenodd;stroke:#ffffff;stroke-width:0.26499999;stroke-linecap:butt;stroke-linejoin:miter;stroke-miterlimit:4;stroke-dasharray:none;stroke-opacity:1"
       d="M 51.566168,72.716704 V 104.35413"
       id="path4325-7-3-6"
       inkscape:connector-curvature="0" />
    <g
       style="display:inline;fill:#1a1a1a"
       transform="translate(-703.51889,-119.56984)"
       id="g5797">
      <path
         style="fill:#1a1a1a;stroke-width:1.00000012"
         d="m 709.44931,127.58151 v 5.5e-4 18.7557 h 7.75014 v 22.06079 c 0,10.91219 9.66685,18.59955 20.29844,18.59955 0.4178,0.0537 9.3191,0.10379 19.78033,0.11201 l 19.02,0.0148 c 0,0 -0.0416,-37.72096 -0.1258,-38.57521 0,-11.85783 -10.18767,-20.79659 -20.78566,-20.9683 -0.45184,-0.084 -45.93745,2e-5 -45.93745,2e-5 z m 45.82104,4.81529 c 10.22358,0.84081 15.64262,8.73669 15.64262,16.153 v 29.23433 c 0,2.2802 -1.82715,4.37276 -4.0224,4.37276 l -13.9073,0.0127 c -7.64908,0.007 -14.09177,-0.006 -14.31673,-0.0298 -8.43254,0 -16.42006,-6.10727 -16.42006,-13.74124 v -23.2879 c 0,-2.77672 -1.79868,-3.70843 -3.64995,-3.70843 h -4.12778 v -9.0054 c 0,0 38.29475,-0.0148 40.8016,0 z m -27.8814,5.70251 v 26.25589 c 0,7.66595 5.47568,11.78632 10.94211,11.78632 0,0 15.87217,0.0326 18.46162,0.0176 v 0 c 6.6042,0 10.50077,-4.3099 10.50077,-10.96532 v -15.04944 c -0.11583,-3.26919 -3.25974,-7.47922 -8.48068,-7.47922 -1.90043,0 -3.91639,0.54425 -5.53753,1.91906 -1.2e-4,8e-5 -5.7e-4,-1e-4 -5.7e-4,0 -0.10528,0.10645 -0.18887,0.18905 -0.26208,0.24773 -0.073,0.0585 -0.13566,0.0934 -0.2003,0.10539 -10e-4,-1.9e-4 -0.002,-9e-4 -0.003,-0.001 -0.0396,-0.007 -0.0791,-0.0268 -0.12029,-0.0519 -0.0926,-0.0564 -0.19459,-0.15376 -0.33933,-0.30016 -1.62121,-1.37501 -3.63753,-1.9185 -5.53809,-1.9185 -5.22094,0 -8.36485,4.21002 -8.48068,7.47922 v 13.19608 h 5.3229 c 0.003,-2.11938 0.0474,-4.77607 0.0474,-6.67804 v -5.0051 c 0.0295,-0.58899 -0.007,-1.10607 0.2047,-1.71269 1.09741,-2.74117 5.24785,-2.66079 6.20187,0.21409 0.0984,0.34288 0.13794,0.55525 0.13794,1.4986 v 11.62685 h 2.44323 0.12359 2.56683 v -11.62685 c 0,-0.94334 0.0395,-1.15572 0.13794,-1.4986 1.01776,-2.77435 5.11572,-2.86702 6.20188,-0.21409 0.20082,0.55367 0.18049,1.20149 0.20471,1.71269 v 5.00508 8.53086 c 0,2.96622 -2.22722,5.64737 -5.27167,5.64737 v 0.002 l -18.32085,0.12524 c -3.17461,0 -5.91496,-2.57461 -5.91496,-6.61238 l -0.0679,-26.25647 z m 35.56696,25.25664 3.31761,0.006 c 8e-5,0.47312 0.0154,1.11857 0,1.83128 0,6.66862 -4.16696,9.91426 -9.48084,9.91426 -2.38987,0.0136 -10.90144,10e-4 -13.32465,0.004 2e-4,-0.96213 -0.009,-2.22759 -0.0232,-3.13514 l 13.2071,-0.0861 v -0.002 0 c 0.006,-5.6e-4 -0.006,-8e-5 0,-0.002 2.70365,0 6.30394,-1.96593 6.30394,-6.69349 z"
         id="path1862"
         inkscape:connector-curvature="0"
         sodipodi:nodetypes="scccsccccccsccccsssccsssccccccccccccscccscccsccccsccscccccccccscccccccccccccc" />
    </g>
  </g>
</svg>
