<?xml version="1.0" encoding="UTF-8" standalone="no"?>
<!-- Created with Inkscape (http://www.inkscape.org/) -->

<svg
   xmlns:dc="http://purl.org/dc/elements/1.1/"
   xmlns:cc="http://creativecommons.org/ns#"
   xmlns:rdf="http://www.w3.org/1999/02/22-rdf-syntax-ns#"
   xmlns:svg="http://www.w3.org/2000/svg"
   xmlns="http://www.w3.org/2000/svg"
   xmlns:sodipodi="http://sodipodi.sourceforge.net/DTD/sodipodi-0.dtd"
   xmlns:inkscape="http://www.inkscape.org/namespaces/inkscape"
   width="35.854027mm"
   height="34.27726mm"
   viewBox="0 0 35.854026 34.277261"
   version="1.1"
   id="svg314"
   inkscape:version="0.92.4 (0.92.4+201906150354+3e976dc)"
   sodipodi:docname="nuyyx_logo.svg">
  <defs
     id="defs308">
    <inkscape:path-effect
       effect="skeletal"
       id="path-effect881"
       is_visible="true"
       pattern="m 88.894691,29.551112 c 0.335453,-1.065208 0.875973,-2.130417 2.855665,-3.195625 -0.259611,1.12793 -0.205605,2.067691 0.175813,2.811004 z"
       copytype="repeated_stretched"
       prop_scale="0.5"
       scale_y_rel="false"
       spacing="0"
       normal_offset="0"
       tang_offset="0"
       prop_units="false"
       vertical_pattern="true"
       fuse_tolerance="2" />
  </defs>
  <sodipodi:namedview
     id="base"
     pagecolor="#ffffff"
     bordercolor="#666666"
     borderopacity="1.0"
     inkscape:pageopacity="0.0"
     inkscape:pageshadow="2"
     inkscape:zoom="3.959798"
     inkscape:cx="70.369199"
     inkscape:cy="74.858427"
     inkscape:document-units="mm"
     inkscape:current-layer="layer1"
     showgrid="false"
     inkscape:window-width="1236"
     inkscape:window-height="738"
     inkscape:window-x="44"
     inkscape:window-y="25"
     inkscape:window-maximized="1"
     showguides="false"
     inkscape:snap-global="false"
     inkscape:object-paths="true"
     inkscape:snap-intersection-paths="true"
     inkscape:snap-smooth-nodes="true"
     inkscape:snap-midpoints="true"
     showborder="true" />
  <metadata
     id="metadata311">
    <rdf:RDF>
      <cc:Work
         rdf:about="">
        <dc:format>image/svg+xml</dc:format>
        <dc:type
           rdf:resource="http://purl.org/dc/dcmitype/StillImage" />
        <dc:title></dc:title>
      </cc:Work>
    </rdf:RDF>
  </metadata>
  <g
     inkscape:label="logo"
     inkscape:groupmode="layer"
     id="layer1"
     transform="translate(-20.007179,-21.442964)"
     style="display:inline">
    <path
       style="fill:#000000;stroke-width:0.11764839"
       d="m 48.662801,23.101121 c -0.04016,0.008 -1.764282,1.64387 -3.275684,3.175035 l -3.871587,3.922108 -0.418763,-0.08813 c -0.566403,-0.118975 -3.449249,0.02005 -4.289284,0.13618 -0.475706,0.06576 -0.67698,0.145104 -0.67698,0.2672 0,0.248402 0.516739,0.693359 1.218676,1.049152 l 0.605129,0.306493 -0.788688,-0.08027 c -0.499797,-0.05087 -1.010974,-0.02697 -1.397184,0.06568 -0.796276,0.191023 -2.475362,1.315579 -3.309682,2.216746 -0.620814,0.670554 -1.544436,2.269228 -1.929338,3.338312 -0.150143,0.417023 -0.629523,3.987616 -0.633196,4.717532 -0.0027,0.532714 0.312537,0.02459 0.612987,-0.988527 1.108392,-3.737564 3.015215,-6.531857 4.817452,-7.058896 0.215751,-0.06309 1.106881,-0.194884 1.98042,-0.293022 1.865631,-0.209595 2.438823,-0.12451 3.229972,0.479388 0.745337,0.568929 0.903768,0.633483 1.894535,0.771286 0.744492,0.103543 1.084271,0.09044 1.929899,-0.07297 0.960893,-0.185694 1.070229,-0.185595 1.7048,-0.0011 0.480154,0.139583 0.842864,0.351184 1.243377,0.725819 0.967035,0.904547 1.198042,1.754625 0.631512,2.321155 -0.346375,0.346374 -0.575976,0.395882 -2.182504,0.473214 -0.763278,0.03673 -1.304386,0.128744 -1.646983,0.28011 -0.829378,0.366436 -1.115935,0.397671 -1.925409,0.209943 -0.995356,-0.230844 -1.618903,-0.555858 -1.979297,-1.03175 -0.265776,-0.350949 -0.597978,-1.214126 -0.691014,-1.795177 -0.02429,-0.151674 -0.136147,0.02642 -0.314353,0.500718 -0.534607,1.422872 -0.195421,2.467976 1.12381,3.464614 l 0.66856,0.505209 1.201838,0.03986 c 1.026731,0.03392 1.439891,-0.01513 2.833101,-0.337929 1.110303,-0.257246 1.950865,-0.38099 2.63158,-0.387328 0.93453,-0.0087 1.068942,0.02254 2.058448,0.47995 1.437433,0.664496 2.003503,0.852681 2.564777,0.852681 0.564368,0 0.90601,-0.263184 0.90601,-0.69775 0,-0.288986 -0.02951,-0.305425 -0.47153,-0.263271 -1.014947,0.0968 -1.498626,-0.298502 -1.289967,-1.054203 0.137877,-0.499352 0.551006,-0.729599 1.118757,-0.623092 0.425974,0.07992 0.712135,0.332526 0.777463,0.687085 0.07415,0.402413 0.304029,0.326991 0.674735,-0.222292 l 0.362627,-0.538329 -0.191981,-0.496789 c -0.244073,-0.631636 -1.006859,-1.644218 -1.556044,-2.06522 -0.233203,-0.178773 -0.847534,-0.529227 -1.365188,-0.778583 -0.51765,-0.249358 -1.591308,-0.872516 -2.38571,-1.384836 -1.43721,-0.926876 -3.10283,-1.771165 -4.673185,-2.369431 -0.452947,-0.172561 -0.782489,-0.357172 -0.86506,-0.409781 2.064071,-2.910028 3.612957,-4.9996 5.503819,-7.793087 0.0142,-0.02184 -0.01095,-0.141383 -0.02696,-0.162491 -0.04826,-0.0636 -0.07911,-0.02849 -0.138711,0.0088 z m -17.11174,7.234447 c -1.225997,-0.01569 -1.999532,0.169923 -3.228288,0.726941 -2.037931,0.923836 -3.430635,1.892523 -4.713603,3.278246 -1.128314,1.218681 -1.158356,1.370179 -0.140336,0.705609 0.481935,-0.314612 1.228671,-0.713731 1.659893,-0.886361 0.936471,-0.374895 3.373754,-1.013226 3.867658,-1.013226 0.629863,0 0.953209,0.517534 0.662386,1.06094 -0.06544,0.122261 -0.531077,0.436934 -1.034556,0.698873 -1.785233,0.928782 -4.321717,3.427401 -5.080722,5.00494 -0.462806,0.961909 -1.484126,4.026586 -1.377538,4.133174 0.03246,0.03246 0.562095,-0.592892 1.177138,-1.389887 1.306366,-1.692833 1.657495,-2.044784 2.61081,-2.614739 1.658546,-0.99159 1.635083,-0.277192 -0.05501,1.656525 -0.462358,0.529002 -1.397329,2.317898 -1.710415,3.273196 -0.264481,0.806995 -0.763988,3.817201 -0.763988,4.604141 0,0.354144 0.08518,1.025207 0.189173,1.490929 0.193762,0.867811 0.399115,1.28488 0.399115,0.810579 0,-0.38439 0.800291,-2.345242 1.237201,-3.031256 0.448528,-0.704263 1.095868,-1.4623 1.248428,-1.4623 0.0594,0 0.164282,0.124226 0.233519,0.276181 0.100599,0.220798 0.05991,0.474755 -0.204329,1.264708 -0.300974,0.89975 -0.330938,1.141609 -0.333438,2.694449 -0.0022,1.450008 0.0373,1.83416 0.264393,2.559167 0.146955,0.469124 0.282785,0.852679 0.302003,0.852681 0.01921,0 0.03944,-0.4136 0.04491,-0.91892 0.01285,-1.188967 0.162824,-1.716061 0.710662,-2.500226 0.335656,-0.480445 0.518891,-0.63937 0.736483,-0.63937 h 0.289653 l -0.04322,1.646983 c -0.0237,0.905895 -0.0092,1.614764 0.032,1.575691 0.180636,-0.171237 0.658455,-2.439137 0.658455,-3.125562 0,-0.644714 -0.04192,-0.797496 -0.28853,-1.044098 -0.445114,-0.445115 -0.914008,-0.348037 -1.685716,0.349154 l -0.457495,0.413712 0.498474,-1.378661 c 0.274192,-0.758194 0.511173,-1.590239 0.52654,-1.849065 0.07799,-1.313658 -0.07446,-1.61997 -0.801598,-1.609935 -0.586954,0.008 -0.886138,0.151737 -1.480264,0.711785 l -0.453005,0.427182 0.08196,-0.529347 c 0.153406,-0.988553 0.668945,-2.28918 1.678979,-4.235338 0.554108,-1.067658 1.104906,-2.100093 1.224291,-2.294212 0.349334,-0.568008 0.681952,-1.305295 0.756129,-1.676172 0.09209,-0.460441 -0.213636,-0.792819 -0.559098,-0.607935 -0.350152,0.187395 -0.392092,0.05658 -0.168964,-0.527663 0.306972,-0.803797 0.806153,-1.411027 1.804159,-2.194854 1.578006,-1.239353 1.559412,-1.218931 1.559412,-1.72108 0,-0.440272 -0.257872,-0.977861 -0.469283,-0.977861 -0.05682,0 -0.24519,-0.05435 -0.418202,-0.120127 -0.247077,-0.09394 -0.285902,-0.153644 -0.181874,-0.278988 0.32314,-0.389361 2.070502,-0.641336 5.357464,-0.772971 0.07059,-0.0028 0.07059,-0.04544 0,-0.115636 -0.214323,-0.213136 -2.356185,-0.618006 -3.606072,-0.681472 -0.196253,-0.01 -0.380588,-0.01628 -0.55573,-0.01852 z m 11.476671,2.105039 h 0.386205 c 0.212419,0 0.540135,0.09107 0.728062,0.202084 0.357575,0.211224 0.445042,0.385155 0.194788,0.387888 -0.08088,9.48e-4 -0.253833,0.03013 -0.38396,0.06511 -0.163299,0.04388 -0.342828,-0.04782 -0.580429,-0.295829 z m -4.032692,7.481027 c -0.06724,0.0022 -0.135325,0.04274 -0.238011,0.110024 -0.768594,0.503603 -1.587601,2.415545 -1.611617,3.762125 -0.01916,1.074051 0.34745,1.816171 1.631826,3.305753 0.518134,0.600916 0.958447,1.095427 0.978984,1.099111 0.02054,0.0036 10e-6,-0.112069 -0.04603,-0.257656 -0.04599,-0.145594 -0.372266,-0.764946 -0.724694,-1.375854 -0.924712,-1.602911 -1.127162,-2.168083 -1.050275,-2.932459 0.110147,-1.095052 0.848008,-2.250447 1.777776,-2.783703 0.19167,-0.109933 0.170988,-0.160768 -0.230151,-0.561905 -0.265667,-0.265669 -0.375735,-0.369116 -0.487808,-0.365436 z"
       id="path886"
       inkscape:connector-curvature="0"
       sodipodi:nodetypes="sccccsccccsccccssccscccsccccccccccsscccccccccssccscssscsscssscsccscscscccccccscccscccccccccccccssssccccsscscccccsccsccscccscc" />
  </g>
</svg>
