<?xml version="1.0" encoding="UTF-8" standalone="no"?>
<!-- Created with Inkscape (http://www.inkscape.org/) -->

<svg
   xmlns:dc="http://purl.org/dc/elements/1.1/"
   xmlns:cc="http://creativecommons.org/ns#"
   xmlns:rdf="http://www.w3.org/1999/02/22-rdf-syntax-ns#"
   xmlns:svg="http://www.w3.org/2000/svg"
   xmlns="http://www.w3.org/2000/svg"
   xmlns:sodipodi="http://sodipodi.sourceforge.net/DTD/sodipodi-0.dtd"
   xmlns:inkscape="http://www.inkscape.org/namespaces/inkscape"
   width="29.691103mm"
   height="35.734085mm"
   viewBox="0 0 29.691102 35.734086"
   version="1.1"
   id="svg314"
   inkscape:version="0.92.4 (0.92.4+201904251222+dc25406)"
   sodipodi:docname="parrot_linux.svg">
  <defs
     id="defs308">
    <inkscape:path-effect
       effect="skeletal"
       id="path-effect881"
       is_visible="true"
       pattern="m 88.894691,29.551112 c 0.335453,-1.065208 0.875973,-2.130417 2.855665,-3.195625 -0.259611,1.12793 -0.205605,2.067691 0.175813,2.811004 z"
       copytype="repeated_stretched"
       prop_scale="0.5"
       scale_y_rel="false"
       spacing="0"
       normal_offset="0"
       tang_offset="0"
       prop_units="false"
       vertical_pattern="true"
       fuse_tolerance="2" />
  </defs>
  <sodipodi:namedview
     id="base"
     pagecolor="#ffffff"
     bordercolor="#666666"
     borderopacity="1.0"
     inkscape:pageopacity="0.0"
     inkscape:pageshadow="2"
     inkscape:zoom="1.979899"
     inkscape:cx="72.685053"
     inkscape:cy="79.412435"
     inkscape:document-units="mm"
     inkscape:current-layer="layer1"
     showgrid="false"
     inkscape:window-width="1236"
     inkscape:window-height="738"
     inkscape:window-x="44"
     inkscape:window-y="25"
     inkscape:window-maximized="1"
     showguides="false"
     inkscape:snap-global="false"
     inkscape:object-paths="true"
     inkscape:snap-intersection-paths="true"
     inkscape:snap-smooth-nodes="true"
     inkscape:snap-midpoints="true"
     showborder="true" />
  <metadata
     id="metadata311">
    <rdf:RDF>
      <cc:Work
         rdf:about="">
        <dc:format>image/svg+xml</dc:format>
        <dc:type
           rdf:resource="http://purl.org/dc/dcmitype/StillImage" />
        <dc:title></dc:title>
      </cc:Work>
    </rdf:RDF>
  </metadata>
  <g
     inkscape:label="logo"
     inkscape:groupmode="layer"
     id="layer1"
     transform="translate(-23.021076,-21.024558)"
     style="display:inline">
    <path
       style="fill:#000000;stroke:#000000;stroke-width:0.03059584"
       d="m 36.748094,21.040249 c -0.498606,-0.0028 -0.992289,0.0094 -1.262937,0.03757 -1.797424,0.187102 -3.270764,0.600728 -4.803868,1.34874 -3.629697,1.770954 -6.316597,5.110726 -7.266371,9.031229 -0.274093,1.131411 -0.378625,2.025821 -0.378544,3.237536 8.3e-5,1.24632 0.104182,2.120197 0.392565,3.288569 0.383323,1.553016 0.994742,2.938497 1.896647,4.298583 2.351849,3.546619 6.261611,5.793266 10.557183,6.066803 v 5.63e-4 c 0.375149,0.02389 1.353838,0.01747 1.744669,-0.01122 1.459013,-0.107081 2.827374,-0.420923 4.161185,-0.95393 0.507243,-0.202702 1.575501,-0.720908 1.596055,-0.774475 0.0041,-0.01059 -0.07503,-0.342219 -0.186748,-0.796906 A 12.899851,12.899851 0 0 1 36.721736,47.57481 12.899851,12.899851 0 0 1 23.822064,34.675138 12.899851,12.899851 0 0 1 36.721736,21.775466 12.899851,12.899851 0 0 1 49.621968,34.675138 12.899851,12.899851 0 0 1 48.38483,40.150853 l 0.533326,0.658947 0.10375,-0.204133 c 0.386791,-0.761819 0.790491,-1.928092 1.016181,-2.936383 0.103721,-0.463387 0.220682,-1.196279 0.277037,-1.735136 0.05696,-0.54487 0.04844,-2.033397 -0.01514,-2.608311 -0.365687,-3.306282 -1.756479,-6.162101 -4.12305,-8.466496 -2.179547,-2.122283 -5.001943,-3.428614 -8.136742,-3.766938 -0.289929,-0.03129 -0.793492,-0.04938 -1.292098,-0.05215 z m -3.853863,8.713811 c -0.01856,-0.01856 -2.821546,1.22975 -2.832073,1.261254 -0.0046,0.01382 0.218566,1.208296 0.496314,2.654858 0.277751,1.446563 0.505287,2.64307 0.505287,2.658784 0,0.01571 0.0056,0.02241 0.0129,0.01514 0.0073,-0.0072 0.247239,-0.587337 0.533327,-1.289294 l 0.520429,-1.276396 0.388639,-2.005444 c 0.213737,-1.103011 0.382667,-2.011415 0.375179,-2.018904 z m 0.383031,0.270309 c -0.01748,0.01748 -0.688198,3.453955 -0.675772,3.46242 0.0042,0.0028 0.296561,0.124114 0.649975,0.269187 0.353418,0.145073 0.64947,0.263592 0.657826,0.263579 0.0084,-1.3e-5 0.438753,-0.732177 0.956175,-1.627461 0.803803,-1.390794 0.93283,-1.631256 0.887196,-1.650453 -0.138416,-0.05824 -2.461357,-0.731336 -2.4754,-0.717272 z m 3.092848,0.790176 c -0.07917,-0.0032 -0.11731,-0.0012 -0.123938,0.0056 -0.06361,0.06506 -2.033501,3.484166 -2.023951,3.512892 0.0052,0.01551 4.160442,2.677702 9.234241,5.915387 5.073798,3.237688 9.228887,5.886734 9.23312,5.887347 0.004,5.86e-4 0.0073,-0.005 0.0073,-0.01234 0,-0.02312 -11.995845,-14.838066 -12.034349,-14.862494 -0.02011,-0.01276 -1.014135,-0.124931 -2.209016,-0.249559 -1.238561,-0.12918 -1.845898,-0.187318 -2.083397,-0.196844 z m -0.08019,5.34 c -0.01263,-0.0027 -0.0099,0.0082 0.0028,0.03084 0.01705,0.03033 0.656383,0.90839 1.420523,1.951607 l 1.389118,1.896647 0.929817,0.06449 c 0.876101,0.06082 1.40482,0.08503 1.40482,0.06393 0,-0.02905 -0.37133,-0.95522 -0.390321,-0.97356 -0.01717,-0.01657 -3.946383,-2.528694 -4.668154,-2.984613 -0.04789,-0.03025 -0.07598,-0.04662 -0.08861,-0.04935 z m 5.37533,3.44167 c -0.0068,0.0068 0.376909,1.010261 0.852987,2.229206 l 0.865325,2.215747 2.610554,4.124171 c 1.435627,2.268086 2.613956,4.11952 2.618407,4.114638 0.0087,-0.0096 -1.420443,-9.180875 -1.43174,-9.188255 -0.705616,-0.460949 -5.507068,-3.503972 -5.515533,-3.495507 z m 1.695879,5.15213 c -0.0249,-0.02862 0.02548,0.171799 1.888236,7.486768 0.637711,2.504267 1.163837,4.534019 1.168721,4.510566 0.0048,-0.02346 -0.07536,-1.775386 -0.177776,-3.893118 l -0.186188,-3.850499 -1.334719,-2.113118 c -0.734062,-1.162321 -1.345197,-2.12558 -1.358274,-2.140599 z"
       id="path965"
       inkscape:connector-curvature="0" />
  </g>
</svg>
