<?xml version="1.0" encoding="UTF-8" standalone="no"?>
<!-- Created with Inkscape (http://www.inkscape.org/) -->

<svg
   xmlns:dc="http://purl.org/dc/elements/1.1/"
   xmlns:cc="http://creativecommons.org/ns#"
   xmlns:rdf="http://www.w3.org/1999/02/22-rdf-syntax-ns#"
   xmlns:svg="http://www.w3.org/2000/svg"
   xmlns="http://www.w3.org/2000/svg"
   xmlns:sodipodi="http://sodipodi.sourceforge.net/DTD/sodipodi-0.dtd"
   xmlns:inkscape="http://www.inkscape.org/namespaces/inkscape"
   width="153.16016mm"
   height="153.16016mm"
   viewBox="0 0 153.16016 153.16016"
   version="1.1"
   id="svg8"
   inkscape:version="0.92.4 (0.92.4+201906150354+3e976dc)"
   sodipodi:docname="pclinux_os_logo.svg">
  <defs
     id="defs2" />
  <sodipodi:namedview
     id="base"
     pagecolor="#ffffff"
     bordercolor="#666666"
     borderopacity="1.0"
     inkscape:pageopacity="0.0"
     inkscape:pageshadow="2"
     inkscape:zoom="0.49497475"
     inkscape:cx="90.870355"
     inkscape:cy="281.16615"
     inkscape:document-units="mm"
     inkscape:current-layer="layer1"
     showgrid="false"
     inkscape:snap-global="false" />
  <metadata
     id="metadata5">
    <rdf:RDF>
      <cc:Work
         rdf:about="">
        <dc:format>image/svg+xml</dc:format>
        <dc:type
           rdf:resource="http://purl.org/dc/dcmitype/StillImage" />
        <dc:title></dc:title>
      </cc:Work>
    </rdf:RDF>
  </metadata>
  <g
     inkscape:label="Layer 1"
     inkscape:groupmode="layer"
     id="layer1"
     transform="translate(-27.509703,-62.076017)">
    <path
       style="fill:#000000;stroke-width:0.36400592"
       d="M 292.8418,3.4042969 C 133.09174,3.4042969 3.4042969,133.09173 3.4042969,292.8418 c 0,159.75008 129.6874431,289.43554 289.4375031,289.43554 159.75008,0 289.43554,-129.68546 289.43554,-289.43554 0,-159.75007 -129.68546,-289.4375031 -289.43554,-289.4375031 z m 0,13.1894531 c 152.67091,0 276.24609,123.57715 276.24609,276.24805 0,152.67091 -123.57518,276.24804 -276.24609,276.24804 -152.67089,0 -276.24805,-123.57713 -276.24805,-276.24804 0,-152.6709 123.57716,-276.24805 276.24805,-276.24805 z M 512.10742,138.3418 c -0.93668,-0.0627 -3.30955,0.97829 -9.72265,4.04492 -4.37224,2.09067 -9.31322,4.22846 -10.97852,4.75 -3.97357,1.24452 -10.35091,2.20192 -20.63281,3.10156 -14.16938,1.23976 -14.37626,1.34186 -30.21289,14.72656 -8.88133,7.50622 -9.76845,9.30273 -7.32227,14.83399 2.4446,5.52767 10.57615,17.50026 16.1211,23.73633 6.69191,7.52602 8.80487,17.59119 5.18359,24.68945 -2.54105,4.98093 -10.42435,10.46238 -17.62109,12.25195 -6.38408,1.58748 -7.85755,1.69972 -22.02344,1.67383 -12.15538,-0.0227 -14.28831,-0.11531 -19.47461,-0.85156 -20.52896,-2.91364 -37.58249,-8.35817 -71.89063,-22.95508 -12.0926,-5.145 -33.03315,-13.50333 -39.49414,-15.76367 -7.77837,-2.72126 -15.33141,-4.8269 -21.22851,-5.91797 -6.44895,-1.1932 -15.40561,-1.26238 -21.37305,-0.16602 -13.84596,2.54385 -25.96517,8.15945 -36.57031,16.94727 -4.22549,3.50143 -13.28419,12.97157 -17.03907,17.8125 -7.66566,9.88286 -14.92245,21.42342 -24.25976,38.58398 -7.20377,13.23942 -8.93855,16.15134 -9.79102,16.42188 -1.51823,0.48185 -6.88677,-6.26586 -9.47851,-11.91406 -0.67828,-1.47821 -1.35072,-3.58833 -1.49414,-4.68946 -0.58102,-4.46086 -3.08198,-4.32099 -5.19336,0.29102 -2.33149,5.09261 -0.21112,12.09933 8.50976,28.11523 l 2.08789,3.83399 -4.77343,14.73047 c -6.31685,19.48596 -8.10158,25.42996 -10.23243,34.10742 -0.89118,3.62918 -2.65633,6.76462 -6.66796,11.83984 -5.14797,6.51285 -12.40096,13.09593 -16.90821,15.34766 -2.01506,1.00668 -3.16628,1.14722 -4.68359,0.57031 -1.30489,-0.4961 -16.736376,-4.59013 -26.56836,-7.04883 -16.746195,-4.18779 -21.773832,-5.11755 -24.703125,-4.57031 -3.539815,0.6613 -8.966797,4.82462 -8.966797,6.87891 0,1.62206 1.517901,2.23832 6.361328,2.58203 6.684994,0.47437 15.989629,2.93761 34.962891,9.25781 21.070463,7.01881 25.906643,8.02128 30.923823,6.40039 3.76984,-1.21791 6.33398,-3.18191 13.41211,-10.27344 3.56852,-3.57524 6.61582,-6.5 6.77344,-6.5 0.15761,0 2.39825,1.28171 4.97852,2.84961 10.66911,6.48306 17.83329,10.03646 22.59961,11.20899 3.00031,0.73806 5.20703,1.79109 5.20703,2.48437 0,0.93475 -1.8142,1.95741 -5.85156,3.30274 -7.99356,2.66354 -11.0542,5.92443 -11.95313,12.73242 -0.39152,2.96515 -0.14405,5.17539 0.68945,6.17969 0.236,0.28422 0.94739,0.67477 1.58203,0.86718 1.70599,0.51727 12.6124,0.76191 19.9004,0.44727 5.41057,-0.23358 6.64358,-0.39529 8.18945,-1.08203 3.37285,-1.4984 4.90442,-3.66132 6.34765,-8.96094 0.43617,-1.60161 1.03028,-3.27421 1.31836,-3.7168 1.18808,-1.82528 3.92268,-1.74655 15.08594,0.42774 6.50409,1.26682 10.37807,1.4755 14.56446,0.78906 3.97153,-0.65117 8.89992,-2.01508 12.01953,-3.32812 1.18251,-0.49773 2.56377,-0.90625 3.07031,-0.90626 2.11789,0 0.73616,3.07438 -3.27344,7.28126 -3.20377,3.36143 -5.26953,7.95703 -5.26953,11.72265 0,2.06574 0.84047,4.13247 1.91406,4.70703 0.9411,0.50366 8.04073,1.01549 11.55469,0.83203 1.50153,-0.0782 6.29379,-0.25221 10.65039,-0.38476 4.81687,-0.14665 8.13433,-0.39857 8.46484,-0.64258 0.42064,-0.31068 0.62753,-1.8824 0.91407,-6.95313 1.66182,-29.4091 4.75338,-44.29316 10.57617,-50.9082 3.93892,-4.47488 18.41042,-11.46182 33.27148,-16.06445 15.01557,-4.65045 30.34127,-7.39068 33.65625,-6.01758 2.35661,0.97614 2.31616,4.36767 -0.15429,12.51758 -1.22548,4.043 -9.46233,28.01827 -9.83008,28.61328 -0.0998,0.16139 -0.63306,0.39694 -1.18555,0.52344 -5.14231,1.17762 -10.17846,2.72245 -12.26562,3.76367 -3.19843,1.59568 -6.44761,4.78538 -7.73243,7.5918 -2.11317,4.61578 -1.33694,9.62113 1.67969,10.82812 2.59967,1.0402 7.34303,1.39541 16.8457,1.25977 8.73196,-0.12473 9.30192,-0.17538 11.11719,-0.98828 3.19042,-1.42855 4.81318,-3.92551 4.81836,-7.41602 0.008,-4.37975 4.70719,-11.83745 14.39453,-22.83398 2.55731,-2.90295 11.66724,-12.32095 20.24219,-20.92969 l 15.58984,-15.65235 3.00782,1.60547 c 5.69661,3.04211 13.20563,7.42394 15.5664,9.08399 10.75884,7.56544 25.75995,20.40529 36.47461,31.21875 6.83573,6.89881 9.77201,10.32877 11.39063,13.30273 1.36611,2.50995 1.15176,4.16995 -1.19922,9.21875 -1.02546,2.20222 -2.05832,4.84334 -2.29492,5.86914 -0.37879,1.64228 -0.34918,2.02981 0.25781,3.25196 0.8293,1.67085 2.3737,2.53143 5.82422,3.24414 3.39091,0.70042 25.82461,1.76191 26.75195,1.26562 0.60027,-0.32126 0.69141,-0.80148 0.69141,-3.64648 0,-3.03855 -0.12144,-3.58525 -1.6836,-7.54102 -1.83481,-4.64583 -6.03129,-13.22949 -11.07031,-22.64648 -5.04552,-9.42902 -11.22391,-23.37712 -14.10742,-31.84961 -0.61319,-1.80182 -2.01669,-6.07473 -3.11914,-9.49414 -3.13191,-9.71445 -8.76264,-24.69927 -12.7793,-34.00586 -2.10149,-4.86909 -4.47956,-12.2378 -5.16797,-16.01563 -1.18658,-6.51137 -0.64493,-19.5073 1.01368,-24.32812 1.59836,-4.64568 3.4067,-7.14249 12.70117,-17.53321 7.21678,-8.06793 11.92587,-13.88549 13.55273,-16.74414 0.88452,-1.55421 1.91517,-6.52004 2.6543,-12.78125 0.84971,-7.19841 -2.94583,-14.43934 -15.05078,-28.71484 -2.79674,-3.2982 -5.38322,-7.12195 -5.7168,-8.45117 -0.34696,-1.38244 0.42762,-3.41918 1.93164,-5.08399 2.26042,-2.50201 5.08403,-3.79418 12.27148,-5.61523 7.19248,-1.8223 13.23398,-4.16611 23.4336,-9.08789 9.50491,-4.5865 16.36164,-8.75179 18.59961,-11.30078 3.17114,-3.61172 8.31508,-12.67026 7.86328,-13.84766 -0.089,-0.23186 -0.24246,-0.37558 -0.55469,-0.39648 z"
       transform="matrix(0.26458333,0,0,0.26458333,26.608983,61.175297)"
       id="path1408"
       inkscape:connector-curvature="0" />
  </g>
</svg>
