<?xml version="1.0" encoding="UTF-8" standalone="no"?>
<!-- Created with Inkscape (http://www.inkscape.org/) -->

<svg
   xmlns:dc="http://purl.org/dc/elements/1.1/"
   xmlns:cc="http://creativecommons.org/ns#"
   xmlns:rdf="http://www.w3.org/1999/02/22-rdf-syntax-ns#"
   xmlns:svg="http://www.w3.org/2000/svg"
   xmlns="http://www.w3.org/2000/svg"
   xmlns:xlink="http://www.w3.org/1999/xlink"
   xmlns:sodipodi="http://sodipodi.sourceforge.net/DTD/sodipodi-0.dtd"
   xmlns:inkscape="http://www.inkscape.org/namespaces/inkscape"
   width="38.216942mm"
   height="59.211094mm"
   viewBox="0 0 38.216942 59.211094"
   version="1.1"
   id="svg314"
   inkscape:version="0.92.4 (0.92.4+201904251222+dc25406)"
   sodipodi:docname="rasbian_logo.svg">
  <defs
     id="defs308">
    <mask
       maskUnits="userSpaceOnUse"
       id="mask5289">
      <rect
         y="253.5773"
         x="267.5437"
         height="28.51399"
         width="93.388603"
         id="rect5291"
         style="color:#000000;overflow:visible;opacity:1;fill:url(#linearGradient5293);fill-opacity:1;stroke:none;stroke-width:0.26499999;stroke-miterlimit:4;stroke-dasharray:none;paint-order:markers fill stroke" />
    </mask>
    <linearGradient
       inkscape:collect="always"
       xlink:href="#linearGradient4522"
       id="linearGradient5293"
       gradientUnits="userSpaceOnUse"
       gradientTransform="matrix(1.2048872,0,0,0.90412108,-63.105808,19.880198)"
       x1="363.27399"
       y1="254.75394"
       x2="261.55945"
       y2="293.64957" />
    <linearGradient
       inkscape:collect="always"
       id="linearGradient4522">
      <stop
         style="stop-color:#000000;stop-opacity:1"
         offset="0"
         id="stop4516" />
      <stop
         id="stop4518"
         offset="0.49042651"
         style="stop-color:#ffffff;stop-opacity:1" />
      <stop
         style="stop-color:#000000;stop-opacity:1"
         offset="1"
         id="stop4520" />
    </linearGradient>
    <filter
       inkscape:collect="always"
       style="color-interpolation-filters:sRGB"
       id="filter4389-0-1-5"
       x="-0.042493366"
       width="1.0849867"
       y="-0.14771166"
       height="1.2954233">
      <feGaussianBlur
         inkscape:collect="always"
         stdDeviation="1.0597623"
         id="feGaussianBlur4391-9-8-6" />
    </filter>
  </defs>
  <sodipodi:namedview
     id="base"
     pagecolor="#ffffff"
     bordercolor="#666666"
     borderopacity="1.0"
     inkscape:pageopacity="0.0"
     inkscape:pageshadow="2"
     inkscape:zoom="0.98994949"
     inkscape:cx="249.56471"
     inkscape:cy="52.162256"
     inkscape:document-units="mm"
     inkscape:current-layer="g5797"
     showgrid="false"
     inkscape:window-width="1236"
     inkscape:window-height="738"
     inkscape:window-x="44"
     inkscape:window-y="25"
     inkscape:window-maximized="1"
     inkscape:snap-global="true" />
  <metadata
     id="metadata311">
    <rdf:RDF>
      <cc:Work
         rdf:about="">
        <dc:format>image/svg+xml</dc:format>
        <dc:type
           rdf:resource="http://purl.org/dc/dcmitype/StillImage" />
        <dc:title></dc:title>
      </cc:Work>
    </rdf:RDF>
  </metadata>
  <g
     inkscape:label="Layer 1"
     inkscape:groupmode="layer"
     id="layer1"
     transform="translate(-18.92307,-8.09607)">
    <path
       transform="matrix(1.9565749,0,0,1.9565749,-489.21078,-433.49023)"
       inkscape:connector-curvature="0"
       id="path4305-8-9-3"
       d="m 275.84868,258.72096 v 16.1698"
       style="fill:#00ffff;fill-rule:evenodd;stroke:#ffffff;stroke-width:0.13544075;stroke-linecap:butt;stroke-linejoin:miter;stroke-miterlimit:4;stroke-dasharray:none;stroke-opacity:1;filter:url(#filter4389-0-1-5)" />
    <path
       style="fill:#f2f2f2;fill-rule:evenodd;stroke:#ffffff;stroke-width:0.26499999;stroke-linecap:butt;stroke-linejoin:miter;stroke-miterlimit:4;stroke-dasharray:none;stroke-opacity:1"
       d="M 51.566168,72.716704 V 104.35413"
       id="path4325-7-3-6"
       inkscape:connector-curvature="0" />
    <g
       style="display:inline;fill:#1a1a1a"
       transform="translate(-703.51889,-119.56984)"
       id="g5797">
      <path
         style="display:inline;opacity:1;fill:#000000;stroke-width:0.99999988"
         d="m 752.71293,127.66647 c -2.26301,0.0163 -4.9235,0.40702 -5.52773,0.95386 -0.20868,0.18904 -0.55113,0.34319 -0.76073,0.34319 -0.58467,0 -2.02424,1.63968 -2.59364,2.95405 -0.2805,0.64746 -0.55663,1.17736 -0.61339,1.17736 -0.0568,0 -0.33296,-0.5299 -0.61339,-1.17736 -0.56261,-1.29863 -2.00682,-2.95405 -2.57731,-2.95405 -0.20071,0 -0.60194,-0.18623 -0.8913,-0.41392 -0.28935,-0.22742 -0.83372,-0.41346 -1.21,-0.41346 -0.37622,0 -0.74385,-0.0966 -0.81649,-0.21443 -0.0728,-0.11792 -0.47415,-0.21782 -0.89174,-0.22396 -3.15149,-0.0395 -4.38525,0.009 -5.10432,0.19902 -0.45516,0.12043 -1.28614,0.31713 -1.84651,0.43658 -0.56035,0.11962 -1.17325,0.3569 -1.36142,0.52725 -0.18836,0.1705 -0.57683,0.3101 -0.86319,0.3101 -0.92033,0 -1.17895,0.5395 -1.09122,2.27583 0.0431,0.85356 0.079,1.77714 0.0853,2.05279 0.004,0.2755 0.14641,0.71477 0.31735,0.97562 0.17099,0.26107 0.311,0.65197 0.311,0.86817 0,0.21625 0.18621,0.62959 0.41392,0.91894 0.22742,0.28937 0.41391,0.67109 0.41391,0.84869 0,0.36325 0.92015,1.4177 2.89648,3.31855 0.76494,0.73572 1.91086,1.15841 3.57016,1.3256 -0.65021,0.35393 -1.23882,0.70895 -1.67651,1.02595 -0.38182,0.27654 -0.7781,0.48312 -0.88041,0.4597 -0.34122,-0.0784 -3.62727,3.16628 -3.99813,3.9478 -0.12842,0.27062 -0.28312,0.49235 -0.34409,0.49235 -0.0611,0 -0.35337,0.54958 -0.64921,1.22133 -0.67148,1.5248 -0.87472,1.84889 -1.16239,1.8524 -0.24882,0.004 -0.59697,0.68956 -1.34782,2.65711 -1.10904,2.9061 -1.07448,2.66199 -1.04816,7.44679 0.0186,3.37412 0.0798,4.69818 0.28199,6.07539 0.84365,5.74811 4.37892,11.80186 9.06435,15.52239 0.58147,0.46172 1.1515,0.91508 1.26667,1.00735 0.48056,0.38485 2.02096,1.25664 3.23559,1.8311 1.82141,0.86144 3.51474,1.32269 5.34867,1.45708 v -4.6e-4 c 2.24201,0.16421 2.30304,0.16471 2.30304,0.019 0,-0.0733 -0.23528,-0.17394 -0.52317,-0.22351 -3.15903,-0.54425 -3.83155,-0.81158 -5.10069,-2.02785 -0.55346,-0.53042 -1.02603,-0.96446 -1.05042,-0.96474 -0.0245,-2.9e-4 -0.002,0.13463 0.0508,0.29967 0.0937,0.29513 0.0852,0.29417 -0.51411,-0.0485 -0.33509,-0.1916 -0.82933,-0.46813 -1.09802,-0.61429 -0.2687,-0.14617 -0.51585,-0.2824 -0.54901,-0.30285 -0.0333,-0.0204 0.0139,-0.11137 0.10473,-0.20218 0.22674,-0.2267 0.20705,-0.38853 -0.0471,-0.38853 -0.1168,0 -0.56869,-0.34574 -1.00464,-0.76798 -0.49826,-0.48261 -0.91329,-0.76753 -1.11705,-0.76753 -0.24389,0 -0.46174,-0.2127 -0.87952,-0.85911 -0.30542,-0.47253 -0.5549,-0.98172 -0.5549,-1.13157 0,-0.17302 -0.0697,-0.24597 -0.19086,-0.19947 -0.11877,0.0455 -0.45461,-0.27793 -0.88949,-0.8573 -1.08206,-1.44159 -1.2298,-1.70439 -1.02774,-1.82928 0.1249,-0.0772 0.0537,-0.22693 -0.25524,-0.53586 -0.4531,-0.4531 -0.52291,-0.65441 -0.27972,-0.80471 0.0998,-0.0617 0.0823,-0.16762 -0.0535,-0.32233 -0.11119,-0.12674 -0.40895,-0.59992 -0.66144,-1.05178 l -0.45925,-0.82147 0.37764,0.24707 c 0.53513,0.35062 0.60395,0.17261 0.23665,-0.61158 -0.44071,-0.94095 -0.84803,-1.37509 -1.48654,-1.58356 -0.45682,-0.14915 -0.60649,-0.30232 -0.92348,-0.9457 -0.20806,-0.42225 -0.34613,-0.87411 -0.30693,-1.00463 0.0393,-0.13051 -0.0328,-0.4395 -0.16048,-0.68637 -0.15659,-0.30394 -0.20978,-0.64767 -0.16276,-1.06448 0.0448,-0.39762 -0.006,-0.76611 -0.14325,-1.04135 -0.47013,-0.94242 -0.51626,-2.22749 -0.19993,-5.55495 l 0.2983,-3.14084 0.86319,-1.72274 c 0.67334,-1.34253 0.82183,-1.74821 0.67595,-1.83835 -0.26612,-0.16446 0.69621,-1.43007 2.25952,-2.97173 1.40285,-1.38341 2.71225,-2.29618 3.4668,-2.41683 0.2958,-0.0473 0.58223,-0.2003 0.68592,-0.36632 0.16324,-0.2614 0.15075,-0.27857 -0.14961,-0.204 -0.28234,0.0701 -0.26006,0.0225 0.16094,-0.3441 0.62014,-0.53998 1.48524,-0.94633 2.02422,-0.95159 0.57402,-0.005 1.4657,-0.26532 1.4657,-0.42751 0,-0.0732 -0.11001,-0.13377 -0.24435,-0.13465 -0.13436,-8.7e-4 0.3948,-0.32154 1.17599,-0.71222 1.37842,-0.68937 1.47126,-0.7144 3.14084,-0.85003 3.94951,-0.32085 6.98597,0.29414 9.17452,1.85829 2.5451,1.81894 4.56968,4.71974 5.34777,7.66214 0.26747,1.01129 0.31468,1.54703 0.31644,3.62909 0.002,1.3435 -0.0477,2.62351 -0.10926,2.84435 -0.0889,0.3189 -0.0711,0.38594 0.0875,0.32505 0.15882,-0.061 0.17826,0.013 0.097,0.36585 -0.2598,1.12776 -0.64134,1.94065 -0.99828,2.12624 -0.40854,0.21243 -0.5404,0.46072 -0.5404,1.01868 0,0.20697 -0.0941,0.5113 -0.20945,0.67595 -0.29288,0.41815 -2.69429,2.41538 -2.901,2.41275 -0.10855,-0.002 -0.0955,-0.0489 0.0358,-0.13193 0.11334,-0.0714 0.16141,-0.17361 0.1079,-0.22713 -0.0535,-0.0535 -0.4506,0.19375 -0.88268,0.54947 -0.43209,0.35571 -1.0463,0.71408 -1.3646,0.79654 -0.3183,0.0826 -0.87908,0.24714 -1.24627,0.36586 -1.05448,0.34094 -3.26377,0.19248 -4.4202,-0.29694 -2.41136,-1.02053 -4.19579,-3.01546 -4.89985,-5.47743 -0.14937,-0.52232 -0.27156,-1.1502 -0.27156,-1.39542 0,-0.24522 -0.0714,-0.48997 -0.15822,-0.54357 -0.22437,-0.13868 -0.0604,-1.65577 0.28517,-2.63898 0.71585,-2.03677 2.26787,-3.57865 4.31275,-4.2851 0.7208,-0.24899 1.23722,-0.32273 2.26042,-0.32279 1.52976,-5e-5 2.53271,0.31192 3.65675,1.13702 0.36868,0.27067 0.67006,0.41733 0.67006,0.32641 0,-0.45487 -2.1491,-1.97313 -3.26006,-2.30304 -0.95981,-0.28504 -3.06261,-0.27125 -3.9383,0.0259 -1.35768,0.46062 -2.83045,1.59723 -3.35119,2.58638 -0.10913,0.2073 -0.28018,0.42731 -0.38036,0.48872 -0.28438,0.17429 -0.77367,1.05224 -1.07626,1.93174 -0.15168,0.44084 -0.35475,0.89668 -0.45109,1.0128 -0.12013,0.14473 -0.17499,0.76398 -0.17499,1.96936 0,1.42643 0.0583,1.94359 0.30918,2.74098 0.55001,1.74809 1.78377,3.36209 3.7429,4.89668 0.99358,0.77823 1.21395,1.03002 0.90263,1.03002 -0.26664,0 -1.39353,-0.7815 -2.09087,-1.44984 -0.66341,-0.63579 -0.96347,-0.65308 -0.47286,-0.0272 0.12511,0.15959 -0.15849,-0.11189 -0.63016,-0.60341 -0.82456,-0.85918 -1.26038,-1.07047 -0.8192,-0.39714 0.28516,0.43523 1.59501,1.76179 2.19831,2.22642 0.43647,0.33613 1.86167,1.09491 3.00165,1.59762 1.13089,0.49865 3.13332,0.73238 4.43199,0.51772 0.87276,-0.14425 0.58719,-0.32913 -0.50821,-0.32913 -1.17222,0 -3.17492,-0.34333 -3.70662,-0.6356 -0.40749,-0.22401 -0.98469,-0.69857 -0.98469,-0.80969 0,-0.0411 0.34516,0.0439 0.76708,0.18905 1.8976,0.65287 4.84349,0.71348 6.70057,0.13781 1.80959,-0.56091 3.53806,-1.58411 5.03313,-2.97943 0.55637,-0.51923 0.84426,-0.70722 0.87452,-0.57124 0.0248,0.11154 0.0986,0.20266 0.16366,0.20266 0.15268,0 0.3273,-0.78786 0.2149,-0.96973 -0.0699,-0.11315 0.22959,-0.8865 0.43068,-1.11161 0.0282,-0.0315 0.17739,0.0569 0.3314,0.19629 0.25862,0.23392 0.28018,0.23462 0.28018,0.014 0,-0.13137 0.28879,-0.90219 0.64195,-1.71323 0.35314,-0.81103 0.64195,-1.68701 0.64195,-1.94669 0,-0.25968 0.0657,-0.51296 0.14597,-0.56262 0.099,-0.0611 0.11934,0.19788 0.063,0.80335 -0.0705,0.7578 -0.0611,0.81885 0.0625,0.40439 0.0795,-0.26871 0.11458,-0.72401 0.0761,-1.01189 -0.0385,-0.28788 -0.0132,-0.55861 0.0562,-0.6016 0.0695,-0.0429 0.12649,0.0513 0.12649,0.20945 0,0.15807 0.0629,0.28743 0.13963,0.28743 0.0768,0 0.13964,-0.31332 0.13964,-0.69636 0,-0.38303 0.12531,-1.02691 0.27881,-1.43078 0.34081,-0.89677 0.34086,-0.89494 0.0186,-0.97925 -0.30392,-0.0795 -0.46565,-0.84007 -0.28243,-1.32696 0.0857,-0.22767 0.0421,-0.44119 -0.15686,-0.76753 -0.34399,-0.5643 -0.37897,-0.9198 -0.0644,-0.65872 0.11701,0.0971 0.23786,0.15157 0.26838,0.12104 0.0651,-0.0651 -0.31737,-1.86454 -0.49369,-2.32253 -0.0689,-0.17894 -0.23952,-0.31372 -0.39669,-0.31372 -0.20542,0 -0.29944,-0.12638 -0.36857,-0.49506 -0.10765,-0.57383 -0.11876,-0.55745 0.43431,-0.66236 0.38673,-0.0733 0.45064,-0.0288 0.72763,0.50368 0.37828,0.72723 1.28712,3.27803 1.30203,3.65448 0.006,0.15614 0.0428,0.20059 0.083,0.10066 0.0754,-0.18754 -0.32647,-2.18246 -0.51228,-2.54332 -0.0593,-0.11516 -0.15226,-0.53955 -0.20674,-0.94298 -0.0861,-0.63775 -0.0702,-0.72215 0.12331,-0.64784 0.30667,0.11768 0.29105,0.0464 -0.27791,-1.24763 -1.1187,-2.54439 -3.0324,-4.78951 -5.63518,-6.61171 -1.08299,-0.75821 -1.45539,-0.92733 -1.06628,-0.48419 0.14625,0.16656 0.19824,0.30284 0.1156,0.30284 -0.0255,0 -0.0756,-0.0318 -0.1351,-0.0766 0.0761,-0.12381 0.0189,-0.27206 -0.20401,-0.44973 l -0.82646,-0.65873 -8.8e-4,-8.7e-4 0.85321,-0.0118 c 1.12846,-0.0145 2.53985,-0.52775 3.18118,-1.15696 2.22194,-2.18013 2.89693,-2.968 2.89693,-3.38111 0,-0.20619 0.18622,-0.54336 0.41391,-0.74939 0.22762,-0.206 0.41392,-0.58522 0.41392,-0.84279 0,-0.25767 0.1308,-0.73227 0.29059,-1.0545 0.44784,-0.90272 0.72402,-2.36913 0.53859,-2.85704 -0.0922,-0.24174 -0.11868,-0.69438 -0.0589,-1.00553 0.13528,-0.70794 -0.42345,-1.37865 -1.14835,-1.37865 -0.28634,0 -0.67501,-0.13974 -0.86318,-0.3101 -0.18835,-0.17043 -0.80107,-0.40781 -1.36143,-0.52725 -0.56034,-0.11963 -1.39128,-0.31635 -1.84651,-0.43658 -0.63408,-0.16776 -1.58041,-0.23772 -2.60905,-0.23031 z m 0.93528,1.21045 c 0.0394,0.008 0.0292,0.0439 -0.0331,0.10835 -0.56145,0.58063 -0.30138,0.7783 0.64875,0.49235 0.85187,-0.25662 0.90115,-0.24985 0.80696,0.11062 -0.0916,0.35035 0.002,0.3735 1.06313,0.26384 1.02148,-0.10546 1.14773,-0.079 1.03318,0.21943 -0.11049,0.28797 0.0318,0.34002 0.93346,0.34002 0.98742,0 1.04868,0.0287 0.85005,0.39986 -0.11775,0.21995 -0.30913,0.65022 -0.42525,0.95612 -0.19881,0.52287 -0.1804,0.55051 0.31009,0.45652 0.28714,-0.054 0.52181,-0.0604 0.52181,-0.0136 0,0.0469 -0.34579,0.4021 -0.76843,0.7893 -0.7672,0.70307 -0.76792,0.70401 -0.28245,0.88358 l 0.48645,0.17998 -0.69317,0.64784 c -0.68515,0.64017 -0.68807,0.64965 -0.22985,0.81922 0.44156,0.16333 0.42414,0.19601 -0.36404,0.6823 -0.94542,0.58333 -1.02685,0.76439 -0.38627,0.85819 0.36339,0.0532 0.23244,0.18553 -0.66506,0.67232 -0.61464,0.33329 -1.00396,0.6435 -0.86591,0.68955 0.51232,0.17077 0.22403,0.46368 -0.68003,0.69137 -0.82716,0.20831 -1.29185,0.59934 -0.71222,0.59934 0.1202,0 0.16166,0.0928 0.0911,0.20672 -0.0703,0.11407 -0.44052,0.20719 -0.82284,0.20719 -1.02536,0 -1.41566,0.18809 -1.12251,0.5413 0.19448,0.23464 0.11081,0.28423 -0.4606,0.27247 -1.06449,-0.0208 -2.88818,-0.56663 -3.71388,-1.11163 -0.40702,-0.26863 -0.89597,-0.80012 -1.08669,-1.18144 l -0.34681,-0.69363 0.98332,-0.91305 c 1.20831,-1.12196 4.75433,-3.48464 6.57453,-4.38076 0.74184,-0.36519 1.31224,-0.70066 1.26759,-0.74531 -0.31475,-0.31469 -6.6618,2.77424 -8.36303,4.07021 -0.59977,0.45693 -1.21978,0.831 -1.37819,0.831 -0.1583,0 -0.52914,-0.28634 -0.82375,-0.63651 -0.9453,-1.1234 -0.59641,-3.22954 0.84914,-5.12471 0.44508,-0.58376 0.56747,-0.64844 0.71766,-0.37992 0.1502,0.26842 0.32445,0.17594 1.02412,-0.54402 0.4638,-0.477 0.79436,-0.76982 0.73444,-0.65057 -0.0599,0.11924 -0.0265,0.35055 0.0743,0.51366 0.15018,0.2429 0.28922,0.19529 0.76707,-0.2625 0.52657,-0.5047 0.60517,-0.52547 0.80244,-0.21262 0.20056,0.31796 0.26726,0.30877 0.79926,-0.10971 0.65164,-0.51239 0.96324,-0.58203 0.88631,-0.19767 -0.0667,0.33349 0.36363,0.28657 1.39678,-0.15232 0.33249,-0.14137 0.53633,-0.20601 0.60205,-0.19268 z m -18.76523,0.0362 c 0.0855,0.006 0.27711,0.11962 0.55717,0.33322 0.82752,0.63114 1.15606,0.68674 1.15606,0.19584 0,-0.27141 0.14145,-0.21369 0.63605,0.25887 0.59481,0.56807 0.65356,0.5836 0.90535,0.24073 0.24956,-0.33966 0.31761,-0.31215 0.9185,0.3722 0.51994,0.59224 0.67419,0.67352 0.77523,0.40938 0.11318,-0.29482 0.16987,-0.29045 0.53767,0.0417 0.96087,0.86768 1.74065,3.02724 1.63707,4.53308 -0.0341,0.49638 -0.97883,1.52826 -1.39905,1.52826 -0.15288,0 -0.76886,-0.37414 -1.36867,-0.83146 -1.73113,-1.31997 -8.03839,-4.39445 -8.35849,-4.07429 -0.0422,0.0422 0.61244,0.42658 1.45481,0.85412 3.38195,1.71661 7.45546,4.79184 7.22284,5.45294 -0.22625,0.64294 -0.70085,1.2102 -1.33785,1.63525 -0.56882,0.17845 -1.29323,0.46856 -2.04916,0.80516 -0.42514,0.10369 -0.85395,0.1875 -1.18235,0.22577 -1.05452,0.12334 -1.15621,0.10325 -0.92167,-0.18135 0.32257,-0.39076 -0.0284,-0.57485 -1.09621,-0.57485 -0.38229,0 -0.7523,-0.0932 -0.82284,-0.20718 -0.0701,-0.11367 -0.0295,-0.20673 0.0911,-0.20673 0.1205,0 0.21897,-0.0839 0.21897,-0.18633 0,-0.10248 -0.48128,-0.30174 -1.06947,-0.44292 -0.93745,-0.22495 -1.02503,-0.28885 -0.71131,-0.51819 0.31959,-0.23372 0.24168,-0.32458 -0.72808,-0.85049 -0.87687,-0.47573 -0.99867,-0.60122 -0.63333,-0.65464 0.4252,-0.0621 0.66087,-0.45155 0.27337,-0.45155 -0.0985,0 -0.42818,-0.19594 -0.73308,-0.43567 -0.49889,-0.39243 -0.52051,-0.46117 -0.21443,-0.68502 0.30296,-0.22152 0.25868,-0.32004 -0.40485,-0.90262 -0.84466,-0.74051 -0.91043,-0.87811 -0.35406,-0.73262 0.59584,0.15582 0.70578,-0.26753 0.18043,-0.69454 -0.25716,-0.20903 -0.58475,-0.52998 -0.72809,-0.71268 -0.22681,-0.2894 -0.1932,-0.3196 0.25887,-0.23302 0.62715,0.11988 0.63406,0.0527 0.10109,-0.99193 l -0.41844,-0.81922 h 1.0613 c 0.89907,0 1.04072,-0.0521 0.93028,-0.34001 -0.11451,-0.29846 0.0112,-0.32496 1.03319,-0.21942 1.07833,0.11116 1.15635,0.0904 1.05904,-0.28109 -0.12531,-0.47894 -0.18906,-0.47164 0.865,-0.0997 0.81177,0.28638 0.85367,0.28107 0.85367,-0.10382 0,-0.48783 0.0556,-0.49325 0.84369,-0.0857 0.67976,0.35149 1.11359,0.22754 0.92484,-0.26431 -0.0286,-0.0746 -0.0155,-0.10902 0.0358,-0.10517 z m -10.77576,20.45989 c -0.0231,-8.8e-4 -0.049,0.002 -0.078,0.007 -0.21521,0.0436 -0.64729,1.0129 -0.51184,1.14834 0.12335,0.12335 0.57664,-0.24944 0.65419,-0.53813 0.11395,-0.42418 0.0971,-0.60926 -0.0644,-0.61747 z m -1.21228,3.61141 c -0.20204,0 -0.45816,0.65459 -0.4529,1.15833 0.004,0.42333 0.0154,0.43291 0.20946,0.17635 0.11273,-0.14902 0.20584,-0.36904 0.20672,-0.48871 8.8e-4,-0.11968 0.0398,-0.35906 0.0861,-0.53179 0.0462,-0.17274 0.024,-0.31418 -0.0494,-0.31418 z m 28.08754,5.30425 c -0.21643,0 -0.28352,0.48232 -0.12467,0.89628 0.15597,0.40646 0.33413,0.22634 0.33413,-0.33775 0,-0.40326 -0.0583,-0.55853 -0.20946,-0.55853 z m 8.69806,2.45718 c -0.0558,0.007 -0.22668,0.50613 -0.45336,1.41174 -0.20723,0.82795 -0.49811,1.78021 -0.64649,2.11626 -0.14839,0.33603 -0.26974,0.63834 -0.26974,0.67142 0,0.0332 0.0566,0.0248 0.12603,-0.0182 0.19033,-0.11763 0.9427,-2.2783 1.13701,-3.26597 0.12378,-0.62917 0.14992,-0.92093 0.10655,-0.91532 z m -9.22077,0.69544 c -0.026,-0.0118 -0.1129,0.14619 -0.30556,0.50232 -0.19441,0.35939 -0.4215,0.69535 -0.50458,0.74667 -0.30069,0.18579 -0.29768,-0.0699 0.007,-0.56261 0.17108,-0.27677 0.27251,-0.54171 0.22531,-0.58891 -0.0471,-0.0472 -0.10157,-0.0596 -0.12105,-0.0276 -0.0195,0.032 -0.1766,0.25953 -0.34907,0.50594 -0.347,0.49572 -0.40729,0.95675 -0.13918,1.06493 h 4.5e-4 c 0.096,0.0387 0.24755,0.0754 0.33729,0.0816 0.22948,0.0155 0.72898,-0.83709 0.82057,-1.40086 0.0326,-0.20032 0.0492,-0.31229 0.029,-0.32144 z m -3.58739,2.7777 c -0.64185,0.015 -1.82203,0.13565 -1.82203,0.21534 0,0.062 0.17241,0.17595 0.38353,0.25298 0.65861,0.24054 1.36257,0.18993 1.64115,-0.11788 0.13935,-0.15401 0.22734,-0.30049 0.19585,-0.32505 -0.0306,-0.0239 -0.18455,-0.0304 -0.3985,-0.0254 z m -9.41888,0.24662 c -0.0104,-0.004 -0.0186,-0.004 -0.0245,0.003 -0.0671,0.0671 0.43137,1.24108 0.59752,1.40721 0.0596,0.0597 0.13076,0.0409 0.15822,-0.0417 0.0518,-0.15539 -0.57477,-1.30291 -0.73126,-1.36777 z m -0.63878,0.94208 c -0.35528,0 -0.097,0.80146 0.52363,1.62527 0.36467,0.48407 0.745,0.88183 0.8455,0.88358 0.20342,0.004 0.22551,0.0491 -0.62925,-1.2771 -0.33028,-0.51247 -0.60024,-0.99924 -0.60024,-1.0817 0,-0.0825 -0.0629,-0.15005 -0.13964,-0.15005 z"
         id="path10111"
         inkscape:connector-curvature="0" />
    </g>
  </g>
</svg>
