<?xml version="1.0" encoding="UTF-8" standalone="no"?>
<!-- Created with Inkscape (http://www.inkscape.org/) -->

<svg
   xmlns:dc="http://purl.org/dc/elements/1.1/"
   xmlns:cc="http://creativecommons.org/ns#"
   xmlns:rdf="http://www.w3.org/1999/02/22-rdf-syntax-ns#"
   xmlns:svg="http://www.w3.org/2000/svg"
   xmlns="http://www.w3.org/2000/svg"
   xmlns:sodipodi="http://sodipodi.sourceforge.net/DTD/sodipodi-0.dtd"
   xmlns:inkscape="http://www.inkscape.org/namespaces/inkscape"
   width="60.236568mm"
   height="60.237286mm"
   viewBox="0 0 60.236568 60.237286"
   version="1.1"
   id="svg314"
   inkscape:version="0.92.4 (0.92.4+201904251222+dc25406)"
   sodipodi:docname="slackware_logo.svg">
  <defs
     id="defs308" />
  <sodipodi:namedview
     id="base"
     pagecolor="#ffffff"
     bordercolor="#666666"
     borderopacity="1.0"
     inkscape:pageopacity="0.0"
     inkscape:pageshadow="2"
     inkscape:zoom="1.4"
     inkscape:cx="190.53399"
     inkscape:cy="159.76546"
     inkscape:document-units="mm"
     inkscape:current-layer="g5206"
     showgrid="false"
     inkscape:window-width="1236"
     inkscape:window-height="738"
     inkscape:window-x="44"
     inkscape:window-y="25"
     inkscape:window-maximized="1" />
  <metadata
     id="metadata311">
    <rdf:RDF>
      <cc:Work
         rdf:about="">
        <dc:format>image/svg+xml</dc:format>
        <dc:type
           rdf:resource="http://purl.org/dc/dcmitype/StillImage" />
        <dc:title />
      </cc:Work>
    </rdf:RDF>
  </metadata>
  <g
     inkscape:label="Layer 1"
     inkscape:groupmode="layer"
     id="layer1"
     transform="translate(-7.2166647,-7.5916682)">
    <g
       transform="matrix(0.22350933,0,0,0.22350933,-266.50797,127.51515)"
       style="stroke-width:4.47408628"
       id="g5206">
      <path
         style="fill:#000000;stroke-width:4.47408628"
         d="m 1359.423,-536.54799 c -74.3996,0 -134.7554,60.3549 -134.7554,134.75458 0,29.7202 9.6391,57.19313 25.9494,79.47849 3.1225,4.38652 6.4391,8.57626 9.3646,11.76558 v 0 c 1.041,1.13482 1.6252,1.70902 2.1779,2.00595 24.5289,25.57419 59.0384,41.5022 97.2564,41.5022 74.3997,0 134.7553,-60.35255 134.7553,-134.75222 0,-78.04093 -62.0187,-134.75458 -134.7482,-134.75458 z m -10e-5,9.29551 c 69.3112,0 125.459,56.14784 125.459,125.45903 0,69.31116 -56.1478,125.45676 -125.459,125.45676 -69.3112,0 -125.456,-56.1456 -125.456,-125.45676 0,-69.31119 56.1448,-125.45903 125.456,-125.45903 z m -5.1281,47.29384 c -10.5128,-0.007 -13.6574,0.2751 -19.8555,1.7884 -16.604,4.05403 -27.4217,13.28002 -30.8954,26.34874 -1.0089,3.78355 -1.007,14.2889 0,17.92778 3.1539,11.39741 11.2449,19.16967 24.6764,23.7049 8.3575,2.82209 14.7878,3.63849 31.9224,4.05499 14.6548,0.35619 18.1781,0.6155 23.4504,1.72666 9.3737,1.97557 14.2652,7.77365 14.2652,16.90895 0,4.9727 -1.8183,9.31176 -5.4467,12.99703 -5.8942,5.98637 -15.0405,8.94721 -27.5173,8.90816 -15.6444,-0.0491 -28.7448,-4.29954 -37.8902,-12.29296 -3.0611,-2.6756 -5.3987,-5.94749 -7.6605,-10.72218 -2.7912,-5.89232 -4.6795,-7.49495 -8.8389,-7.50078 -1.8717,-0.003 -4.643,0.90291 -5.8613,1.91492 -0.4828,0.40084 -1.2634,1.5648 -1.7351,2.58661 -0.8429,1.82802 -0.8577,2.12173 -0.8577,18.24403 0,16.23096 0.015,16.40597 0.8917,18.59269 0.9702,2.40167 3.2244,4.67669 5.2612,5.30876 v 0 c 3.1506,0.97768 7.8216,-0.46715 14.0325,-4.34114 1.5602,-0.97311 3.0348,-1.70253 3.2771,-1.62049 0.2422,0.0822 2.7626,0.68743 5.601,1.34489 12.6635,2.93332 22.114,4.24749 32.4308,4.50981 14.0757,0.35786 24.2396,-1.47604 33.7343,-6.08587 15.2907,-7.42391 23.1552,-21.27692 21.4557,-37.7938 -0.5803,-5.63984 -1.263,-8.17849 -3.4008,-12.64237 -1.4529,-3.03435 -2.2724,-4.16178 -5.0744,-6.9827 -4.9608,-4.99411 -10.465,-7.94281 -19.089,-10.22594 -7.8332,-2.07378 -13.591,-2.65538 -36.1877,-3.65289 -20.4982,-0.90487 -28.2107,-3.40711 -31.5777,-10.24626 -1.427,-2.89868 -1.8742,-6.81431 -1.1588,-10.14989 1.5699,-7.32042 7.9485,-13.20481 17.1665,-15.8374 7.9041,-2.25736 20.4751,-1.8307 29.3359,0.99624 8.2017,2.61665 12.9511,5.91586 22.7501,15.80352 7.0568,7.12059 7.8612,7.81318 9.4458,8.13181 0.9527,0.19147 2.5591,0.21982 3.5692,0.0632 4.1329,-0.64059 5.9307,-3.53637 6.5062,-10.47819 0.4249,-5.12624 0.1267,-21.06227 -0.4429,-23.60024 -1.0045,-4.48248 -3.2773,-6.77941 -6.9728,-7.04671 -3.1955,-0.23114 -5.4401,0.42984 -9.2003,2.70784 -4.5562,2.76013 -5.2203,2.77945 -13.5423,0.39081 -11.4003,-3.2722 -14.6648,-3.73223 -26.5709,-3.74097 z m -72.8707,120.08928 v 10.12051 c -6e-4,5.56628 -0.1151,13.63379 -0.2538,17.92778 l -0.253,7.80726 h 78.1336 78.1343 v -3.85545 -3.85543 h -74.1591 -74.1592 l 0.189,-14.07234 0.1883,-14.07233 h -3.9089 z"
         id="path5195"
         inkscape:connector-curvature="0"
         sodipodi:nodetypes="csccccsccssssscccccccscccccccscccccccscccsscccccccccccccccccccccccccccc" />
    </g>
  </g>
</svg>
