<?xml version="1.0" encoding="UTF-8" standalone="no"?>
<!-- Created with Inkscape (http://www.inkscape.org/) -->

<svg
   xmlns:dc="http://purl.org/dc/elements/1.1/"
   xmlns:cc="http://creativecommons.org/ns#"
   xmlns:rdf="http://www.w3.org/1999/02/22-rdf-syntax-ns#"
   xmlns:svg="http://www.w3.org/2000/svg"
   xmlns="http://www.w3.org/2000/svg"
   xmlns:sodipodi="http://sodipodi.sourceforge.net/DTD/sodipodi-0.dtd"
   xmlns:inkscape="http://www.inkscape.org/namespaces/inkscape"
   width="37.444881mm"
   height="41.759541mm"
   viewBox="0 0 37.444881 41.759542"
   version="1.1"
   id="svg314"
   inkscape:version="0.92.4 (0.92.4+201904251222+dc25406)"
   sodipodi:docname="ubuntu_studio_logo.svg">
  <defs
     id="defs308" />
  <sodipodi:namedview
     id="base"
     pagecolor="#ffffff"
     bordercolor="#666666"
     borderopacity="1.0"
     inkscape:pageopacity="0.0"
     inkscape:pageshadow="2"
     inkscape:zoom="0.98994949"
     inkscape:cx="49.981538"
     inkscape:cy="30.067162"
     inkscape:document-units="mm"
     inkscape:current-layer="g5206"
     showgrid="false"
     inkscape:window-width="1236"
     inkscape:window-height="738"
     inkscape:window-x="44"
     inkscape:window-y="25"
     inkscape:window-maximized="1"
     showguides="false" />
  <metadata
     id="metadata311">
    <rdf:RDF>
      <cc:Work
         rdf:about="">
        <dc:format>image/svg+xml</dc:format>
        <dc:type
           rdf:resource="http://purl.org/dc/dcmitype/StillImage" />
        <dc:title></dc:title>
      </cc:Work>
    </rdf:RDF>
  </metadata>
  <g
     inkscape:label="Layer 1"
     inkscape:groupmode="layer"
     id="layer1"
     transform="translate(-19.079315,-17.080921)">
    <g
       transform="matrix(0.22350933,0,0,0.22350933,-266.50797,127.51515)"
       style="stroke-width:4.47408628"
       id="g5206">
      <path
         style="fill:#000000;stroke-width:4.47408628"
         d="m 1400.7278,-308.00575 c 14.1412,-4.11274 26.1943,-10.71704 36.5442,-20.0237 3.5672,-3.20771 5.0725,-4.86042 5.8684,-6.44297 0.6218,-1.23647 0.6663,-1.4905 0.6604,-3.77043 0,-2.01962 -0.094,-2.66689 -0.5162,-3.72298 -1.9646,-4.92574 -7.8378,-7.31176 -12.5593,-5.1023 -1.1696,0.54727 -2.0842,1.26397 -4.1014,3.21336 -9.8319,9.50184 -19.0436,14.87663 -32.0715,18.71285 -5.0605,1.49011 -7.907,5.57976 -7.0754,10.16549 0.6448,3.55605 2.9659,6.2117 6.3844,7.30449 1.9998,0.6393 3.8257,0.55054 6.8664,-0.33381 z m -18.8414,-28.23847 c 14.7627,-2.01656 27.8295,-8.61018 38.1532,-19.25231 13.9742,-14.40544 20.4836,-34.75954 17.5326,-54.82249 -1.6423,-11.16502 -6.3182,-21.99884 -13.3504,-30.93202 -2.2851,-2.90293 -8.5061,-8.97624 -11.4473,-11.17557 -8.0466,-6.0172 -16.645,-9.8839 -26.2945,-11.82482 -8.3824,-1.68601 -18.3557,-1.60829 -27.0129,0.21051 -10.8417,2.27774 -21.9446,8.08898 -30.287,15.85207 -0.8825,0.82112 -1.8045,1.60268 -2.0489,1.73682 -1.2832,0.70406 -2.4434,3.56469 -2.425,5.97883 0.047,6.13181 5.4493,10.48984 10.9965,8.8706 1.8089,-0.52803 2.8553,-1.22337 5.3486,-3.55422 9.2074,-8.60757 20.1334,-12.98365 32.4169,-12.98365 11.0264,0 21.0725,3.54385 29.6617,10.4634 13.6249,10.97636 20.1622,28.95578 16.7604,46.09664 -1.2545,6.32126 -3.556,11.86474 -7.197,17.33472 -5.6992,8.56177 -14.5219,15.3133 -24.2299,18.54158 -11.5571,3.84326 -23.82,3.16059 -34.8191,-1.9384 -4.3246,-2.00481 -8.8421,-5.08918 -12.5921,-8.59746 -2.6046,-2.43671 -4.227,-3.26093 -6.7001,-3.4041 -2.9376,-0.17006 -5.641,0.9035 -7.5584,3.00141 -1.3763,1.50581 -1.9961,3.1172 -1.9961,5.18965 0,3.15254 1.2546,5.34019 5.0005,8.71943 8.9711,8.09311 19.3012,13.3753 30.6691,15.68223 2.3487,0.47663 6.5102,1.07186 8.5562,1.22381 2.4196,0.17969 10.3865,-0.0784 12.863,-0.41666 z m -1.751,-30.55167 c 9.0116,-1.8438 16.715,-6.95712 21.7776,-14.45543 6.0512,-8.96239 7.5606,-20.19934 4.1095,-30.59289 -4.1467,-12.48811 -15.0664,-21.46647 -28.2149,-23.19861 -2.8132,-0.3706 -8.5335,-0.14717 -11.2545,0.43959 -6.8478,1.47662 -12.1357,4.3818 -17.2083,9.45428 -6.557,6.55706 -9.7281,13.86497 -10.0339,23.12325 -0.2187,6.62684 0.8005,11.42173 3.6265,17.05947 3.1437,6.2714 8.8031,11.95152 15.0247,15.07971 3.684,1.85222 8.1605,3.19284 12.0614,3.61206 2.1976,0.23617 7.8282,-0.0542 10.1119,-0.52143 z m -10.0007,-16.5471 c -6.7634,-1.43109 -12.2885,-6.86269 -13.686,-13.4543 -0.462,-2.17884 -0.4032,-5.81334 0.1274,-7.88822 1.7804,-6.96081 7.9553,-12.47239 15.0639,-13.4457 3.3207,-0.45465 6.788,0.30977 10.2202,2.25316 2.2402,1.26847 5.4527,4.41153 6.6624,6.51844 3.5839,6.242 3.2326,13.22854 -0.9625,19.14423 -2.0487,2.88888 -5.1065,5.09594 -8.7581,6.32125 -1.7845,0.59874 -2.507,0.71993 -4.6671,0.78262 -1.6038,0.0465 -3.0937,-0.0396 -4.0002,-0.23148 z m -76.6729,12.78424 c 2.6021,-1.00235 4.5337,-3.01049 5.3328,-5.54385 0.6126,-1.94203 0.5596,-3.53908 -0.2236,-6.74145 -1.6052,-6.56368 -2.2551,-11.80115 -2.256,-18.18157 0,-6.27241 0.606,-11.16686 2.1737,-17.53119 1.2547,-5.09418 1.0353,-7.59141 -0.8987,-10.22593 -3.127,-4.25996 -9.9208,-4.47362 -13.8742,-0.43633 -2.2955,2.3442 -2.7447,3.42822 -4.0124,9.68265 -2.1809,10.75949 -2.5325,20.51806 -1.1071,30.7264 0.8337,5.9709 2.2973,12.31191 3.2435,14.05194 1.1401,2.09671 3.3437,3.80934 5.8438,4.54188 1.4061,0.41199 4.2585,0.2429 5.7782,-0.34255 z m 29.4692,-7.67668 c 2.7368,-1.3526 4.5511,-3.86271 5.0304,-6.95977 0.2174,-1.4039 0.1785,-1.79955 -0.4546,-4.62691 -1.1102,-4.95737 -1.1898,-5.5507 -1.3102,-9.75895 -0.1304,-4.55845 0.1462,-7.12978 1.2845,-11.94383 0.8638,-3.65311 0.8062,-5.03174 -0.3088,-7.37952 -0.9799,-2.06332 -2.4606,-3.52889 -4.5957,-4.5486 -1.5316,-0.7315 -1.8318,-0.79668 -3.6683,-0.79668 -1.7828,0 -2.1608,0.0761 -3.4783,0.70033 -1.7088,0.80962 -3.02,2.02585 -3.7014,3.4331 -1.0096,2.08557 -2.4536,8.74983 -2.9258,13.50263 -0.2942,2.96163 -0.2932,8.89694 0,11.84274 0.4654,4.64285 1.6586,10.3629 2.5679,12.31059 2.1234,4.54805 7.1712,6.39313 11.5584,4.22487 z m 114.8091,-75.0444 c 6.5534,-1.39157 9.5368,-8.40588 6.0825,-14.30032 -0.296,-0.50498 -1.872,-2.21311 -3.5023,-3.79583 -10.4116,-10.10756 -23.3166,-17.59685 -37.6969,-21.87709 -3.1555,-0.9392 -3.1954,-0.94485 -5.0106,-0.71053 -1.0063,0.1299 -2.3832,0.44325 -3.0595,0.69633 -3.8116,1.42608 -6.1307,6.04094 -5.2232,10.39365 0.4018,1.92673 1.0018,3.13728 2.1981,4.43519 1.3108,1.42206 2.3249,1.93873 6.3023,3.21125 12.1978,3.90249 20.6795,8.95059 29.642,17.64248 3.0002,2.90968 4.1187,3.69154 6.0059,4.19867 1.4967,0.40222 2.7237,0.43279 4.2617,0.10617 z"
         id="path897"
         inkscape:connector-curvature="0"
         sodipodi:nodetypes="cccccccccccccccccccccccsccccccccscccccccscccccccccccccccccccsccccccccccccccccscccccccccccccccccccc" />
    </g>
  </g>
</svg>
